Bin                        incl                         4mu                          4e                       2mu2e                       2e2mu                        2l2l                          4l
0        0.482409   0.000517945      0.488832    0.00103138      0.483923    0.00103233      0.476779    0.00103777      0.479327    0.00104199      0.478046   0.000735304       0.48637   0.000729638
1        0.494321   0.000542418      0.504456    0.00108049        0.4943    0.00108122      0.489168    0.00108798      0.488498     0.0010893      0.488833   0.000769785      0.499334   0.000764317
2        0.508664   0.000664556      0.513829    0.00132302      0.512753    0.00132343      0.503036    0.00133553      0.504112    0.00133446      0.503574   0.000943984      0.513291   0.000935663
3        0.495923    0.00651351      0.495129     0.0129806      0.525107     0.0126528       0.51002     0.0129082      0.450978      0.013572      0.480268     0.0093687      0.510029    0.00906492