Bin                        incl                         4mu                          4e                       2mu2e                       2e2mu                        2l2l                          4l
0        0.400975    0.00899605       0.41429     0.0178771      0.400625     0.0180593      0.388563     0.0178754       0.39969     0.0181393      0.393992     0.0127326      0.407455     0.0127057
1        0.396716    0.00585499      0.396184     0.0117153      0.396463     0.0116968      0.401027     0.0117632      0.393385      0.011654      0.397148    0.00827913      0.396324    0.00827743
2        0.421909     0.0028832      0.424286    0.00574793      0.428014    0.00574756      0.415661    0.00579561      0.418888      0.005772      0.417276    0.00408977      0.426142    0.00406429
3        0.464863      0.006043       0.48194     0.0118891      0.474419     0.0120164      0.477153     0.0118875      0.423195     0.0125561      0.450335    0.00864276      0.478197    0.00845169