Bin                        incl                         4mu                          4e                       2mu2e                       2e2mu                        2l2l                          4l
0     8.90018e-05      0.251564   2.59352e-05      0.190015   2.01417e-05      0.306795   2.12054e-05       0.31508   2.17196e-05      0.257493   4.29249e-05      0.283049   4.60769e-05      0.227943
1     0.000238033       0.28444    7.0127e-05       0.24132   5.30397e-05      0.322935   4.79478e-05      0.295303   6.69181e-05      0.304674   0.000114866      0.300691   0.000123167      0.270791
2        0.001083      0.295417   0.000330854      0.257558   0.000229491      0.316294   0.000197729      0.267675   0.000324924      0.354268   0.000522653      0.315638   0.000560345      0.278759
3     0.000178003       0.17849   4.71377e-05       0.12999   4.36592e-05      0.198819   3.62972e-05      0.172888   5.09084e-05      0.248208   8.72057e-05      0.210108   9.07969e-05       0.15595