Bin                 0                 1                 2                 3
0         0.25222   0     0.0172465   0   7.61034e-05   0   2.96599e-05   0
1        0.017249   0      0.232619   0     0.0142759   0   -3.4909e-05   0
2     4.29109e-05   0    0.00873822   0      0.215372   0     0.0125873   0
3      2.2044e-06   0   7.44664e-07   0    7.6316e-05   0      0.311378   0