Bin                 0                 1                 2                 3                 4
0         0.59573   0     0.0909159   0     0.0721658   0     0.0733245   0     0.0933384   0
1      0.00907463   0      0.490629   0     0.0182024   0     0.0127352   0     0.0229254   0
2      0.00934772   0      0.018208   0      0.452654   0     0.0204414   0     0.0146807   0
3      0.00946131   0     0.0148943   0      0.021634   0      0.451135   0     0.0202365   0
4      0.00933252   0      0.023386   0     0.0132367   0     0.0167722   0      0.487624   0