Bin                        incl                         4mu                          4e                       2mu2e                       2e2mu                        2l2l                          4l
0        0.739877      0.739877      0.281855      0.281855      0.125176      0.125176      0.138736      0.138736       0.19411       0.19411      0.332846      0.332846      0.407031      0.407031
1        0.344656      0.344656      0.133574      0.133574     0.0577858     0.0577858     0.0654806     0.0654806     0.0878152     0.0878152      0.153296      0.153296       0.19136       0.19136
2        0.170036      0.170036     0.0630987     0.0630987      0.030069      0.030069     0.0336114     0.0336114     0.0432568     0.0432568     0.0768682     0.0768682     0.0931677     0.0931677
3       0.0641923     0.0641923      0.022384      0.022384     0.0122642     0.0122642     0.0135471     0.0135471     0.0159969     0.0159969      0.029544      0.029544     0.0346483     0.0346483