Bin                        incl                         4mu                          4e                       2mu2e                       2e2mu                        2l2l                          4l
0        0.423078   0.000979938      0.612304    0.00160333      0.269034    0.00218307      0.341739    0.00209852      0.464892    0.00189217      0.403269    0.00141279      0.440775    0.00135825
1        0.541928    0.00475143      0.772755    0.00670131      0.361069     0.0111852      0.450108     0.0103418      0.577988    0.00912275      0.513561    0.00690132      0.567828    0.00653102
2        0.475511    0.00489983       0.69109    0.00744598      0.300638     0.0112695      0.397535     0.0105426      0.501207    0.00958497      0.449377    0.00712356      0.498775    0.00673771
3        0.473129    0.00493984       0.70102    0.00749596      0.298742     0.0111375      0.395816     0.0106183      0.499976    0.00967601      0.447772    0.00718384      0.495607    0.00679208
4        0.545604    0.00472453      0.762319    0.00686983      0.362469     0.0111023      0.475955     0.0100526      0.581749    0.00909822      0.528128    0.00678845      0.561538    0.00656536