Bin                 0                 1                 2                 3                 4
0        0.363496   0     0.0961171   0      0.109074   0     0.0732692   0     0.0653076   0
1      0.00491557   0      0.256956   0     0.0145473   0     0.0116664   0     0.0326469   0
2      0.00710595   0     0.0260145   0      0.182845   0     0.0255192   0     0.0237243   0
3      0.00584019   0    0.00938242   0     0.0174302   0      0.233025   0   -0.00327788   0
4      0.00310801   0      0.001994   0    0.00879604   0     0.0196409   0      0.194591   0