Bin                 0                 1                 2                 3                 4
0        0.393323   0     0.0576784   0     0.0613663   0     0.0492627   0     0.0500686   0
1       0.0115459   0      0.364303   0      0.013055   0     0.0113232   0     0.0159356   0
2       0.0162505   0     0.0136552   0      0.291531   0      0.021538   0     0.0143049   0
3       0.0131734   0     0.0115009   0     0.0184882   0      0.301099   0     0.0185629   0
4       0.0133209   0     0.0147575   0     0.0145703   0     0.0171369   0      0.383594   0