Bin                        incl                         4mu                          4e                       2mu2e                       2e2mu                        2l2l                          4l
0      0.00397774     0.0158076    0.00123566     0.0129798   0.000857422     0.0206902    0.00111212     0.0232734   0.000772545     0.0114944    0.00188466      0.016389    0.00209308     0.0153183
1      0.00124503    0.00599405    0.00054167    0.00691617   0.000153849    0.00440578   0.000198953    0.00501615   0.000350559    0.00639595   0.000549512    0.00581666    0.00069552    0.00614204
2       0.0012511    0.00473002   0.000504063    0.00513993    0.00018324    0.00400907   0.000223403    0.00431603   0.000340396    0.00493564   0.000563799    0.00466999   0.000687303    0.00478043
3      0.00105941     0.0039721   0.000365644    0.00370834   0.000194565    0.00414889   0.000177665    0.00337691    0.00032154    0.00468675   0.000499206    0.00411825   0.000560209    0.00385034
4     0.000972029    0.00458358   0.000295608    0.00382574   0.000169086     0.0042371   0.000215554    0.00492228    0.00029178    0.00570978   0.000507335    0.00534636   0.000464694    0.00396584
5      0.00161661     0.0114002   0.000188529    0.00357692   7.27732e-05    0.00265109   0.000712593     0.0239664   0.000642714      0.020138    0.00135531     0.0219844   0.000261302    0.00325987
6     0.000921645     0.0555879   1.88493e-05    0.00290768   1.61646e-06   0.000472204    0.00043636      0.131811    0.00046482      0.138189    0.00090118      0.135025   2.04657e-05    0.00206603