Bin                 0                 1                 2                 3                 4                 5                 6                 7
0        0.440429   0     0.0130708   0     0.0022837   0  -0.000522904   0   -0.00226192   0    0.00110203   0   -0.00116245   0    0.00401378   0
1       0.0101868   0      0.459275   0     0.0125805   0   0.000162674   0   0.000934792   0    0.00195774   0    0.00221865   0   -4.6533e-05   0
2      0.00229787   0     0.0129422   0      0.457414   0     0.0105089   0  -0.000715325   0    0.00378386   0    0.00126241   0   0.000669797   0
3     -0.00026197   0    0.00128768   0    0.00450006   0      0.420288   0     0.0148339   0   0.000712679   0    0.00195309   0     0.0013197   0
4      -0.0012142   0    0.00077776   0    0.00139526   0     0.0162659   0      0.451293   0     0.0187434   0     0.0015449   0   0.000698665   0
5      0.00177272   0  -0.000709395   0     0.0028768   0    0.00109408   0    -0.0011774   0      0.436607   0     0.0104001   0  -0.000113412   0
6     0.000737894   0  -0.000140148   0    0.00019048   0    0.00151397   0  -0.000448973   0     0.0108457   0      0.444466   0     0.0114628   0
7      0.00537937   0   0.000482306   0  -0.000753204   0   0.000807435   0    0.00179618   0     0.0011553   0    0.00863671   0      0.452938   0