Bin                 0                 1                 2                 3                 4                 5                 6                 7
0        0.341889   0   -0.00017236   0   0.000963798   0   0.000570528   0   0.000582928   0   7.76699e-05   0   9.78888e-05   0     0.0104853   0
1      0.00412966   0      0.422475   0    0.00558296   0  -0.000608004   0    0.00137582   0   0.000321239   0             0   0             0   0
2     0.000480205   0    0.00747259   0       0.41854   0     0.0103327   0  -0.000170542   0   0.000106863   0   0.000480327   0             0   0
3     0.000474811   0  -0.000715705   0     0.0076143   0      0.339153   0    0.00777223   0   0.000139282   0   0.000544069   0   0.000350008   0
4      0.00015498   0             0   0  -0.000518289   0     0.0109246   0      0.340956   0    0.00263388   0    0.00033334   0   0.000678266   0
5     0.000474651   0   0.000434533   0   0.000175297   0  -0.000459379   0    0.00578637   0      0.389071   0     0.0133171   0  -0.000558939   0
6      0.00101647   0             0   0   0.000504694   0   0.000304751   0  -0.000702584   0     0.0195097   0      0.397184   0    0.00719035   0
7      0.00990104   0   8.59188e-05   0             0   0             0   0   0.000171705   0   0.000180892   0     0.0140867   0      0.366042   0