Bin                 0                 1                 2                 3                 4                 5                 6                 7
0        0.346876   0     0.0101634   0   0.000355682   0   0.000404538   0             0   0    0.00121473   0    0.00104849   0    0.00752998   0
1       0.0107624   0      0.368688   0     0.0125211   0    0.00146358   0   0.000550263   0   0.000226459   0   0.000723258   0    0.00122432   0
2     0.000812944   0     0.0112978   0      0.368592   0     0.0145848   0    0.00141209   0    0.00172985   0             0   0    0.00113557   0
3               0   0   0.000581674   0     0.0108164   0      0.355843   0    0.00984498   0   0.000550039   0             0   0             0   0
4     0.000892521   0   0.000331819   0             0   0     0.0107342   0      0.361737   0     0.0116555   0    0.00102005   0             0   0
5               0   0   0.000271456   0   0.000485292   0   0.000744376   0     0.0146663   0      0.361007   0     0.0162732   0    0.00121864   0
6      0.00213631   0   0.000961553   0   0.000598941   0   0.000815999   0   0.000931965   0     0.0133316   0      0.341729   0      0.014833   0
7       0.0116542   0   0.000617788   0    0.00124892   0   0.000323659   0   0.000339037   0   0.000529454   0     0.0122072   0      0.355764   0