Bin                 0                 1                 2                 3                 4                 5                 6                 7
0        0.418435   0     0.0100398   0   0.000545345   0   0.000389521   0   0.000391373   0    0.00043009   0   0.000507405   0     0.0084621   0
1       0.0113796   0      0.447266   0     0.0115169   0   0.000653304   0   0.000503877   0    0.00043211   0   0.000559011   0   0.000726628   0
2     0.000597049   0     0.0112987   0      0.445494   0     0.0117085   0    0.00076739   0   0.000713106   0   0.000526765   0   0.000449941   0
3     0.000518549   0    0.00063507   0     0.0100932   0      0.419049   0     0.0086844   0   0.000578192   0   0.000324748   0   0.000399806   0
4     0.000361138   0    0.00035826   0   0.000472373   0    0.00882366   0      0.419805   0    0.00983239   0   0.000638705   0   0.000452495   0
5     0.000483488   0   0.000412082   0   0.000666993   0   0.000677909   0     0.0117565   0      0.446558   0      0.011642   0   0.000842237   0
6     0.000688074   0   0.000748705   0   0.000478766   0   0.000583012   0   0.000747531   0     0.0116402   0       0.44727   0     0.0120345   0
7      0.00824955   0   0.000592925   0   0.000315527   0   0.000389294   0   0.000476371   0   0.000434354   0    0.00976621   0      0.417461   0