Bin                 0                 1                 2                 3
0        0.368827   0     0.0391478   0    0.00548342   0   0.000773546   0
1       0.0740635   0      0.327648   0     0.0332994   0   0.000955729   0
2      0.00899989   0     0.0545483   0      0.382688   0     0.0371719   0
3      0.00177732   0     0.0005883   0     0.0216482   0       0.42473   0