Bin                        incl                         4mu                          4e                       2mu2e                       2e2mu                        2l2l                          4l
0        0.514796    0.00423526      0.574967    0.00865574      0.574958    0.00844773       0.45464    0.00826388      0.478654    0.00828046      0.466427    0.00585087      0.574963    0.00604755
1        0.665344    0.00319893      0.680834    0.00643598      0.677646       0.00617      0.634677    0.00685464      0.664837    0.00617272      0.650779    0.00458978      0.679207    0.00445642
2         0.59696     0.0032067      0.613737    0.00589528      0.558506    0.00649654      0.605864    0.00663619      0.612911    0.00674281      0.609321     0.0047302      0.587689    0.00436979
3        0.580461    0.00200563      0.582158    0.00402775      0.548275    0.00405121      0.573291    0.00406645      0.622454     0.0038695      0.597739    0.00280804      0.565103    0.00285823
4        0.390798    0.00206848      0.393336    0.00414829      0.381594    0.00408322      0.408029    0.00408035      0.380725     0.0042366      0.394499    0.00294004      0.387472    0.00291073