Bin                        incl                         4mu                          4e                       2mu2e                       2e2mu                        2l2l                          4l
0        0.556539    0.00205351      0.620139     0.0039898      0.623809    0.00398578      0.494255    0.00415937      0.501219    0.00415178      0.497718     0.0029385      0.621967    0.00281983
1        0.609603    0.00174063      0.629816    0.00342064      0.640934    0.00338331      0.584563    0.00353943      0.580586    0.00357138      0.582584      0.002514       0.63535    0.00240573
2        0.587273     0.0016108      0.583824     0.0031549      0.582217    0.00315581      0.592302    0.00330347      0.592701    0.00329157      0.592502    0.00233169      0.583019    0.00223118
3        0.555912    0.00103648      0.547122    0.00208083      0.548112    0.00207984      0.569592    0.00205578       0.56093     0.0020705      0.565251     0.0014589      0.547617    0.00147102
4        0.377141    0.00105455      0.375301    0.00210433      0.372952    0.00210435      0.378454    0.00211556      0.382597    0.00211121      0.380522     0.0014944      0.374124      0.001488