Bin                 0                 1                 2                 3                 4
0        0.376054   0    0.00731192   0    0.00790116   0     0.0122051   0     0.0108585   0
1      0.00477667   0      0.446011   0     0.0207985   0     1.658e-05   0   3.49884e-06   0
2       0.0048408   0     0.0165344   0      0.387925   0     0.0159216   0   0.000137311   0
3        0.016548   0   6.23205e-05   0     0.0495184   0      0.372611   0     0.0123122   0
4       0.0155686   0   1.09687e-06   0   0.000424872   0     0.0210769   0      0.363098   0