Bin                        incl                         4mu                          4e                       2mu2e                       2e2mu                        2l2l                          4l
0     0.000171978     0.0172817   5.22622e-05     0.0151391   3.16951e-05     0.0167732   3.86587e-05     0.0190426    4.9362e-05     0.0191357   8.80206e-05     0.0190947   8.39573e-05     0.0157172
1     0.000275991     0.0193648   3.49531e-05    0.00679151   2.49545e-05    0.00896033   0.000107176     0.0353033   0.000108908     0.0331553   0.000216083      0.034187   5.99075e-05    0.00755304
2      0.00016048     0.0101101   5.86407e-05    0.00987859   2.99825e-05    0.00993954   3.79011e-05     0.0120175   3.39561e-05    0.00901438   7.18572e-05     0.0103829   8.86232e-05    0.00989912
3     0.000424827      0.011163   0.000170786     0.0119916   6.95748e-05     0.0107818   8.29458e-05     0.0111505    0.00010152     0.0102311   0.000184466      0.010625   0.000240361     0.0116144
4     0.000638186     0.0178909   0.000223535     0.0167097    0.00012958     0.0215453   0.000132681     0.0191486    0.00015239     0.0162982   0.000285071     0.0175115   0.000353115     0.0182095