Bin                        incl                         4mu                          4e                       2mu2e                       2e2mu                        2l2l                          4l
0         0.39182    0.00486823      0.464596    0.00897965      0.346496    0.00989015      0.364571     0.0100677      0.386076       0.01006      0.375177    0.00711761      0.405644    0.00668304
1        0.392659    0.00400964      0.471875     0.0074142      0.316282     0.0085269      0.377025    0.00814834      0.402237    0.00795724      0.389705    0.00569429      0.395282    0.00564257
2        0.358097    0.00372328      0.441324    0.00683258      0.285683    0.00773766      0.334903     0.0077541      0.366781    0.00747007       0.35109    0.00538135      0.363991    0.00516136
3        0.341651    0.00240578      0.432208    0.00448362      0.268679    0.00507586      0.313163    0.00491067      0.350018    0.00474366      0.331772    0.00341309      0.350629      0.003388
4        0.333615    0.00248338      0.411867    0.00472091      0.266063    0.00519449      0.320564    0.00492739      0.336964    0.00497876      0.328602     0.0035027      0.338208    0.00351603