Bin                        incl                         4mu                          4e                       2mu2e                       2e2mu                        2l2l                          4l
0        0.525578    0.00466486      0.685873    0.00763693      0.395572     0.0102253      0.458211      0.010042      0.561691    0.00902789      0.510004    0.00675138      0.539139    0.00645098
1        0.505277    0.00387796      0.661358    0.00645262      0.367962    0.00856944      0.480012    0.00794306      0.510806    0.00777208      0.495283    0.00555785        0.5141    0.00540959
2        0.462063    0.00366532       0.62502    0.00609341      0.319437    0.00793784      0.429721    0.00765888      0.473691    0.00740827      0.451568    0.00532921      0.470834    0.00505264
3        0.444956    0.00235917      0.620468    0.00391882      0.297098    0.00523724      0.374229    0.00499767      0.482827    0.00455587      0.428409    0.00338217      0.459806    0.00328876
4        0.452557    0.00241121      0.625142    0.00403692      0.308141    0.00534996      0.389152    0.00506602       0.48518    0.00465251      0.437175    0.00343924      0.466587    0.00337621