Bin                 0                 1                 2                 3                 4
0        0.388419   0    0.00907534   0    0.00803579   0     0.0114856   0     0.0107741   0
1       0.0056248   0      0.445338   0     0.0175579   0             0   0             0   0
2      0.00585798   0       0.01319   0      0.401794   0     0.0171476   0    0.00148118   0
3        0.017655   0             0   0     0.0420976   0      0.382873   0     0.0117723   0
4       0.0181994   0             0   0    0.00178054   0     0.0220915   0      0.396655   0