Bin                           0                           1                           2                           3                           4
0                      0.374496   0                    0.010655   0                  0.00697289   0                  0.00458187   0                  0.00340513   0
1                    0.00618586   0                    0.451341   0                   0.0123966   0                           0   0                           0   0
2                      0.010748   0                  0.00798953   0                     0.31928   0                   0.0228057   0                           0   0
3                     0.0203336   0                 0.000276828   0                   0.0614628   0                     0.31104   0                   0.0119967   0
4                     0.0375462   0                           0   0                -0.000191236   0                    0.026914   0                    0.293411   0