Bin                 0                 1                 2                 3                 4
0         0.36686   0    0.00500828   0    0.00581781   0     0.0121821   0    0.00936433   0
1      0.00390103   0      0.413687   0      0.017356   0             0   0             0   0
2      0.00321966   0    0.00956558   0      0.372383   0    0.00854291   0             0   0
3      0.00910577   0   0.000349378   0     0.0459156   0      0.396465   0    0.00774386   0
4      0.00502339   0   0.000386249   0   0.000413603   0     0.0200646   0      0.390446   0