Bin                        incl                         4mu                          4e                       2mu2e                       2e2mu                        2l2l                          4l
0       0.0144849     0.0144849    0.00527286    0.00527286    0.00264571    0.00264571    0.00297721    0.00297721    0.00358914    0.00358914    0.00656636    0.00656636    0.00791857    0.00791857
1       0.0163298     0.0163298     0.0058538     0.0058538    0.00303477    0.00303477    0.00329134    0.00329134    0.00414986    0.00414986     0.0074412     0.0074412    0.00888857    0.00888857
2       0.0163523     0.0163523    0.00585879    0.00585879    0.00303168    0.00303168     0.0033202     0.0033202    0.00414166    0.00414166    0.00746186    0.00746186    0.00889046    0.00889046
3       0.0144438     0.0144438     0.0052707     0.0052707    0.00260914    0.00260914    0.00294819    0.00294819    0.00361581    0.00361581    0.00656399    0.00656399    0.00787984    0.00787984
4       0.0145087     0.0145087    0.00535961    0.00535961    0.00260338    0.00260338    0.00297535    0.00297535    0.00357033    0.00357033    0.00654568    0.00654568    0.00796299    0.00796299
5        0.016402      0.016402    0.00583441    0.00583441    0.00306653    0.00306653     0.0033431     0.0033431    0.00415794    0.00415794    0.00750104    0.00750104    0.00890094    0.00890094
6       0.0163286     0.0163286    0.00580417    0.00580417    0.00301349    0.00301349    0.00330358    0.00330358     0.0042074     0.0042074    0.00751098    0.00751098    0.00881765    0.00881765
7       0.0144187     0.0144187     0.0052695     0.0052695    0.00260473    0.00260473    0.00296965    0.00296965    0.00357478    0.00357478    0.00654443    0.00654443    0.00787423    0.00787423