Bin                 0                 1                 2                 3                 4                 5                 6                 7
0        0.300775   0    0.00660723   0   0.000468456   0   1.65957e-05   0   0.000258772   0   0.000156484   0   0.000251493   0    0.00472106   0
1      0.00578559   0      0.300519   0    0.00782399   0   0.000396344   0   0.000188985   0   0.000301266   0   6.20901e-05   0   0.000467339   0
2     0.000549244   0    0.00614226   0       0.30342   0    0.00625068   0   0.000654218   0    0.00043104   0   0.000420299   0   0.000145392   0
3     0.000362159   0   4.22324e-06   0    0.00702352   0      0.300228   0    0.00487447   0   0.000258617   0   0.000193425   0   0.000137685   0
4     0.000566197   0   6.58206e-05   0   0.000287323   0    0.00474628   0      0.291881   0    0.00599765   0   0.000329205   0   0.000199066   0
5     0.000343613   0   0.000286063   0   0.000397872   0   0.000331061   0    0.00687647   0      0.300084   0    0.00846415   0   0.000125238   0
6     0.000394713   0   0.000331213   0   0.000228053   0   0.000288213   0   0.000323094   0    0.00690006   0      0.316174   0    0.00710008   0
7      0.00589423   0   0.000289532   0  -8.74341e-05   0   0.000145066   0   0.000221976   0   0.000596346   0    0.00480588   0       0.29539   0