Bin                 0                 1                 2                 3                 4
0        0.268589   0     0.0414665   0      0.037935   0     0.0416406   0     0.0466546   0
1      0.00713005   0      0.257159   0    0.00722068   0    0.00930917   0      0.011808   0
2      0.00708509   0    0.00513337   0      0.194933   0    0.00987851   0    0.00600326   0
3      0.00797599   0    0.00419066   0    0.00928742   0      0.207145   0     0.0089905   0
4      0.00747814   0     0.0114336   0     0.0105335   0     0.0108617   0      0.271206   0