Bin                 0                 1                 2                 3                 4
0        0.387781   0     0.0484849   0     0.0468923   0     0.0492122   0     0.0508911   0
1       0.0103434   0       0.37033   0      0.013621   0     0.0126687   0     0.0166147   0
2        0.011462   0     0.0155076   0      0.291957   0     0.0170927   0     0.0115227   0
3       0.0120593   0    0.00868642   0     0.0189132   0       0.29119   0     0.0164175   0
4       0.0104982   0     0.0149077   0     0.0126408   0     0.0166629   0      0.372966   0