Bin                 0                 1                 2                 3                 4
0        0.441794   0     0.0514693   0     0.0580561   0     0.0575148   0     0.0558955   0
1       0.0123831   0      0.410131   0     0.0146026   0     0.0121892   0     0.0165703   0
2       0.0135064   0     0.0145693   0      0.332469   0     0.0204132   0    0.00906941   0
3       0.0128014   0    0.00909228   0     0.0239163   0      0.327031   0     0.0150615   0
4       0.0117901   0      0.015683   0     0.0133976   0     0.0158536   0      0.409635   0