Bin                 0                 1                 2                 3
0        0.226988   0     0.0385104   0    0.00970633   0  -6.20436e-05   0
1       0.0399998   0      0.194442   0     0.0417781   0    0.00205419   0
2      0.00316693   0     0.0330499   0      0.105872   0     0.0610643   0
3    -4.02424e-05   0    0.00288858   0     0.0289885   0      0.147195   0