Bin                 0                 1                 2                 3                 4                 5                 6                 7
0        0.444204   0    0.00654958   0   0.000263497   0   0.000240747   0   0.000235666   0   7.33372e-05   0   0.000177274   0    0.00090615   0
1      0.00584093   0      0.429569   0     0.0084555   0   0.000213253   0   0.000329535   0   0.000338919   0   0.000428208   0   0.000150997   0
2     0.000238001   0    0.00816083   0      0.427822   0    0.00562225   0   0.000541762   0   0.000902387   0   0.000368008   0   6.19741e-05   0
3     0.000182512   0   0.000242212   0    0.00664834   0      0.443244   0    0.00168981   0   0.000666635   0   0.000311025   0   0.000241089   0
4      0.00023823   0   0.000314243   0   0.000589387   0    0.00170063   0      0.442252   0    0.00671305   0   0.000255463   0   0.000203389   0
5     5.22201e-05   0   0.000369787   0   0.000919408   0   0.000495619   0    0.00559526   0       0.42728   0    0.00832449   0   0.000259815   0
6     0.000140083   0   0.000491255   0   0.000411642   0   0.000267557   0   0.000236544   0    0.00859445   0      0.429074   0    0.00596924   0
7     0.000829264   0   0.000118407   0   7.07822e-05   0   0.000221636   0   0.000186675   0   0.000290006   0    0.00649525   0      0.444923   0