Bin                 0                 1                 2                 3                 4                 5                 6                 7
0        0.576345   0    0.00761559   0   0.000403573   0   0.000435089   0    0.00062261   0   0.000107346   0   4.66474e-05   0   0.000970147   0
1      0.00588177   0       0.55863   0    0.00740849   0   0.000207788   0   0.000378385   0    0.00116115   0   0.000912118   0   0.000362277   0
2     0.000201308   0    0.00871557   0      0.568334   0    0.00576635   0    0.00103858   0    0.00143823   0   0.000545952   0    0.00011558   0
3     0.000389429   0   0.000196666   0    0.00663069   0      0.568391   0    0.00224883   0    0.00111387   0    0.00048884   0    0.00057038   0
4     0.000503302   0   0.000649723   0    0.00137908   0    0.00191042   0      0.576252   0    0.00653511   0   0.000427595   0    0.00047038   0
5     0.000114928   0   0.000891589   0     0.0014346   0    0.00117298   0     0.0058506   0      0.557516   0    0.00884195   0   0.000302198   0
6     0.000332114   0   0.000906582   0    0.00060242   0   0.000978676   0   0.000212805   0    0.00830299   0      0.563491   0    0.00524431   0
7     0.000876852   0   0.000290726   0   0.000221123   0   0.000673331   0   0.000272824   0   0.000549757   0    0.00659342   0      0.579148   0