Bin                 0                 1                 2                 3                 4                 5                 6                 7
0        0.425427   0    0.00624098   0   0.000265545   0   0.000189711   0   0.000577619   0   0.000302152   0    0.00024301   0    0.00132101   0
1      0.00489112   0       0.41923   0    0.00787278   0   0.000182531   0   0.000652555   0   0.000731405   0    0.00127334   0   0.000250783   0
2     0.000117932   0    0.00677117   0      0.408214   0     0.0050388   0   0.000700984   0    0.00108954   0   0.000565525   0   9.72228e-05   0
3     0.000161295   0   0.000223504   0    0.00644963   0       0.41916   0    0.00293092   0    0.00113588   0   0.000702711   0   0.000320014   0
4     0.000279918   0   0.000447406   0    0.00133036   0     0.0027755   0      0.423189   0    0.00607944   0   9.44475e-05   0    0.00040051   0
5      7.3565e-05   0   0.000634132   0    0.00151843   0   0.000879439   0    0.00500717   0      0.422265   0    0.00785232   0   0.000432972   0
6     0.000309838   0   0.000540142   0     0.0006454   0    0.00045515   0   0.000305702   0    0.00716153   0      0.416777   0    0.00591035   0
7      0.00154248   0   0.000204134   0   0.000255203   0   0.000535877   0   0.000155396   0   0.000350002   0    0.00685148   0      0.427649   0