Bin                 0                 1                 2                 3                 4
0        0.561512   0     0.0119199   0    0.00913653   0     0.0106565   0     0.0092113   0
1      0.00989839   0      0.598028   0     0.0253795   0   9.84678e-06   0   3.05583e-05   0
2      0.00575098   0     0.0195019   0      0.527291   0     0.0099483   0   1.23198e-05   0
3       0.0150104   0   0.000798794   0     0.0535224   0      0.542057   0    0.00859408   0
4       0.0133221   0   0.000392214   0   0.000625494   0     0.0261847   0      0.545448   0