Bin                 0                 1                 2                 3
0         0.34318   0     0.0544486   0    0.00427352   0    0.00301852   0
1       0.0355463   0      0.296016   0     0.0436215   0    0.00254923   0
2     0.000594047   0     0.0274288   0      0.337765   0     0.0429847   0
3     0.000110721   0   7.63503e-05   0       0.01429   0      0.408498   0