Bin                        incl                         4mu                          4e                       2mu2e                       2e2mu                        2l2l                          4l
0     0.000176823     0.0836315   4.08572e-05     0.0615492   1.50295e-05     0.0427608   5.89356e-05      0.107078   6.20002e-05      0.113013   0.000120936      0.110041   5.58867e-05     0.0550449
1     0.000102461     0.0391709   2.88959e-05     0.0289328   1.68969e-05      0.031537   2.23265e-05     0.0452217   3.43419e-05      0.058451   5.66684e-05     0.0524103   4.57928e-05     0.0298421
2     0.000331985     0.0607151   0.000108699      0.055333   8.72939e-05     0.0828099   5.64464e-05     0.0540704   7.95453e-05     0.0566011   0.000135992     0.0555224   0.000195993     0.0649284
3     0.000996451     0.0490477   0.000341978     0.0442619    0.00017382      0.051297   0.000206779     0.0527853   0.000273874     0.0518321   0.000480653     0.0522379   0.000515798     0.0464067