Bin                        incl                         4mu                          4e                       2mu2e                       2e2mu                        2l2l                          4l
0        0.461419    0.00128323      0.465035    0.00255757      0.464804    0.00255689      0.456999    0.00258093      0.458127    0.00256968      0.457565    0.00182101      0.464919    0.00180823
1        0.493385    0.00166384      0.499079    0.00329732      0.499561    0.00329463       0.48811    0.00335659      0.485399    0.00336619      0.486756    0.00237686       0.49932    0.00233061
2         0.55322    0.00250138      0.558881    0.00497088      0.552358    0.00506321      0.551204    0.00497247      0.549996    0.00499782      0.550603    0.00352499      0.555656    0.00354723
3        0.587276    0.00539479      0.604158      0.010738       0.58601     0.0106127      0.581046     0.0109395      0.576968     0.0108751      0.578986    0.00771261      0.594775    0.00755011