Bin                        incl                         4mu                          4e                       2mu2e                       2e2mu                        2l2l                          4l
0       0.0143617     0.0143617    0.00526622    0.00526622    0.00257624    0.00257624    0.00291561    0.00291561    0.00360359    0.00360359     0.0065192     0.0065192    0.00784246    0.00784246
1       0.0162097     0.0162097     0.0058439     0.0058439    0.00297355    0.00297355     0.0032144     0.0032144    0.00417785    0.00417785    0.00739225    0.00739225    0.00881745    0.00881745
2       0.0162431     0.0162431    0.00587101    0.00587101    0.00295849    0.00295849    0.00321455    0.00321455    0.00419901    0.00419901    0.00741356    0.00741356     0.0088295     0.0088295
3       0.0144138     0.0144138    0.00529138    0.00529138    0.00257699    0.00257699    0.00291379    0.00291379    0.00363166    0.00363166    0.00654546    0.00654546    0.00786837    0.00786837
4       0.0143823     0.0143823    0.00530116    0.00530116    0.00257585    0.00257585    0.00292283    0.00292283    0.00358244    0.00358244    0.00650527    0.00650527    0.00787702    0.00787702
5       0.0162644     0.0162644    0.00586187    0.00586187    0.00297539    0.00297539    0.00323376    0.00323376    0.00419339    0.00419339    0.00742715    0.00742715    0.00883726    0.00883726
6        0.016237      0.016237    0.00582355    0.00582355    0.00298566    0.00298566    0.00322275    0.00322275    0.00420504    0.00420504    0.00742779    0.00742779    0.00880921    0.00880921
7       0.0143252     0.0143252    0.00525699    0.00525699    0.00257976    0.00257976    0.00290085    0.00290085    0.00358756    0.00358756    0.00648841    0.00648841    0.00783676    0.00783676