Bin                        incl                         4mu                          4e                       2mu2e                       2e2mu                        2l2l                          4l
0         1.23535       1.23535       0.45432       0.45432      0.220884      0.220884      0.243126      0.243126      0.317017      0.317017      0.560142      0.560142      0.675204      0.675204
1       0.0758315     0.0758315      0.027619      0.027619     0.0139258     0.0139258     0.0154676     0.0154676     0.0188191     0.0188191     0.0342867     0.0342867     0.0415448     0.0415448
2       0.0897695     0.0897695     0.0321648     0.0321648     0.0165934     0.0165934     0.0185579     0.0185579     0.0224533     0.0224533     0.0410113     0.0410113     0.0487582     0.0487582
3        0.026644      0.026644    0.00952286    0.00952286    0.00500375    0.00500375    0.00550481    0.00550481    0.00661258    0.00661258     0.0121174     0.0121174     0.0145266     0.0145266