Bin                        incl                         4mu                          4e                       2mu2e                       2e2mu                        2l2l                          4l
0        0.503417      0.001199      0.506231    0.00238658      0.501146     0.0024102      0.502476    0.00239852      0.503733    0.00239692      0.503104    0.00169545      0.503701    0.00169588
1        0.303119    0.00142037      0.298911     0.0028438      0.306284    0.00284222      0.304084    0.00283671       0.30334    0.00283992      0.303712    0.00200699       0.30258    0.00201034
2        0.163084    0.00155655      0.164373     0.0031047      0.162965    0.00312204      0.161722    0.00311337       0.16315    0.00311257      0.162435    0.00220121      0.163672    0.00220146
3       0.0303809    0.00167542      0.030485    0.00334418      0.029605    0.00336156      0.031719    0.00334609     0.0297763    0.00335144     0.0307486    0.00236793     0.0300471    0.00237082