Bin                 0                 1                 2                 3
0        0.590939   0     0.0756324   0    0.00729918   0   0.000748678   0
1       0.0591849   0      0.502162   0      0.113439   0     0.0137725   0
2      0.00463814   0     0.0605602   0      0.439558   0      0.114562   0
3     0.000403258   0    0.00569587   0     0.0638241   0      0.470054   0