Bin                        incl                         4mu                          4e                       2mu2e                       2e2mu                        2l2l                          4l
0     0.000436181    0.00802936   0.000124758    0.00630885   7.24557e-05    0.00735325   0.000118842     0.0108554   0.000120126    0.00873833   0.000238967    0.00967689   0.000197213    0.00665618
1      0.00033465    0.00760934   9.66319e-05     0.0060556   5.40332e-05    0.00672632   9.39245e-05     0.0104682   9.00602e-05    0.00817551   0.000183985    0.00920464   0.000150665    0.00628019
2     0.000140494     0.0065455   4.10201e-05    0.00537459   2.27605e-05    0.00558573   3.91028e-05    0.00892129   3.76103e-05    0.00699845   7.67131e-05    0.00786222   6.37806e-05    0.00544808
3     1.85512e-05    0.00723349   3.62879e-06    0.00407861   2.39064e-06    0.00483777   5.88636e-06     0.0104028   6.64543e-06     0.0108071   1.25318e-05     0.0106134   6.01943e-06     0.0043497