Bin                 0                 1                 2                 3
0        0.481133   0      0.098897   0     0.0090639   0    0.00532874   0
1       0.0168662   0      0.355884   0     0.0783145   0    0.00631121   0
2     0.000184728   0     0.0198057   0      0.396442   0     0.0622516   0
3     1.70085e-05   0   2.79568e-05   0    0.00999574   0      0.413992   0