Bin                        incl                         4mu                          4e                       2mu2e                       2e2mu                        2l2l                          4l
0        0.475883    0.00151977      0.473497     0.0030359      0.474956     0.0030387      0.480986    0.00303266      0.474472    0.00304845      0.477726    0.00215002      0.474225     0.0021477
1         0.53225    0.00125152      0.534531    0.00249575      0.536415    0.00249666      0.528856    0.00250962      0.528573    0.00250904      0.528715    0.00177437      0.535471    0.00176509
2         0.56169    0.00112104      0.567801    0.00222912      0.566836    0.00222823       0.55399    0.00226119      0.557022    0.00225016      0.555508      0.001595      0.567318    0.00157591
3        0.570645    0.00107031      0.576553    0.00212219      0.580437    0.00211826      0.563382    0.00216161       0.56062    0.00216218      0.561998     0.0015287       0.57849    0.00149924
4        0.571019    0.00107082      0.578477    0.00211769      0.577539    0.00212506      0.565133    0.00216035      0.561438    0.00216559      0.563283    0.00152946      0.578009    0.00150003
5        0.559897    0.00112388      0.563245    0.00224208      0.569083    0.00222023      0.553823    0.00226144       0.55214    0.00226847      0.552982    0.00160156      0.566173    0.00157764
6        0.532695    0.00124956      0.537084    0.00248303       0.53375    0.00249536      0.529322     0.0025114      0.530044    0.00250649      0.529683    0.00177409      0.535419    0.00176012
7        0.475024    0.00152407      0.472531     0.0030439      0.473123    0.00305984       0.47769    0.00303978      0.477214    0.00304555      0.477452    0.00215148      0.472825    0.00215797