Bin                        incl                         4mu                          4e                       2mu2e                       2e2mu                        2l2l                          4l
0        0.409688     0.0053847      0.405445     0.0107737      0.411748     0.0108388       0.40612     0.0108243       0.41563     0.0106257      0.410922    0.00758302      0.408555    0.00764112
1        0.452566    0.00452833       0.46108    0.00900777      0.445829    0.00903485      0.453905    0.00907509        0.4494    0.00910599      0.451652      0.006428      0.453386     0.0063796
2        0.478377    0.00408336      0.482275    0.00818316      0.483543    0.00809048      0.475517    0.00820408      0.471312    0.00818697      0.473402    0.00579515      0.482914    0.00575338
3        0.485346    0.00393195      0.491137    0.00781785       0.49482    0.00777783      0.475019      0.007987      0.478781    0.00787904      0.476918    0.00560916      0.492978    0.00551391
4        0.485288    0.00391337      0.490303     0.0078331      0.489013    0.00770715      0.481822    0.00787247      0.479035    0.00790085      0.480431     0.0055767      0.489648    0.00549385
5        0.476622    0.00411909      0.483096    0.00816089       0.48261    0.00817732      0.473674    0.00827264      0.465706    0.00834893      0.469698    0.00587658      0.482854     0.0057764
6        0.451251    0.00453376      0.452317    0.00897065      0.460928    0.00908696      0.439455    0.00916919       0.45144     0.0090423      0.445463    0.00643866      0.456525    0.00638404
7         0.40822    0.00543455      0.408901     0.0108445      0.397808     0.0109494      0.418067      0.010741      0.409028     0.0109259      0.413592    0.00765975      0.403367     0.0077053