Bin                        incl                         4mu                          4e                       2mu2e                       2e2mu                        2l2l                          4l
0     8.08012e-05    0.00892275   2.32406e-05    0.00679163    8.0758e-06    0.00531484   2.10729e-05     0.0122903   2.84118e-05     0.0118402   4.94848e-05     0.0120278   3.13164e-05    0.00633752
1      0.00011851    0.00857466   3.64721e-05    0.00715607   1.62519e-05    0.00668611   2.94378e-05     0.0109041    3.6348e-05     0.0101139   6.57858e-05     0.0104529    5.2724e-05    0.00700431
2      0.00013685    0.00779893   3.65769e-05    0.00575213   2.17897e-05    0.00674952   3.86857e-05     0.0109879   3.97978e-05    0.00896475   7.84835e-05    0.00985959   5.83667e-05    0.00608798
3     0.000153242    0.00786816   3.90754e-05    0.00553725   2.90035e-05     0.0079648   4.48981e-05     0.0114222   4.02647e-05    0.00830695   8.51629e-05    0.00970197   6.80789e-05    0.00636353
4      0.00015441    0.00794689   3.68017e-05    0.00523214   2.82558e-05    0.00774475   4.45566e-05     0.0112703   4.47955e-05    0.00934299   8.93521e-05      0.010214   6.50575e-05    0.00609029
5     0.000141129    0.00809537   3.79937e-05    0.00602155   2.25414e-05    0.00711568   4.12213e-05     0.0116258   3.93727e-05    0.00892769    8.0594e-05     0.0101302   6.05351e-05    0.00638726
6     0.000118512    0.00852088   2.84081e-05    0.00551401   2.07519e-05    0.00838021   3.56755e-05     0.0130922   3.36767e-05     0.0094725   6.93522e-05     0.0110431     4.916e-05    0.00644444
7     8.33324e-05    0.00922275   2.72364e-05    0.00796625   9.56832e-06    0.00640274   1.93474e-05     0.0114586   2.71802e-05     0.0111684   4.65276e-05     0.0112873   3.68048e-05    0.00749071