Bin                        incl                         4mu                          4e                       2mu2e                       2e2mu                        2l2l                          4l
0        0.242448    0.00184733      0.241486    0.00370497      0.241703    0.00368772      0.242761    0.00368889      0.244017    0.00369671      0.243387     0.0026112      0.241595    0.00261369
1        0.333605    0.00173262       0.33628    0.00346573      0.332466    0.00345999      0.332786    0.00346268      0.332747      0.003473      0.332766    0.00245212      0.334365    0.00244862
2         0.27188    0.00181109      0.269004    0.00363714       0.27123    0.00361521      0.274657    0.00361036      0.272976    0.00362521      0.273818    0.00255815      0.270121    0.00256406
3        0.152067    0.00195442       0.15323    0.00391458      0.154601    0.00389376      0.149797    0.00390877       0.15026    0.00391924      0.150028    0.00276761      0.153918    0.00276064