Bin                 0                 1                 2                 3                 4                 5                 6
0        0.334706   0     0.0399496   0    0.00118222   0   0.000332296   0   0.000247741   0             0   0             0   0
1       0.0178217   0      0.290561   0     0.0503226   0    0.00152081   0   0.000181741   0   0.000170677   0             0   0
2     5.57184e-05   0     0.0302904   0      0.272754   0     0.0672003   0    0.00282678   0             0   0             0   0
3     0.000458062   0   0.000106864   0     0.0367051   0        0.2819   0     0.0602517   0   0.000199508   0    0.00129736   0
4     0.000377474   0   2.23279e-05   0   0.000426561   0     0.0384234   0      0.348258   0     0.0314964   0             0   0
5               0   0   1.95811e-05   0   0.000147576   0             0   0     0.0120449   0      0.411844   0      0.118939   0
6               0   0             0   0             0   0             0   0             0   0    0.00860148   0      0.314851   0