Bin                        incl                         4mu                          4e                       2mu2e                       2e2mu                        2l2l                          4l
0      0.00506052    0.00506052    0.00182281    0.00182281   0.000915386   0.000915386    0.00100688    0.00100688    0.00131544    0.00131544    0.00232232    0.00232232     0.0027382     0.0027382
1      0.00645178    0.00645178    0.00244507    0.00244507     0.0011536     0.0011536    0.00124123    0.00124123    0.00161188    0.00161188    0.00285311    0.00285311    0.00359867    0.00359867
2      0.00839588    0.00839588    0.00308804    0.00308804    0.00153175    0.00153175    0.00167839    0.00167839    0.00209771    0.00209771     0.0037761     0.0037761    0.00461978    0.00461978
3      0.00447507    0.00447507    0.00155265    0.00155265   0.000858915   0.000858915    0.00094233    0.00094233    0.00112118    0.00112118    0.00206351    0.00206351    0.00241156    0.00241156