Bin                        incl                         4mu                          4e                       2mu2e                       2e2mu                        2l2l                          4l
0        0.413423    0.00625688        0.5704     0.0107581      0.257151     0.0137802      0.340712     0.0132603       0.48206     0.0117776      0.411998    0.00886912      0.414706    0.00881224
1        0.427249    0.00509319      0.620904    0.00829608      0.263202     0.0114105      0.352672     0.0107854      0.461164    0.00987023      0.407334    0.00731252      0.445393    0.00708626
2        0.441763    0.00456205      0.614394    0.00753705      0.283074     0.0100661      0.398659    0.00959703      0.463314     0.0089984      0.431577    0.00657617      0.450631    0.00633056
3        0.443032    0.00438108      0.587854    0.00752115      0.307717    0.00952214      0.401582    0.00905685      0.471446    0.00867203      0.436237    0.00627768      0.449015    0.00611132
4        0.446595    0.00433604      0.604649    0.00724915      0.314244    0.00936146      0.393218    0.00916474      0.465626    0.00869422      0.429418     0.0063219      0.461265    0.00595793
5        0.443293    0.00455569      0.607925       0.00767      0.312141    0.00982797      0.379061    0.00961315      0.470191    0.00900582      0.424472    0.00659427       0.45989     0.0062958
6        0.424902    0.00512612      0.612537    0.00845333      0.271753     0.0112778      0.354297     0.0107819      0.455915       0.01007      0.404771    0.00738768      0.442989    0.00710929
7        0.402988    0.00627934      0.584725     0.0106413      0.248837     0.0135541      0.326877     0.0133869      0.455084     0.0120437      0.391673     0.0090033      0.413051    0.00875307