Bin                        incl                         4mu                          4e                       2mu2e                       2e2mu                        2l2l                          4l
0        0.512955   0.000826903      0.525364    0.00165808      0.505753    0.00165302      0.510882    0.00164579      0.509888    0.00165573      0.510388    0.00116725      0.515325    0.00117088
1        0.493727   0.000730267       0.49793    0.00145502      0.494251     0.0014596      0.493205    0.00146325      0.489071    0.00146352       0.49113    0.00103478      0.496088    0.00103048
2        0.488679   0.000678859      0.495646    0.00134576      0.493328    0.00135273      0.482689    0.00136551      0.481853    0.00136731      0.482271   0.000966195       0.49449   0.000954055
3          0.4956   0.000657464      0.528583    0.00130111      0.496985    0.00130504      0.479176     0.0013244      0.476509     0.0013262      0.477841   0.000937131       0.51231   0.000921892
4        0.483539   0.000655962      0.492438    0.00129819      0.482766     0.0013016      0.478924    0.00132326      0.479095    0.00132632      0.479009   0.000936765      0.487566   0.000919204
5        0.487777   0.000678675      0.494012    0.00134988      0.490315    0.00135175      0.485202    0.00136716      0.480731    0.00136064      0.482947   0.000964426      0.492159   0.000955176
6        0.489246   0.000728626      0.500285    0.00145352      0.500046     0.0014551      0.462333    0.00146066      0.493854    0.00145622      0.477663    0.00103174      0.500165    0.00102835
7        0.505735   0.000825524      0.505715    0.00165238      0.497178    0.00165475       0.50845    0.00165101      0.512642    0.00164366      0.510546    0.00116484      0.501413    0.00116929