Bin                 0                 1                 2                 3                 4                 5                 6                 7
0        0.437902   0     0.0417082   0    0.00230395   0    0.00204489   0   0.000376102   0    0.00143694   0   0.000464458   0   0.000790974   0
1       0.0357976   0      0.410472   0     0.0361258   0    0.00369412   0   1.17466e-05   0  -0.000513392   0  -0.000142926   0   0.000527814   0
2      0.00289994   0     0.0352019   0      0.409684   0     0.0487214   0  -5.04289e-05   0  -0.000355594   0  -0.000456501   0    0.00183132   0
3      0.00319183   0    0.00231545   0     0.0280787   0      0.385034   0     0.0388103   0  -0.000385266   0   0.000483114   0    0.00163852   0
4    -0.000141199   0    0.00103804   0    0.00161423   0     0.0135422   0      0.436932   0     0.0377372   0   -0.00322398   0    0.00109712   0
5      0.00224459   0   0.000451121   0   -0.00127665   0   0.000600483   0     0.0149743   0      0.418597   0     0.0360285   0      0.001116   0
6     -0.00155135   0    0.00041705   0  -0.000339288   0    0.00062763   0    0.00117978   0     0.0191918   0      0.415514   0     0.0237505   0
7      0.00120342   0   0.000687923   0   0.000584537   0             0   0   0.000928206   0   -0.00103286   0     0.0191709   0      0.441144   0