Bin                 0                 1                 2                 3                 4                 5                 6                 7
0        0.601081   0     0.0501598   0    0.00484769   0    0.00316932   0   0.000693334   0    0.00351454   0             0   0    0.00141404   0
1       0.0499399   0       0.54024   0     0.0470101   0   0.000461922   0   6.52708e-05   0   0.000764826   0  -0.000263626   0  -0.000423157   0
2     0.000858697   0     0.0433652   0      0.564998   0     0.0439332   0   0.000616964   0    0.00038188   0   -0.00102648   0    0.00218278   0
3      0.00311991   0   0.000661537   0     0.0377696   0      0.565166   0     0.0420259   0   0.000807744   0    0.00243563   0    0.00136058   0
4     -0.00228484   0   1.09251e-05   0  -0.000195334   0    0.00499322   0       0.61879   0     0.0272914   0   -0.00709735   0    0.00105406   0
5      0.00201818   0    0.00013965   0    -0.0012444   0    0.00120463   0     0.0160361   0      0.587978   0     0.0417425   0             0   0
6     -0.00382583   0  -9.13613e-05   0    0.00177204   0  -0.000781883   0   0.000160207   0     0.0310159   0      0.603905   0     0.0246014   0
7      0.00179938   0     0.0013288   0             0   0  -0.000120303   0    0.00153142   0  -0.000250838   0     0.0141035   0      0.565555   0