Bin                 0                 1                 2                 3
0        0.305171   0     0.0285571   0    0.00399119   0   0.000108631   0
1        0.127972   0      0.256277   0     0.0563609   0    0.00227568   0
2        0.036048   0       0.10859   0      0.231145   0     0.0184766   0
3       0.0311509   0     0.0353287   0      0.105898   0      0.306545   0