Bin                 0                 1                 2                 3                 4
0        0.305814   0     0.0420717   0    0.00391455   0   0.000800313   0   9.39493e-05   0
1       0.0396428   0      0.277233   0     0.0650151   0     0.0124861   0     0.0011192   0
2       0.0041325   0     0.0437523   0      0.273436   0     0.0928476   0     0.0103113   0
3     0.000455532   0    0.00385702   0     0.0370753   0      0.241275   0     0.0596494   0
4     1.37726e-05   0   0.000378389   0    0.00527089   0     0.0459236   0       0.26719   0