Bin                 0                 1                 2
0        0.226783   0    0.00725219   0             0   0
1      0.00204862   0      0.334211   0     0.0189444   0
2               0   0   0.000239839   0       0.37599   0