Bin                 0                 1                 2
0        0.296024   0    0.00834346   0             0   0
1      0.00275366   0      0.380599   0     0.0151243   0
2               0   0    0.00098123   0      0.291669   0