Bin                 0                 1                 2                 3                 4                 5                 6                 7
0        0.332217   0    0.00542321   0    0.00045558   0   0.000567477   0   0.000742015   0    0.00114078   0   0.000820349   0     0.0023186   0
1      0.00597059   0      0.337048   0    0.00790431   0   0.000733266   0   0.000301834   0    0.00114119   0    0.00159588   0    0.00126774   0
2     0.000597857   0    0.00591011   0      0.359188   0    0.00540966   0    0.00211425   0    0.00186599   0    0.00108045   0    0.00115774   0
3     0.000296902   0    0.00107403   0    0.00731105   0      0.345576   0    0.00253504   0    0.00289904   0    0.00112444   0   0.000201312   0
4     0.000331341   0    0.00049331   0    0.00170434   0    0.00396467   0      0.336331   0    0.00738791   0   0.000634998   0   0.000979551   0
5      0.00079223   0   0.000520617   0    0.00102315   0    0.00136846   0    0.00558245   0      0.339348   0    0.00669014   0   0.000565828   0
6     0.000803473   0    0.00170736   0   0.000877122   0   0.000129559   0  -0.000164272   0     0.0069598   0      0.332872   0    0.00497934   0
7      0.00224972   0    0.00171013   0   0.000593108   0   0.000662248   0    0.00067827   0    0.00020987   0    0.00769191   0      0.353264   0