Bin                        incl                         4mu                          4e                       2mu2e                       2e2mu                        2l2l                          4l
0      0.00277352     0.0150103   0.000963379     0.0140238   0.000439191     0.0133309   0.000695558      0.019098   0.000675395     0.0144583    0.00137095     0.0164909    0.00140257     0.0137992
1       0.0024741     0.0157994   0.000850146     0.0142569   0.000408263     0.0147892   0.000558912     0.0185105   0.000656775     0.0167699    0.00121569     0.0175277    0.00125841     0.0144253
2       0.0024304     0.0160183   0.000782208     0.0137409   0.000385192     0.0144952   0.000609206     0.0205565   0.000653797     0.0169414      0.001263     0.0185117     0.0011674      0.013981
3      0.00267159     0.0152287   0.000874832      0.013557   0.000478398     0.0156605   0.000618094      0.017629   0.000700269     0.0154612    0.00131836     0.0164071    0.00135323     0.0142328
4      0.00271593      0.015402   0.000842051     0.0131102    0.00046394     0.0149378   0.000635218     0.0180365   0.000774725     0.0169036    0.00140994     0.0173959    0.00130599     0.0137059
5      0.00232301      0.015328   0.000823783     0.0145846    0.00035863     0.0134219   0.000523807     0.0173742   0.000616793     0.0161454     0.0011406     0.0166874    0.00118241     0.0142112
6      0.00252001     0.0161018   0.000781854     0.0132094   0.000391771     0.0142276   0.000653537     0.0214345   0.000692847     0.0176341    0.00134638     0.0192946    0.00117362     0.0135327
7      0.00291501     0.0158034   0.000996118     0.0147152   0.000513196     0.0157603   0.000651668       0.01768   0.000754029     0.0159278     0.0014057     0.0166949    0.00150931     0.0150546