Bin                 0                 1                 2                 3                 4                 5                 6                 7
0        0.379021   0     0.0140744   0    0.00108057   0   0.000319198   0  -0.000262919   0    -0.0001027   0             0   0   6.30419e-05   0
1       0.0173422   0      0.365562   0     0.0189086   0   0.000661147   0   0.000225059   0   0.000341224   0   5.60522e-05   0             0   0
2      0.00181487   0     0.0193593   0      0.361114   0     0.0227708   0   0.000568581   0   0.000686606   0   4.02133e-05   0    0.00028708   0
3     0.000310542   0   0.000499277   0     0.0256867   0      0.359696   0     0.0233808   0   0.000689937   0   0.000589755   0   0.000299243   0
4     0.000315358   0   0.000746931   0   0.000533298   0     0.0268745   0      0.351784   0     0.0244607   0    0.00139563   0   0.000523217   0
5               0   0   0.000699067   0   0.000271549   0   0.000725394   0     0.0233324   0      0.356412   0     0.0254613   0    0.00139154   0
6     0.000173315   0   0.000149702   0  -0.000609971   0   0.000591247   0    0.00151577   0     0.0240284   0      0.357202   0     0.0141544   0
7     0.000226592   0   4.85031e-05   0   4.26726e-05   0   8.73449e-05   0   0.000122368   0    0.00081053   0     0.0161762   0      0.377759   0