Bin                 0                 1                 2                 3                 4                 5                 6                 7
0        0.401447   0     0.0173188   0   0.000157187   0   3.23216e-05   0    4.1813e-05   0             0   0   1.02145e-05   0   2.34843e-05   0
1       0.0189872   0      0.376944   0     0.0260286   0   0.000346135   0   0.000130832   0   1.63407e-05   0             0   0  -4.58308e-06   0
2     0.000322971   0     0.0259975   0      0.362604   0      0.030005   0   0.000488677   0   7.91611e-05   0   2.73187e-05   0   1.68326e-05   0
3     6.22366e-05   0   0.000483099   0     0.0293893   0      0.361396   0     0.0310282   0   0.000694248   0    0.00014897   0    1.1071e-05   0
4     3.84017e-05   0   0.000166182   0   0.000521274   0     0.0312138   0      0.360343   0     0.0311366   0   0.000536532   0   0.000114037   0
5      2.4386e-05   0   3.67226e-05   0   0.000119354   0   0.000555222   0     0.0296386   0      0.366035   0     0.0263252   0   0.000364404   0
6     9.28102e-06   0   2.08117e-05   0   2.02859e-05   0   6.24451e-05   0   0.000394436   0     0.0249929   0      0.378001   0     0.0191604   0
7     1.50592e-05   0   8.21191e-06   0   3.39874e-05   0    9.8533e-06   0   4.75392e-05   0   0.000256635   0     0.0162142   0      0.399031   0