Bin                        incl                         4mu                          4e                       2mu2e                       2e2mu                        2l2l                          4l
0        0.536387      0.536387      0.152437      0.152437      0.118746      0.118746      0.119359      0.119359      0.145845      0.145845      0.265204      0.265204      0.271183      0.271183
1        0.317385      0.317385     0.0905214     0.0905214     0.0729894     0.0729894     0.0707971     0.0707971     0.0830775     0.0830775      0.153875      0.153875      0.163511      0.163511
2        0.126119      0.126119     0.0351743     0.0351743     0.0276554     0.0276554     0.0291656     0.0291656     0.0341241     0.0341241     0.0632897     0.0632897     0.0628297     0.0628297
3       0.0441947     0.0441947       0.01299       0.01299     0.0104922     0.0104922    0.00962559    0.00962559      0.011087      0.011087     0.0207126     0.0207126     0.0234821     0.0234821
4       0.0190508     0.0190508    0.00597869    0.00597869    0.00515148    0.00515148    0.00391074    0.00391074    0.00400986    0.00400986     0.0079206     0.0079206     0.0111302     0.0111302