Bin                 0                 1                 2                 3
0        0.420188   0     0.0415626   0   7.07891e-05   0   2.79208e-05   0
1       0.0249055   0      0.388947   0     0.0247534   0   2.81478e-05   0
2     0.000190495   0     0.0309823   0      0.373496   0     0.0223085   0
3     1.92845e-05   0   4.96969e-05   0     0.0359491   0      0.389341   0