Bin                        incl                         4mu                          4e                       2mu2e                       2e2mu                        2l2l                          4l
0      0.00316118     0.0320676   0.000212254    0.00679022   0.000169242     0.0101585    0.00134106     0.0546206    0.00143862     0.0551039    0.00277969     0.0548697   0.000381497    0.00796128
1     0.000694904    0.00591605   0.000232266    0.00516185   0.000134734    0.00554743   0.000162953     0.0073627   0.000164951    0.00633349   0.000327905    0.00680631      0.000367    0.00529702
2      0.00199543    0.00793537   0.000712405    0.00770531   0.000403951    0.00812801   0.000396482    0.00892149   0.000482595    0.00744005   0.000879077    0.00804237    0.00111636    0.00785309
3      0.00993622      0.011605    0.00345837     0.0105357    0.00205176     0.0146665    0.00214633      0.013088    0.00227975     0.0101747    0.00442608     0.0114059    0.00551013     0.0117701