Bin                 0                 1                 2                 3                 4                 5                 6                 7
0        0.382595   0     0.0121093   0   0.000830114   0   0.000265649   0   2.05569e-05   0   6.54409e-05   0   2.99063e-05   0   0.000129295   0
1       0.0150888   0      0.377051   0      0.019911   0   0.000399274   0   0.000264584   0   0.000163665   0   1.53311e-05   0   3.80152e-05   0
2    -0.000143606   0      0.018145   0      0.365068   0     0.0259055   0   0.000626838   0   0.000317876   0   9.28238e-05   0   0.000283081   0
3     0.000550138   0   0.000585884   0     0.0249233   0      0.355373   0     0.0248982   0   0.000392234   0   0.000381557   0  -9.98145e-05   0
4     0.000198842   0   0.000243652   0   0.000349988   0     0.0249854   0       0.35718   0     0.0254125   0   0.000731729   0    0.00067562   0
5     0.000101335   0   6.01679e-05   0   0.000341668   0   0.000698027   0       0.02431   0      0.361711   0     0.0234587   0    0.00126443   0
6               0   0   -7.5033e-06   0  -0.000108912   0    0.00027198   0    0.00106234   0     0.0180901   0       0.37181   0     0.0144707   0
7     0.000151702   0   4.24813e-05   0   0.000123251   0   0.000107203   0   0.000404794   0    0.00048808   0     0.0122721   0      0.393833   0