Bin                 0                 1                 2                 3                 4                 5                 6                 7
0        0.439332   0     0.0172347   0   0.000647748   0   0.000160079   0   6.28912e-05   0    3.7316e-05   0   1.05951e-05   0   2.02058e-05   0
1       0.0201427   0      0.416614   0     0.0260632   0   0.000796361   0   0.000206177   0   4.78039e-05   0   5.23472e-05   0   3.37443e-05   0
2      0.00129229   0     0.0286276   0       0.40893   0     0.0313965   0   0.000933434   0    0.00035358   0   0.000100967   0   4.89385e-05   0
3      0.00033218   0   0.000905385   0     0.0319283   0      0.399844   0     0.0335932   0   0.000899889   0   0.000190692   0   9.47971e-05   0
4     0.000194664   0   0.000240921   0   0.000969731   0     0.0332232   0      0.400943   0     0.0321064   0   0.000988166   0   0.000293846   0
5     2.57689e-05   0   0.000102151   0   0.000177221   0   0.000836645   0     0.0310265   0      0.407256   0     0.0284972   0    0.00115054   0
6     1.87255e-05   0   2.75075e-05   0   8.85778e-05   0    0.00016308   0   0.000735766   0     0.0254176   0      0.417376   0     0.0210231   0
7     4.13331e-05   0   7.48673e-06   0   2.50598e-05   0    8.6524e-05   0   0.000255939   0   0.000774335   0     0.0173122   0      0.438498   0