Bin                        incl                         4mu                          4e                       2mu2e                       2e2mu                        2l2l                          4l
0     0.000121591     0.0107924   3.30243e-05    0.00761311   1.24459e-05    0.00647658   3.64457e-05     0.0172244    3.9675e-05     0.0137243   7.61207e-05     0.0152035   4.54703e-05    0.00726419
1     7.17254e-06      0.010167   2.80466e-06     0.0103811   8.91086e-07    0.00709926   1.88959e-06     0.0142296    1.5872e-06    0.00896778   3.47679e-06     0.0112233   3.69575e-06    0.00934005
2     1.89196e-05      0.023147   7.65858e-06     0.0232735   1.30721e-06    0.00897208   5.21639e-06     0.0347445   4.73741e-06     0.0246144    9.9538e-06     0.0290537   8.96579e-06     0.0188847
3     1.49429e-05     0.0204107   5.13432e-06     0.0194009   2.16483e-06     0.0160567   3.81806e-06     0.0245295   3.82568e-06     0.0216151   7.64374e-06     0.0229788   7.29915e-06     0.0182722