Bin                 0                 1                 2                 3
0        0.419132   0     0.0528494   0     0.0522271   0      0.055167   0
1       0.0114081   0      0.389682   0      0.010549   0    0.00635459   0
2       0.0100116   0     0.0144002   0      0.391618   0    0.00435307   0
3       0.0602215   0     0.0481713   0     0.0237628   0      0.454786   0