Bin                 0                 1                 2                 3                 4                 5                 6                 7
0        0.349472   0    0.00240433   0    0.00332418   0    0.00293364   0    0.00130841   0   0.000720878   0             0   0             0   0
1       0.0420753   0      0.279465   0     0.0304487   0   -0.00349504   0   -0.00209635   0             0   0             0   0             0   0
2       0.0006581   0      0.056882   0      0.290759   0     0.0333116   0    0.00163478   0   1.90711e-05   0             0   0             0   0
3    -0.000291433   0   9.75753e-06   0      0.024727   0      0.284164   0      0.030723   0   -0.00283003   0   0.000784327   0  -0.000306558   0
4     0.000882101   0   0.000652447   0    0.00220358   0       0.03042   0      0.328819   0     0.0444354   0  -0.000216171   0    0.00313959   0
5               0   0  -0.000758253   0             0   0    0.00195048   0     0.0306469   0      0.285061   0     0.0133366   0    0.00044135   0
6      0.00100336   0   0.000976808   0             0   0    0.00141404   0    0.00124932   0     0.0240673   0      0.306814   0     0.0275979   0
7               0   0             0   0             0   0             0   0   -0.00173627   0    0.00334532   0     0.0274217   0      0.335364   0