Bin                 0                 1                 2                 3                 4                 5                 6                 7
0        0.375284   0     0.0377085   0    0.00187111   0   0.000624823   0   0.000151165   0             0   0   0.000116217   0   8.81996e-05   0
1       0.0332112   0      0.333592   0       0.03525   0   0.000734429   0    0.00117499   0   0.000348753   0   0.000399152   0    0.00019013   0
2      0.00153168   0      0.038034   0      0.335107   0     0.0318638   0    0.00113978   0   9.10555e-05   0   0.000468089   0   0.000476866   0
3     0.000963377   0    0.00185083   0     0.0331726   0      0.339304   0     0.0330479   0   0.000763785   0   0.000612094   0   0.000671378   0
4     0.000140246   0   0.000625395   0     0.0011282   0     0.0318364   0      0.349915   0      0.030699   0    0.00120237   0   0.000653625   0
5     0.000294792   0   0.000326379   0   0.000628394   0   0.000824687   0     0.0274102   0      0.361297   0     0.0253837   0   0.000371968   0
6               0   0   0.000223657   0   0.000156253   0   0.000704692   0    0.00124779   0     0.0240009   0      0.368805   0     0.0212998   0
7     0.000144483   0   0.000142953   0             0   0   0.000142047   0   2.51096e-05   0   0.000857023   0     0.0200569   0       0.37843   0