Bin                 0                 1                 2                 3
0         0.22598   0     0.0330534   0    0.00408075   0   0.000417847   0
1        0.027135   0      0.201631   0     0.0531836   0    0.00779293   0
2      0.00263741   0     0.0265327   0      0.183735   0     0.0569401   0
3      0.00031259   0    0.00237879   0     0.0284391   0      0.217511   0