Bin                 0                 1                 2                 3                 4                 5                 6                 7
0        0.283243   0     0.0143431   0    0.00165343   0   0.000880391   0   0.000498609   0   0.000170378   0   0.000605451   0   0.000262153   0
1       0.0175002   0      0.270975   0     0.0221814   0     0.0020529   0   0.000997467   0   0.000800203   0   0.000282907   0   0.000738764   0
2      0.00164134   0     0.0219213   0      0.259916   0     0.0248672   0    0.00178131   0    0.00136381   0    0.00133038   0   0.000448642   0
3      0.00138134   0    0.00217833   0     0.0280638   0      0.260139   0     0.0241456   0    0.00207172   0     0.0013949   0   0.000638899   0
4     0.000849309   0     0.0016573   0    0.00190958   0     0.0284307   0       0.26051   0     0.0252898   0    0.00149224   0   0.000648879   0
5     0.000315905   0    0.00106247   0    0.00119655   0    0.00245197   0     0.0226548   0      0.264446   0     0.0237767   0    0.00140276   0
6     0.000444038   0   0.000686709   0   0.000737438   0   0.000846316   0    0.00167936   0     0.0222747   0      0.280399   0     0.0161584   0
7     0.000459566   0   0.000466153   0   0.000239772   0   0.000673828   0    0.00109311   0    0.00150376   0     0.0144848   0      0.290104   0