Bin                 0                 1                 2                 3                 4                 5                 6                 7
0        0.623377   0     0.0232008   0    0.00151806   0   0.000545394   0   6.89854e-05   0   6.34125e-05   0             0   0   3.51029e-05   0
1       0.0284281   0      0.587298   0     0.0378385   0    0.00127084   0   0.000423606   0   0.000235005   0             0   0   2.83104e-05   0
2      0.00148102   0     0.0393064   0      0.567352   0     0.0423147   0    0.00151738   0   0.000376684   0   0.000128405   0   0.000146921   0
3     0.000608533   0    0.00157578   0     0.0441311   0      0.561683   0     0.0471126   0    0.00156281   0   0.000662915   0   0.000292675   0
4     0.000191099   0   0.000309401   0    0.00156469   0     0.0480137   0      0.559845   0      0.046629   0    0.00166386   0   0.000454842   0
5     0.000118824   0   0.000205668   0   0.000300496   0    0.00142159   0     0.0426913   0      0.565979   0     0.0408671   0    0.00144489   0
6     7.24689e-05   0   0.000288185   0   0.000197752   0   0.000416049   0    0.00128308   0     0.0361316   0        0.5844   0     0.0285079   0
7     0.000101946   0   2.74123e-05   0   7.67369e-06   0   9.23705e-05   0    0.00055133   0    0.00106282   0     0.0246118   0      0.623516   0