Bin                 0                 1                 2                 3                 4                 5                 6                 7
0        0.243618   0      0.014381   0   0.000504348   0   0.000100286   0   6.60912e-05   0   6.33473e-06   0   4.89899e-06   0   2.53681e-05   0
1       0.0144654   0      0.225131   0      0.020004   0   0.000601551   0   0.000228815   0   1.65188e-05   0   7.12014e-05   0   5.46697e-06   0
2      0.00141892   0     0.0201976   0      0.225063   0     0.0237772   0    0.00099632   0   0.000322152   0   5.93429e-05   0  -1.34482e-06   0
3     0.000360323   0   0.000817842   0     0.0237373   0      0.211536   0     0.0252824   0    0.00103115   0    8.8719e-05   0   2.46703e-05   0
4     0.000126702   0   0.000368608   0    0.00134406   0     0.0233569   0      0.214429   0     0.0234602   0    0.00103206   0   0.000189372   0
5     6.36939e-06   0   7.07242e-05   0   0.000215479   0   0.000841449   0     0.0225016   0      0.220417   0     0.0213871   0    0.00125458   0
6     6.34535e-06   0   3.39705e-05   0   7.24024e-05   0   0.000265402   0    0.00051526   0     0.0194856   0      0.227574   0     0.0169785   0
7     7.95525e-05   0   2.82037e-06   0   3.57175e-06   0   2.13336e-05   0   0.000278664   0   0.000610142   0     0.0124121   0      0.238827   0