Bin                        incl                         4mu                          4e                       2mu2e                       2e2mu                        2l2l                          4l
0        0.459866    0.00316085      0.464627    0.00628877      0.458775    0.00631135      0.452388     0.0063589      0.463331    0.00632878      0.457841    0.00448593      0.461697    0.00445486
1        0.474901    0.00212713      0.474893    0.00425636      0.478677    0.00423704       0.47273    0.00425173      0.472936    0.00427139      0.472833    0.00301336      0.476786    0.00300288
2        0.561867    0.00161274      0.566873    0.00320223      0.563072    0.00322935      0.560034    0.00322768      0.556877    0.00324306      0.558454    0.00228775      0.564982    0.00227386
3         7.20283       7.20283       31.5179       31.5179       7.92438       7.92438       4.43715       4.43715       5.23072       5.23072       4.79737       4.79737       12.2248       12.2248