Bin                 0                 1                 2                 3
0        0.281911   0    0.00950336   0   0.000635454   0             0   0
1       0.0237068   0      0.298683   0     0.0046609   0             0   0
2      0.00673695   0     0.0141591   0      0.331359   0     0.0090568   0
3               0   0             0   0     0.0015493   0      0.374608   0