Bin                 0                 1                 2                 3                 4                 5
0        0.212665   0    0.00730542   0    0.00107395   0   0.000872187   0    0.00052346   0             0   0
1       0.0173265   0      0.241969   0     0.0144996   0    0.00174455   0   0.000563939   0             0   0
2      0.00040381   0    0.00730507   0       0.25696   0     0.0118072   0   0.000701465   0             0   0
3      0.00155837   0     0.0016079   0     0.0105164   0      0.270432   0     0.0118109   0             0   0
4     0.000987922   0   0.000511058   0    0.00135345   0    0.00623699   0      0.315459   0    0.00555395   0
5               0   0             0   0             0   0             0   0   0.000846088   0      0.274478   0