Bin                        incl                         4mu                          4e                       2mu2e                       2e2mu                        2l2l                          4l
0        0.118956      0.118956     0.0447188     0.0447188     0.0200346     0.0200346     0.0231199     0.0231199     0.0310831     0.0310831     0.0542031     0.0542031     0.0647534     0.0647534
1        0.154253      0.154253      0.058525      0.058525     0.0260837     0.0260837     0.0298071     0.0298071     0.0398368     0.0398368     0.0696439     0.0696439     0.0846087     0.0846087
2        0.178631      0.178631     0.0680479     0.0680479      0.030761      0.030761     0.0341534     0.0341534     0.0456683     0.0456683     0.0798217     0.0798217     0.0988089     0.0988089
3        0.189988      0.189988     0.0725203     0.0725203     0.0325341     0.0325341     0.0365983     0.0365983     0.0483354     0.0483354     0.0849337     0.0849337      0.105054      0.105054
4        0.189563      0.189563     0.0728383     0.0728383     0.0323308     0.0323308     0.0366995     0.0366995     0.0476942     0.0476942     0.0843937     0.0843937      0.105169      0.105169
5        0.178322      0.178322     0.0678088     0.0678088     0.0303842     0.0303842     0.0345191     0.0345191     0.0456101     0.0456101     0.0801292     0.0801292      0.098193      0.098193
6        0.153916      0.153916     0.0581884     0.0581884      0.026041      0.026041      0.029654      0.029654     0.0400324     0.0400324     0.0696864     0.0696864     0.0842294     0.0842294
7        0.119245      0.119245     0.0447762     0.0447762     0.0198204     0.0198204      0.023451      0.023451     0.0311979     0.0311979     0.0546489     0.0546489     0.0645965     0.0645965