Bin                        incl                         4mu                          4e                       2mu2e                       2e2mu                        2l2l                          4l
0        0.395496    0.00241489      0.601379    0.00394813      0.238011    0.00534765      0.276991    0.00517925       0.45933    0.00459995       0.36683    0.00347615      0.421136    0.00334802
1        0.411402    0.00253952       0.60592    0.00420095      0.262754    0.00573343      0.298894    0.00535749      0.468333    0.00479272      0.382357    0.00360687      0.438848    0.00355962
2        0.417352    0.00232094      0.635366    0.00379643      0.267589    0.00512524      0.324911    0.00496827      0.440614    0.00439836      0.385072    0.00330818      0.447776    0.00324161
3        0.416231     0.0023089      0.594404    0.00382568      0.266921    0.00522136      0.338726    0.00484832      0.445631    0.00445862      0.392591    0.00329575      0.437788    0.00322504
4         0.47658    0.00255875      0.667781    0.00401442      0.312702    0.00581066      0.412945    0.00525794       0.49911    0.00520902      0.453535    0.00371508      0.496416    0.00352405
5         0.45832    0.00314786      0.619877    0.00523268      0.342346    0.00676182      0.429834    0.00673741      0.429392    0.00632195      0.429596    0.00461232      0.482603    0.00430198
6        0.533887    0.00845122      0.660528     0.0137363      0.424496     0.0173007      0.642277     0.0176891      0.441415     0.0182983      0.521921     0.0130364      0.541952     0.0111574