Bin                 0                 1                 2                 3                 4                 5                 6
0        0.448994   0     0.0211121   0   0.000486568   0   4.44175e-05   0   9.67038e-06   0   1.52037e-06   0             0   0
1      0.00795057   0      0.425959   0     0.0285261   0   0.000654473   0   8.13054e-05   0    7.4474e-07   0             0   0
2     1.72778e-05   0     0.0164142   0      0.425637   0     0.0366833   0   0.000857007   0   5.07726e-06   0   5.10254e-06   0
3      1.1116e-05   0   1.99687e-05   0     0.0174528   0      0.427764   0     0.0412515   0   5.25923e-05   0             0   0
4     1.07043e-05   0   1.61849e-05   0   2.90324e-05   0      0.017954   0      0.443698   0     0.0204032   0             0   0
5     3.21484e-06   0   5.06033e-07   0    3.0196e-06   0   3.57244e-06   0    0.00646991   0      0.461638   0     0.0776286   0
6               0   0             0   0             0   0             0   0   2.51355e-07   0    0.00509019   0      0.360487   0