Bin                 0                 1                 2                 3                 4
0        0.392924   0     0.0116498   0    0.00947204   0     0.0154017   0     0.0140601   0
1      0.00938304   0      0.430657   0     0.0239328   0   0.000198704   0   0.000191234   0
2      0.00569138   0     0.0174217   0      0.370027   0     0.0151433   0    0.00190974   0
3       0.0126446   0   0.000383563   0     0.0469577   0      0.360406   0     0.0106105   0
4       0.0109765   0    0.00019225   0    0.00233323   0     0.0253604   0      0.375175   0