Bin                 0                 1                 2                 3                 4
0        0.534466   0     0.0105875   0     0.0090737   0     0.0101482   0    0.00894776   0
1       0.0101586   0      0.564928   0     0.0246232   0             0   0             0   0
2      0.00323856   0     0.0178847   0      0.490689   0    0.00972346   0   9.68703e-05   0
3          0.0133   0   0.000497787   0     0.0549695   0      0.509112   0    0.00764364   0
4       0.0131338   0   0.000195421   0   0.000874656   0     0.0262313   0      0.520595   0