Bin                 0                 1                 2                 3                 4
0        0.542104   0     0.0150184   0     0.0102242   0      0.017155   0     0.0140193   0
1       0.0147123   0      0.576124   0     0.0284424   0    0.00040201   0   0.000135087   0
2      0.00545659   0     0.0257907   0      0.523292   0     0.0123013   0    0.00280837   0
3       0.0160213   0   0.000730845   0     0.0475932   0      0.522186   0    0.00881562   0
4       0.0140228   0             0   0    0.00234254   0      0.027898   0      0.542456   0