Bin                 0                 1                 2                 3                 4
0        0.253591   0    0.00929401   0    0.00730457   0    0.00670917   0    0.00684684   0
1      0.00896525   0      0.298463   0     0.0182622   0   6.38025e-05   0   0.000175241   0
2       0.0047672   0      0.010234   0      0.226597   0     0.0136018   0   0.000168084   0
3      0.00817386   0   0.000252694   0     0.0395428   0      0.222333   0     0.0097627   0
4      0.00739544   0   5.37316e-05   0   0.000914192   0     0.0201753   0      0.233942   0