Bin                 0                 1                 2                 3
0        0.386806   0     0.0371677   0    0.00524559   0   0.000992748   0
1       0.0703479   0      0.308925   0     0.0420583   0    0.00213889   0
2       0.0055985   0     0.0518011   0      0.353637   0     0.0396296   0
3      0.00171548   0   0.000253761   0     0.0212182   0      0.415668   0