Bin                 0                 1                 2                 3                 4                 5                 6                 7
0        0.386537   0    0.00650306   0   0.000310178   0   0.000137488   0   4.05947e-05   0   5.97746e-05   0   7.30177e-05   0    0.00108718   0
1       0.0059661   0      0.371811   0     0.0086027   0   0.000238819   0   5.47988e-05   0   1.19162e-05   0   2.04208e-05   0   0.000112911   0
2     0.000306055   0    0.00811948   0      0.368926   0    0.00611284   0   7.52978e-05   0   1.97969e-05   0   3.01286e-05   0   6.00172e-05   0
3     0.000126061   0    0.00021243   0    0.00661968   0       0.38623   0    0.00125165   0   0.000118842   0   4.25714e-05   0   2.31584e-05   0
4     6.46724e-05   0   8.98004e-06   0   9.99905e-05   0    0.00111362   0      0.389753   0    0.00701399   0   0.000145717   0   9.02819e-05   0
5     3.70481e-05   0   5.42816e-05   0   1.48893e-05   0   3.06968e-05   0    0.00619963   0      0.366162   0    0.00837811   0   0.000290497   0
6     2.77738e-05   0   9.62066e-06   0   3.66162e-05   0   8.81284e-06   0   0.000224945   0    0.00826412   0      0.372286   0    0.00563966   0
7      0.00152445   0   0.000119315   0   0.000103764   0   8.46086e-06   0   0.000106297   0   0.000136305   0    0.00692512   0      0.383891   0