Bin                        incl                         4mu                          4e                       2mu2e                       2e2mu                        2l2l                          4l
0         0.43497   0.000277683      0.439979   0.000553314      0.436727   0.000553653      0.431088   0.000557026      0.431402   0.000557373      0.431245      0.000394      0.438349   0.000391373
1         2.62767       2.62767       2.64771       2.64771       2.61112       2.61112       2.65307       2.65307       2.59903       2.59903        2.6258        2.6258       2.62937       2.62937
2         1.87698       1.87698       1.88828       1.88828       1.88812       1.88812       1.85131       1.85131       1.87787       1.87787       1.86454       1.86454        1.8882        1.8882
3         1.86334       1.86334       1.87872       1.87872        1.8707        1.8707       1.85177       1.85177       1.84973       1.84973       1.85075       1.85075       1.87465       1.87465
4         2.61809       2.61809       2.62247       2.62247       2.62756       2.62756       2.64543       2.64543       2.57549       2.57549       2.61039       2.61039       2.62502       2.62502