Bin                        incl                         4mu                          4e                       2mu2e                       2e2mu                        2l2l                          4l
0       0.0806793    0.00166356     0.0814651      0.003321     0.0845358    0.00332562     0.0768475    0.00334382     0.0793569     0.0033159     0.0781132    0.00235449     0.0830052    0.00234993
1         0.68756    0.00102066      0.699307    0.00200505       0.68857    0.00205151      0.677926     0.0020569      0.683373    0.00205095      0.680639    0.00145239      0.693934    0.00143424
2        0.656503   0.000719558      0.666038    0.00141828      0.663002    0.00142825      0.645361    0.00146256       0.64999    0.00144872      0.647687    0.00102927      0.664515    0.00100641
3         0.65737   0.000719804      0.659403     0.0014322      0.667087    0.00142435      0.651393    0.00144759      0.650415    0.00145484      0.650905    0.00102616      0.663246    0.00100997
4        0.688871    0.00102103      0.690218    0.00203284      0.705596    0.00199041       0.67888    0.00207373       0.67887    0.00207437      0.678875    0.00146657      0.697921    0.00142256