Bin                        incl                         4mu                          4e                       2mu2e                       2e2mu                        2l2l                          4l
0        0.279889    0.00112433      0.283332    0.00224404      0.281966     0.0022422      0.276427    0.00225446      0.277266    0.00225294      0.276847    0.00159361      0.282649    0.00158613
1         1.75424       1.75424       1.76524       1.76524       1.76114       1.76114       1.74568       1.74568       1.74313       1.74313        1.7444        1.7444       1.76317       1.76317
2          1.0802        1.0802       1.07262       1.07262       1.09806       1.09806        1.0768        1.0768       1.07229       1.07229       1.07454       1.07454       1.08533       1.08533
3          1.0907        1.0907       1.10351       1.10351       1.10599       1.10599       1.07057       1.07057       1.08042       1.08042       1.07543       1.07543       1.10476       1.10476
4         1.77168       1.77168       1.79372       1.79372       1.79876       1.79876       1.74692       1.74692       1.74298       1.74298       1.74497       1.74497       1.79623       1.79623