Bin                 0                 1                 2                 3                 4
0        0.427317   0     0.0587771   0     0.0532963   0     0.0512841   0     0.0599158   0
1       0.0202199   0       0.46237   0    0.00861769   0     0.0052768   0     0.0125475   0
2       0.0200812   0     0.0110795   0      0.426295   0    0.00899016   0    0.00616943   0
3       0.0198502   0    0.00562169   0    0.00908578   0      0.425093   0     0.0100264   0
4       0.0207229   0     0.0114313   0    0.00503021   0    0.00952811   0      0.455699   0