Bin                        incl                         4mu                          4e                       2mu2e                       2e2mu                        2l2l                          4l
0        0.506821    0.00152316      0.512422    0.00302753      0.507669    0.00304585      0.503591    0.00305843      0.502951    0.00305261       0.50327    0.00216058      0.510049    0.00214726
1        0.525135   0.000713322      0.530286    0.00141932      0.528855    0.00142109      0.519783    0.00143395      0.520728    0.00143214      0.520256    0.00101332       0.52957    0.00100424
2        0.510443   0.000602439      0.515221    0.00119912      0.515406    0.00119848      0.505084    0.00121097      0.505074    0.00121102      0.505079   0.000856304      0.515313    0.00084768