Bin                        incl                         4mu                          4e                       2mu2e                       2e2mu                        2l2l                          4l
0     0.000281089     0.0667448   9.08859e-05     0.0570536   5.77835e-05     0.0791363   5.29708e-05     0.0666859    7.9449e-05     0.0726291    0.00013242      0.070129   0.000148669     0.0639942
1     0.000328928     0.0523336   0.000108093     0.0454571   5.77015e-05     0.0536347   7.61387e-05      0.060129   8.69944e-05     0.0555799   0.000163133     0.0576143   0.000165795     0.0480044
2     0.000483397     0.0436793   0.000164269      0.040322   9.17673e-05     0.0470693   0.000111352     0.0490926   0.000116009     0.0418017   0.000227361     0.0450807   0.000256036     0.0425059