Bin                 0                 1                 2
0        0.317517   0     0.0338857   0    0.00243113   0
1       0.0726943   0      0.272033   0     0.0449279   0
2      0.00959378   0      0.073632   0      0.347094   0