Bin                 0                 1                 2                 3                 4                 5                 6                 7
0        0.580697   0     0.0393202   0    0.00111387   0   0.000440857   0   0.000385407   0   0.000393718   0   0.000285121   0   0.000211805   0
1       0.0395851   0       0.54419   0     0.0387874   0   0.000861431   0   0.000487565   0   0.000239365   0   0.000326102   0   0.000257803   0
2     0.000984617   0     0.0377264   0      0.547383   0     0.0377115   0   0.000850101   0   0.000492565   0   0.000396562   0   0.000420025   0
3     0.000505431   0    0.00090303   0     0.0345384   0      0.554335   0     0.0340368   0    0.00080379   0   0.000313725   0    0.00029604   0
4     0.000302991   0   0.000378837   0    0.00087782   0     0.0331222   0      0.546856   0     0.0328731   0   0.000615583   0   0.000305123   0
5     0.000445149   0   0.000431397   0   0.000437663   0   0.000658152   0     0.0318096   0      0.551286   0     0.0276108   0   0.000599649   0
6       0.0003386   0   0.000256787   0   0.000399983   0   0.000372224   0   0.000545213   0     0.0260427   0      0.556391   0      0.022506   0
7     0.000334732   0   0.000259129   0   0.000341257   0   0.000232709   0   0.000266118   0   0.000470018   0     0.0211197   0      0.580366   0