Bin                 0                 1                 2
0        0.326498   0    0.00838343   0             0   0
1      0.00268074   0      0.442672   0     0.0291176   0
2               0   0   0.000495451   0       0.51735   0