Bin                        incl                         4mu                          4e                       2mu2e                       2e2mu                        2l2l                          4l
0       0.0590786      0.454951     0.0219679      0.477826     0.0106088      0.414514     0.0119448      0.456768     0.0145571      0.452951     0.0265019      0.454664     0.0325767      0.455185
1      0.00953922      0.105623    0.00340716      0.110882    0.00190716     0.0970283    0.00197313      0.105789    0.00225178      0.105822    0.00422491      0.105806    0.00531432      0.105477
2     0.000226007     0.0627218   8.83727e-05     0.0666031    5.2474e-05     0.0532459   4.40118e-05     0.0680842   4.11483e-05     0.0638425   8.51601e-05     0.0659665   0.000140847     0.0609104