Bin                        incl                         4mu                          4e                       2mu2e                       2e2mu                        2l2l                          4l
0        0.180754      0.180754     0.0653752     0.0653752     0.0338499     0.0338499     0.0356463     0.0356463      0.045883      0.045883     0.0815293     0.0815293     0.0992251     0.0992251
1        0.179763      0.179763     0.0654571     0.0654571     0.0336497     0.0336497      0.035064      0.035064     0.0455922     0.0455922     0.0806562     0.0806562     0.0991068     0.0991068
2        0.178732      0.178732     0.0641314     0.0641314      0.035334      0.035334     0.0346715     0.0346715     0.0445949     0.0445949     0.0792664     0.0792664     0.0994654     0.0994654
3        0.175445      0.175445      0.063327      0.063327      0.032476      0.032476     0.0346114     0.0346114     0.0450304     0.0450304     0.0796418     0.0796418      0.095803      0.095803
4        0.170633      0.170633      0.061979      0.061979     0.0315506     0.0315506     0.0332947     0.0332947     0.0438089     0.0438089     0.0771036     0.0771036     0.0935296     0.0935296
5        0.162922      0.162922     0.0588905     0.0588905     0.0305086     0.0305086     0.0309308     0.0309308     0.0425924     0.0425924     0.0735232     0.0735232     0.0893991     0.0893991
6        0.159059      0.159059     0.0587014     0.0587014      0.029819      0.029819     0.0299416     0.0299416      0.040597      0.040597     0.0705386     0.0705386     0.0885204     0.0885204
7        0.150847      0.150847     0.0544144     0.0544144      0.028732      0.028732     0.0288146     0.0288146     0.0388863     0.0388863     0.0677009     0.0677009     0.0831463     0.0831463