Bin                        incl                         4mu                          4e                       2mu2e                       2e2mu                        2l2l                          4l
0        0.543586   0.000630919      0.548469    0.00125521      0.547031     0.0012573      0.538721    0.00126821      0.539288    0.00126659      0.539005   0.000896187       0.54775   0.000888308
1        0.566066    0.00205967      0.570472    0.00411007      0.573056    0.00407462      0.560764    0.00414674      0.558812    0.00414754      0.559786    0.00293248      0.571772    0.00289365
2        0.534486    0.00171601       0.53664    0.00342117      0.542485    0.00340224      0.530064    0.00344684      0.527714    0.00345879       0.52889    0.00244151       0.53956    0.00241246
3         0.53805   0.000651678      0.543082    0.00129625      0.542937    0.00129643      0.532476    0.00131054      0.532701     0.0013104      0.532589   0.000926642       0.54301   0.000916651