Bin                        incl                         4mu                          4e                       2mu2e                       2e2mu                        2l2l                          4l
0        0.404892    0.00319043      0.570585    0.00540673      0.272864    0.00697237      0.331097    0.00680179      0.442214    0.00620102      0.386669    0.00460127      0.421228    0.00442294
1        0.393677    0.00449158      0.551083    0.00774913      0.255984    0.00980679      0.345513    0.00938399      0.423503    0.00877432      0.384599    0.00642169      0.401849    0.00627723
2        0.420399    0.00621537      0.599679     0.0103063      0.274534     0.0137083      0.341901     0.0133355      0.463742     0.0120238      0.402807    0.00897661      0.436078     0.0086063
3        0.540251     0.0102617      0.800964     0.0136911      0.334025     0.0249808      0.451526     0.0218716      0.573615     0.0196106      0.511461     0.0147165      0.568236     0.0142551