Bin                 0                 1                 2                 3
0          0.2862   0    0.00642908   0    0.00654885   0     0.0114174   0
1       0.0553582   0       0.27728   0     0.0412491   0     0.0245197   0
2        0.051284   0      0.026949   0      0.259791   0     0.0303487   0
3       0.0580975   0    0.00901974   0     0.0128388   0      0.323217   0