Bin                 0                 1                 2                 3
0        0.582525   0     0.0943305   0     0.0898936   0      0.096306   0
1       0.0105386   0      0.448811   0     0.0251765   0     0.0169839   0
2       0.0091114   0     0.0248665   0      0.439703   0     0.0220331   0
3       0.0121174   0     0.0178882   0     0.0219609   0      0.448544   0