Bin                        incl                         4mu                          4e                       2mu2e                       2e2mu                        2l2l                          4l
0        0.761403    0.00102506       1.06165       1.06165      0.527972     0.0029112      0.636281    0.00256556      0.808406    0.00183029      0.722478    0.00156958      0.796198    0.00133191
1        0.412929   0.000845328      0.560739    0.00144698      0.296458    0.00185892      0.346985     0.0018033       0.44549     0.0016414      0.396074    0.00121758      0.427982    0.00117285
2        0.393076    0.00117988      0.528736    0.00204607      0.287215    0.00257626       0.32945    0.00251569      0.422146    0.00230008      0.375778    0.00170169      0.408442    0.00163523
3        0.421794    0.00123957      0.553232    0.00214744      0.319794    0.00270681      0.361267    0.00264252      0.448783    0.00241635      0.405032    0.00178751      0.436705    0.00171814
4        0.470288    0.00163478      0.602547     0.0027864      0.379817      0.003554      0.414616    0.00348583      0.478569    0.00325141      0.446469    0.00238052      0.491314    0.00224562
5        0.461625     0.0118445      0.608478      0.019791      0.469423     0.0235656      0.382606     0.0257662      0.362254     0.0260046      0.372517     0.0182858      0.539154     0.0153094