Bin                 0                 1                 2                 3                 4                 5
0        0.260559   0    0.00510795   0             0   0             0   0             0   0             0   0
1       0.0136709   0      0.316871   0      0.017685   0   4.54551e-06   0             0   0             0   0
2               0   0    0.00670461   0      0.342289   0     0.0154209   0             0   0             0   0
3               0   0             0   0    0.00801047   0      0.366956   0     0.0119974   0             0   0
4               0   0             0   0             0   0    0.00315773   0       0.39669   0     0.0194936   0
5               0   0             0   0             0   0             0   0   0.000188221   0       0.31652   0