Bin                        incl                         4mu                          4e                       2mu2e                       2e2mu                        2l2l                          4l
0        0.399643   0.000710231      0.583444    0.00118359      0.249978    0.00156533      0.317515    0.00151347      0.442569     0.0013722      0.380073    0.00102188      0.417111   0.000986097
1        0.462306   0.000999826      0.672677    0.00156142      0.293774    0.00225659      0.377932    0.00214793      0.499654    0.00193684      0.438688    0.00144706      0.483351    0.00138043
2        0.493733     0.0016665      0.708934    0.00253556      0.320865    0.00379887      0.411166    0.00358596      0.530247     0.0032202      0.470607    0.00241141      0.514424      0.002301
3        0.566819    0.00268714      0.828657    0.00338083      0.365668    0.00639913       0.48097    0.00590275       0.58348    0.00527407      0.532548    0.00395696      0.597274    0.00364706