Bin                        incl                         4mu                          4e                       2mu2e                       2e2mu                        2l2l                          4l
0     0.000968677     0.0805967     0.0002923     0.0664497   0.000186773     0.0864793   0.000211145      0.091243   0.000278458     0.0885074   0.000489603     0.0896668   0.000479073     0.0730455
1      0.00104305     0.0592195   0.000331737     0.0508383   0.000196518     0.0622577   0.000240273      0.069381   0.000274521     0.0614373   0.000514794     0.0649058   0.000528255     0.0545613
2     0.000794629     0.0488816    0.00027794     0.0468316   0.000137333     0.0483997    0.00017434     0.0525711   0.000205017     0.0491934   0.000379357     0.0506902   0.000415273     0.0473388
3     0.000488452     0.0458127   0.000159076     0.0409301   8.10128e-05     0.0418343   0.000119265     0.0549687   0.000129098     0.0483657   0.000248363     0.0513264   0.000240089     0.0412308