Bin                 0                 1                 2                 3
0         0.24191   0     0.0253624   0    0.00465349   0             0   0
1       0.0533456   0      0.206378   0     0.0501286   0    0.00757084   0
2      0.00758419   0     0.0447202   0       0.19333   0     0.0437074   0
3      0.00109761   0    0.00698476   0     0.0361177   0      0.236199   0