Bin                 0                 1                 2                 3                 4                 5                 6                 7
0        0.409554   0    0.00784115   0    0.00042068   0   0.000225384   0    8.4687e-05   0   8.73046e-05   0   0.000145629   0    0.00172685   0
1      0.00668444   0        0.3943   0    0.00975004   0   0.000325008   0   6.14099e-05   0   9.15141e-05   0   0.000113274   0   0.000164916   0
2     0.000323536   0    0.00929653   0      0.393511   0     0.0067787   0   0.000126382   0    7.7829e-05   0   7.68163e-05   0   7.11049e-05   0
3     0.000213254   0    0.00038814   0    0.00752959   0      0.409603   0    0.00178701   0   0.000166372   0   7.30318e-05   0   6.25304e-05   0
4     4.79781e-05   0   9.17421e-05   0   0.000177626   0    0.00172174   0      0.410762   0    0.00812243   0    0.00028603   0    0.00022136   0
5     5.37426e-05   0   9.87203e-05   0   7.00814e-05   0   0.000123216   0    0.00692491   0      0.392607   0    0.00958471   0   0.000359583   0
6     0.000110622   0    0.00013091   0   7.16854e-05   0   4.26754e-05   0   0.000315919   0    0.00960871   0      0.395916   0    0.00666939   0
7      0.00186765   0   0.000137438   0   0.000136507   0   0.000103447   0   0.000227946   0   0.000306741   0    0.00782888   0      0.407842   0