Bin                 0                 1                 2                 3
0        0.547217   0     0.0458555   0   0.000835487   0             0   0
1       0.0145295   0      0.550431   0      0.043131   0             0   0
2      0.00548988   0     0.0599447   0      0.483846   0       0.03127   0
3               0   0    0.00059919   0     0.0429529   0      0.535671   0