Bin                        incl                         4mu                          4e                       2mu2e                       2e2mu                        2l2l                          4l
0        0.245187   0.000649185      0.247968    0.00129405       0.24703    0.00129749      0.241999    0.00130042      0.243278    0.00130078      0.242638   0.000919665      0.247499   0.000916246
1               0             0             0             0             0             0             0             0             0             0             0             0             0             0
2               0             0             0             0             0             0             0             0             0             0             0             0             0             0
3               0             0             0             0             0             0             0             0             0             0             0             0             0             0