Bin                        incl                         4mu                          4e                       2mu2e                       2e2mu                        2l2l                          4l
0        0.422452    0.00110675      0.583458    0.00188412      0.288862     0.0024113      0.355253     0.0023356      0.457769    0.00215573       0.40661    0.00159023      0.436547    0.00153955
1        0.408651    0.00147472      0.577703    0.00250968      0.270811     0.0032005      0.352311    0.00307958      0.432192    0.00290793      0.392248    0.00211931      0.423244    0.00205109
2        0.417665    0.00198782      0.583864    0.00336923       0.27907    0.00435223      0.357539    0.00414086      0.446205    0.00391404      0.401449     0.0028529      0.432168    0.00276781
3        0.471264    0.00457828      0.634067    0.00771119      0.334208     0.0100995      0.419277    0.00956506      0.496186    0.00889081      0.458133    0.00652944      0.483225    0.00641007