Bin                        incl                         4mu                          4e                       2mu2e                       2e2mu                        2l2l                          4l
0         0.43337     0.0014206      0.597171    0.00240262      0.296875    0.00310052      0.365528    0.00299756      0.468107     0.0027693      0.416894    0.00204226      0.448016    0.00197529
1        0.398746     0.0017954       0.55773    0.00310537      0.267678    0.00385792      0.344466    0.00373747      0.423205    0.00354255      0.383837    0.00257702      0.411973    0.00250025
2        0.417708     0.0023853      0.574764    0.00408083      0.278985    0.00520736      0.366535    0.00495983      0.444917     0.0046904      0.405737    0.00341613      0.428335    0.00332852
3        0.463032    0.00524352      0.609113    0.00896104      0.331305     0.0116036      0.416509     0.0108497       0.48734     0.0102364      0.452064    0.00746288      0.472999    0.00735646