Bin                        incl                         4mu                          4e                       2mu2e                       2e2mu                        2l2l                          4l
0        0.416635    0.00319364      0.610657    0.00520081      0.258173    0.00714073      0.344727    0.00676751       0.44699    0.00624101      0.395693    0.00460453      0.435411    0.00442598
1        0.450381    0.00280836      0.636838    0.00455013      0.297867    0.00626563      0.362903    0.00606188      0.499547    0.00539146      0.431027    0.00405802      0.467567    0.00388503
2        0.447851    0.00281335      0.638066    0.00454393      0.291079    0.00633937      0.359619    0.00605303      0.496165    0.00537616      0.427843    0.00404858      0.465929    0.00390501
3        0.414679    0.00319267      0.615461    0.00519399      0.254972    0.00707606      0.342882    0.00679841      0.444234    0.00622925      0.393775      0.004609      0.433324    0.00441999
4        0.418759    0.00317235      0.618688    0.00512978      0.254296    0.00704913      0.354053    0.00674597      0.445461    0.00622824      0.399948    0.00458954      0.435301    0.00438488
5        0.446168    0.00281355      0.636649    0.00454582      0.295211    0.00630112      0.351408    0.00607526      0.495406    0.00538969      0.423034    0.00406361      0.466993    0.00389205
6        0.447868    0.00280362      0.638951    0.00453728      0.292861    0.00627656      0.356988    0.00605236      0.498954     0.0053479      0.427944    0.00403881      0.465795    0.00388814
7        0.414475    0.00320384      0.609896    0.00523211      0.253769    0.00711797      0.346616    0.00676791      0.446231    0.00627952      0.396065    0.00461913      0.430848    0.00444132