Bin                        incl                         4mu                          4e                       2mu2e                       2e2mu                        2l2l                          4l
0        0.342637    0.00301719      0.424839    0.00564967      0.257741    0.00634014      0.334841    0.00604283      0.353551     0.0060447      0.344101    0.00427453       0.34133    0.00425512
1        0.343566    0.00293972      0.431474    0.00546287      0.276852    0.00603884      0.312038    0.00605793      0.352099    0.00592189      0.332012    0.00423687      0.353595    0.00408359
2         0.34742    0.00291736       0.42898    0.00552028      0.277414    0.00605437      0.323379    0.00593555      0.360631    0.00576377      0.342107    0.00413687      0.352238    0.00411077
3        0.343087      0.003034      0.424508    0.00563227      0.269146     0.0063055      0.319654    0.00623943      0.356628    0.00606493      0.338231    0.00435087      0.347302    0.00423339
4        0.347712    0.00300199      0.442493    0.00556526      0.279047    0.00626923      0.318573    0.00609865      0.347567    0.00603398      0.332974    0.00429076      0.361036    0.00419904
5        0.338503    0.00294879      0.423173     0.0055685      0.252421     0.0061185      0.313163    0.00604419      0.369437    0.00577764      0.341492    0.00418035      0.335854    0.00415618
6        0.350067    0.00291766      0.439902    0.00546056       0.26128    0.00607939      0.322731     0.0060254      0.379012    0.00570195      0.351329    0.00414539      0.348952    0.00410426
7        0.346639    0.00301724      0.445556    0.00552933      0.266939    0.00631045      0.325467    0.00618096      0.344738    0.00608171      0.335161    0.00433589      0.356713    0.00420164