Bin                 0                 1                 2                 3
0         0.27546   0      0.016087   0   1.24783e-05   0             0   0
1       0.0150635   0      0.252317   0     0.0127193   0             0   0
2     1.50819e-05   0    0.00795769   0      0.233193   0    0.00864558   0
3               0   0             0   0   2.85498e-05   0      0.325124   0