Bin                 0                 1                 2                 3
0        0.188659   0     0.0139823   0             0   0             0   0
1       0.0265129   0      0.206928   0    0.00283638   0             0   0
2      0.00713308   0     0.0153751   0      0.254406   0     0.0096267   0
3               0   0             0   0   0.000791693   0      0.306116   0