Bin                 0                 1                 2                 3
0          0.3449   0     0.0621133   0     0.0239331   0     0.0117844   0
1       0.0280311   0      0.309279   0     0.0321766   0    0.00704118   0
2       0.0102885   0     0.0216187   0      0.294201   0     0.0365343   0
3      0.00242056   0    0.00215732   0    0.00742229   0       0.30827   0