Bin                 0                 1                 2                 3
0        0.425446   0     0.0967733   0     0.0549772   0     0.0430764   0
1      0.00785837   0        0.3179   0     0.0259916   0    0.00908017   0
2      0.00566429   0     0.0309614   0      0.345983   0     0.0362838   0
3      0.00190388   0    0.00368464   0     0.0108292   0      0.368461   0