Bin                        incl                         4mu                          4e                       2mu2e                       2e2mu                        2l2l                          4l
0     8.26421e-05      0.010955   2.29978e-05    0.00787504   3.66764e-06    0.00286989   2.20786e-05     0.0155338   3.38981e-05      0.017617   5.59767e-05      0.016732   2.66654e-05    0.00635146
1     3.89489e-05     0.0104643   1.00265e-05    0.00707347   8.77831e-06      0.013637   1.43672e-05     0.0206835    5.7769e-06    0.00597865   2.01441e-05     0.0121286   1.88049e-05    0.00912326
2     2.67178e-05     0.0175762   1.13344e-05     0.0192885   2.61502e-06    0.00952229   7.27434e-06     0.0267815   5.49403e-06     0.0142241   1.27684e-05     0.0194087   1.39494e-05      0.016178
3     9.59654e-06     0.0182273   3.02312e-06     0.0151548   9.99054e-07    0.00995819   2.20621e-06     0.0181697   3.36815e-06      0.031998   5.57436e-06     0.0245909   4.02218e-06     0.0134159
4      4.7207e-06     0.0226105   1.24004e-06     0.0161517    7.4905e-07     0.0240903    1.4435e-06      0.031697    1.2881e-06     0.0232616   2.73161e-06     0.0270683   1.98909e-06       0.01844