Bin                 0                 1                 2                 3                 4
0        0.375018   0     0.0497914   0    0.00497936   0   0.000724027   0   3.47002e-05   0
1       0.0447861   0      0.329836   0     0.0753657   0     0.0139833   0    0.00137723   0
2      0.00452071   0     0.0491797   0      0.316728   0      0.104126   0     0.0126452   0
3     0.000476375   0    0.00473515   0     0.0415723   0      0.263811   0     0.0680717   0
4     5.84881e-05   0   0.000537229   0    0.00519622   0     0.0510527   0      0.290707   0