Bin                        incl                         4mu                          4e                       2mu2e                       2e2mu                        2l2l                          4l
0     0.000257603     0.0578724   8.20922e-05     0.0505111   5.30875e-05     0.0644404   6.37929e-05     0.0731798   5.86303e-05      0.051865   0.000122423     0.0611453    0.00013518     0.0551967
1      0.00023618     0.0587985    9.5361e-05     0.0651717   3.15884e-05     0.0421198    4.4733e-05     0.0579252   6.44975e-05     0.0625388    0.00010923     0.0605633   0.000126949     0.0573603
2     0.000234649     0.0626137   8.76336e-05       0.06549   4.40992e-05     0.0603044   4.40098e-05     0.0604112    5.8906e-05     0.0620286   0.000102916     0.0613265   0.000131733     0.0636575
3     0.000229622     0.0529618   6.96498e-05     0.0452129   4.69183e-05     0.0599078   4.66704e-05     0.0537093   6.63838e-05     0.0580777   0.000113054      0.056191   0.000116568     0.0501657
4     0.000217119     0.0503346   6.26621e-05      0.039054   3.93492e-05     0.0528928   5.31812e-05     0.0611853   6.19262e-05     0.0565079   0.000115107     0.0585768   0.000102011     0.0434379
5     0.000191382      0.049632   7.18617e-05     0.0499492   3.82019e-05     0.0546465   3.63653e-05     0.0474964    4.4953e-05     0.0471893   8.13183e-05     0.0473262   0.000110064     0.0514852
6     0.000210357     0.0534714   6.50996e-05     0.0445567   3.55489e-05     0.0494994   5.58372e-05     0.0716593   5.38718e-05     0.0552195   0.000109709     0.0625195   0.000100648     0.0461856
7     0.000261706     0.0570569   8.63632e-05     0.0501712   5.67849e-05     0.0701798   6.37417e-05       0.07095   5.48158e-05     0.0473431   0.000118558     0.0576573   0.000143148      0.056569