Bin                        incl                         4mu                          4e                       2mu2e                       2e2mu                        2l2l                          4l
0      0.00023866     0.0155212   7.50594e-05     0.0132789   4.40472e-05     0.0162357   5.62034e-05     0.0182386   6.33497e-05     0.0161226   0.000119553     0.0170527   0.000119107     0.0142378
1     0.000192754     0.0141306   6.12178e-05     0.0120217   3.06054e-05     0.0123448   4.84586e-05     0.0181209    5.2472e-05     0.0154548   0.000100931     0.0166295   9.18232e-05     0.0121275
2     0.000190779     0.0144994   6.75051e-05     0.0137881   2.99411e-05     0.0128851   4.28086e-05     0.0164236   5.05242e-05     0.0151654   9.33328e-05     0.0157177   9.74463e-05     0.0134974
3      0.00020263     0.0137462   6.76509e-05     0.0125872   3.42235e-05     0.0133272   4.94447e-05     0.0166191   5.13105e-05     0.0134214   0.000100755     0.0148208   0.000101874     0.0128265
4     0.000218893     0.0149379   7.13927e-05      0.013228   3.17583e-05     0.0125336   5.62728e-05     0.0188738   5.94688e-05     0.0158962   0.000115742     0.0172168   0.000103151     0.0130061
5     0.000190315     0.0143565   5.66882e-05     0.0115241   3.43944e-05     0.0142996   4.67925e-05      0.017995   5.24401e-05     0.0157398   9.92327e-05     0.0167284   9.10826e-05     0.0124356
6     0.000208575     0.0154765   6.60573e-05      0.013089   3.81645e-05     0.0157283   4.67628e-05     0.0179215   5.75906e-05     0.0169669   0.000104353     0.0173818   0.000104222      0.013946
7     0.000228857     0.0147628   7.46055e-05     0.0129158   4.26523e-05     0.0157449   5.26186e-05     0.0172014   5.89804e-05     0.0149015   0.000111599     0.0159041   0.000117258      0.013819