Bin                 0                 1                 2                 3                 4                 5                 6                 7
0        0.477981   0    0.00594571   0   0.000198916   0   0.000131422   0   0.000461949   0   7.35425e-05   0   0.000197502   0    0.00105785   0
1      0.00577297   0      0.471498   0    0.00812684   0   0.000169586   0   0.000443923   0     0.0005539   0   0.000704239   0   0.000193881   0
2     0.000166869   0    0.00841676   0      0.466907   0    0.00574859   0   0.000791282   0    0.00140982   0   0.000645183   0   9.07469e-05   0
3     0.000147722   0   0.000199932   0    0.00630104   0       0.47716   0    0.00246477   0    0.00108039   0   0.000374391   0    0.00033497   0
4     0.000294537   0    0.00041693   0   0.000934982   0      0.002224   0      0.477518   0     0.0062031   0   0.000225546   0    0.00018675   0
5     2.22403e-05   0    0.00080085   0    0.00152023   0   0.000873431   0    0.00561286   0      0.472174   0    0.00881359   0   8.84054e-05   0
6     0.000192091   0    0.00065591   0   0.000640157   0   0.000478155   0   0.000111311   0     0.0085386   0      0.466587   0    0.00658747   0
7     0.000935172   0   0.000223768   0   0.000119211   0   0.000364983   0   0.000191586   0   0.000199346   0    0.00623896   0      0.485154   0