Bin                 0                 1                 2                 3                 4                 5                 6                 7
0        0.463261   0    0.00593395   0    0.00015783   0   0.000132996   0   0.000254815   0   3.90751e-05   0   0.000105802   0   0.000792949   0
1      0.00566405   0      0.456321   0    0.00803991   0   0.000175685   0   0.000244358   0   0.000294302   0    0.00037726   0   0.000102081   0
2     0.000166079   0    0.00849302   0        0.4529   0     0.0057514   0   0.000413146   0   0.000755731   0   0.000353397   0   4.77794e-05   0
3      0.00014883   0   0.000216485   0    0.00636457   0      0.463654   0    0.00148692   0   0.000581014   0    0.00020056   0   0.000188577   0
4     0.000168463   0   0.000223809   0   0.000496832   0    0.00132746   0      0.462075   0    0.00618638   0   0.000227341   0   0.000172226   0
5      1.1715e-05   0      0.000437   0    0.00080782   0   0.000467859   0    0.00580716   0      0.454939   0    0.00845511   0   0.000146535   0
6     0.000101184   0   0.000359208   0   0.000354155   0   0.000249543   0   0.000133306   0    0.00842309   0      0.451559   0    0.00604221   0
7     0.000703432   0   0.000120119   0   6.33466e-05   0   0.000197071   0   0.000180792   0   0.000175996   0    0.00614234   0      0.467138   0