Bin                        incl                         4mu                          4e                       2mu2e                       2e2mu                        2l2l                          4l
0        0.434509    0.00111422       0.61858    0.00182747      0.284167    0.00247626      0.351805    0.00239149      0.479604    0.00214559       0.41566     0.0016067      0.451328    0.00154439
1        0.542146    0.00435234      0.768151    0.00619572      0.357928     0.0102425      0.453821    0.00941907      0.584601    0.00834834      0.518192    0.00630621      0.563874     0.0060005
2        0.492473    0.00403686      0.702684    0.00618984      0.324096    0.00919307      0.418628    0.00863686      0.521923    0.00786831      0.470068    0.00584444      0.512557    0.00557295
3        0.586742    0.00711257      0.820133    0.00937385      0.396863     0.0169954      0.513447     0.0156254      0.609114     0.0137265      0.562271     0.0103744      0.608655    0.00974751