Bin                 0                 1                 2                 3
0        0.322523   0     0.0599321   0     0.0521083   0     0.0413164   0
1       0.0112655   0      0.273293   0    0.00929293   0    0.00459759   0
2       0.0192853   0     0.0396147   0      0.289931   0     0.0106203   0
3       0.0309239   0     0.0300335   0     0.0284199   0      0.366179   0