Bin                        incl                         4mu                          4e                       2mu2e                       2e2mu                        2l2l                          4l
0         0.12365       0.12365      0.046284      0.046284     0.0212446     0.0212446     0.0236895     0.0236895     0.0324319     0.0324319     0.0561214     0.0561214     0.0675286     0.0675286
1        0.160384      0.160384     0.0599616     0.0599616     0.0277763     0.0277763     0.0308555     0.0308555      0.041791      0.041791     0.0726465     0.0726465     0.0877379     0.0877379
2        0.186694      0.186694     0.0706722     0.0706722     0.0326169     0.0326169     0.0348755     0.0348755     0.0485291     0.0485291     0.0834046     0.0834046      0.103289      0.103289
3        0.196795      0.196795     0.0737633     0.0737633     0.0340382     0.0340382     0.0378156     0.0378156     0.0511775     0.0511775     0.0889931     0.0889931      0.107802      0.107802
4        0.195326      0.195326     0.0742275     0.0742275     0.0340582     0.0340582     0.0379479     0.0379479     0.0490928     0.0490928     0.0870407     0.0870407      0.108286      0.108286
5          0.1849        0.1849     0.0696993     0.0696993     0.0321656     0.0321656     0.0359487     0.0359487     0.0470869     0.0470869     0.0830356     0.0830356      0.101865      0.101865
6        0.159249      0.159249     0.0593177     0.0593177     0.0275957     0.0275957     0.0303405     0.0303405     0.0419951     0.0419951     0.0723356     0.0723356     0.0869134     0.0869134
7        0.124633      0.124633     0.0464958     0.0464958     0.0208027     0.0208027     0.0248904     0.0248904     0.0324443     0.0324443     0.0573347     0.0573347     0.0672985     0.0672985