Bin                        incl                         4mu                          4e                       2mu2e                       2e2mu                        2l2l                          4l
0      0.00424596     0.0163678    0.00133876     0.0138912   0.000719758     0.0155896    0.00103624     0.0207332     0.0011512     0.0172112    0.00218744     0.0187175    0.00205852     0.0144413
1      0.00958841     0.0428041    0.00322488     0.0391169    0.00177558     0.0431575    0.00194425     0.0456816    0.00264369     0.0456898    0.00458794     0.0456863    0.00500046      0.040462
2       0.0350783      0.271058     0.0120906      0.255326    0.00666207      0.280737    0.00700275      0.282494    0.00932284      0.277971     0.0163256      0.279893     0.0187527      0.263809
3     0.000736915      0.445694   0.000175322      0.293824   0.000183299      0.493456   0.000189737      0.577546   0.000188557      0.528563   0.000378294      0.552046   0.000358621      0.370419