Bin                 0                 1                 2                 3
0        0.268306   0     0.0116383   0   4.56145e-05   0             0   0
1       0.0246223   0      0.261248   0    0.00969101   0             0   0
2               0   0     0.0111171   0      0.238545   0     0.0335907   0
3               0   0             0   0             0   0             0   0