Bin                 0                 1                 2                 3
0        0.308639   0     0.0153529   0   0.000365534   0          -nan   0
1       0.0289797   0       0.30398   0     0.0212393   0          -nan   0
2     0.000122798   0      0.012834   0      0.296936   0          -nan   0
3               0   0             0   0             0   0          -nan   0