Bin                 0                 1                 2                 3                 4
0        0.368535   0      0.100915   0    0.00709677   0    0.00520816   0             0   0
1       0.0606611   0      0.278337   0      0.138671   0     0.0200462   0     0.0173001   0
2      0.00720704   0     0.0392735   0      0.190522   0      0.136065   0     0.0715656   0
3     0.000437617   0     0.0102527   0     0.0388822   0      0.224423   0     0.0996983   0
4      0.00031783   0   -0.00110211   0   -0.00254718   0     0.0227261   0      0.327373   0