Bin                 0                 1                 2                 3                 4
0        0.467857   0      0.045033   0    0.00557638   0    0.00036257   0             0   0
1        0.102574   0      0.389995   0     0.0872761   0     0.0126758   0   0.000218984   0
2       0.0137144   0      0.103625   0      0.386069   0      0.112565   0     0.0178677   0
3     0.000828659   0     0.0140304   0     0.0690988   0      0.328773   0     0.0918914   0
4     5.39346e-05   0    0.00154021   0    0.00947592   0     0.0699726   0      0.385973   0