Bin                 0                 1                 2                 3                 4
0        0.322918   0     0.0279651   0    0.00275465   0   0.000495734   0   0.000193481   0
1        0.119645   0      0.366109   0     0.0587057   0     0.0120826   0    0.00152688   0
2       0.0179898   0     0.0846976   0      0.387572   0       0.10986   0     0.0218077   0
3      0.00180685   0    0.00814973   0     0.0416294   0      0.306693   0      0.113324   0
4     0.000428113   0   0.000884352   0    0.00475341   0      0.046391   0      0.311961   0