Bin                 0                 1                 2                 3
0        0.335432   0     0.0699158   0    0.00964823   0     0.0048211   0
1       0.0180409   0       0.27662   0     0.0570045   0    0.00608377   0
2     0.000258926   0     0.0224028   0      0.317282   0     0.0545877   0
3     2.92748e-05   0   8.94808e-05   0    0.00940634   0      0.310934   0