Bin                        incl                         4mu                          4e                       2mu2e                       2e2mu                        2l2l                          4l
0       0.0158989     0.0149657    0.00508543     0.0123679    0.00252951     0.0143433    0.00375334     0.0187424    0.00453066     0.0165011    0.00828399     0.0174464    0.00761494     0.0129609
1      0.00228689     0.0159432   0.000830032      0.014947   0.000348403     0.0144972   0.000542552     0.0194351     0.0005659     0.0157373    0.00110845     0.0173534    0.00117844     0.0148111
2     0.000501166     0.0152275   0.000195785     0.0165616   7.50689e-05     0.0122311   0.000115892     0.0172331    0.00011442     0.0139065   0.000230313     0.0154027   0.000270854     0.0150817
3     7.58153e-05     0.0142492   1.44739e-05    0.00790629   1.58062e-05       0.01504   2.28294e-05     0.0208121   2.27058e-05     0.0169178   4.55352e-05     0.0186692   3.02801e-05      0.010508