Bin                 0                 1                 2
0        0.290164   0    0.00993036   0             0   0
1      0.00240998   0      0.401975   0     0.0307475   0
2               0   0   0.000600158   0      0.432361   0