Bin                 0                 1                 2
0        0.259492   0    0.00744316   0             0   0
1      0.00383323   0      0.339976   0     0.0194116   0
2    -1.15222e-05   0    0.00134109   0      0.395843   0