Bin                        incl                         4mu                          4e                       2mu2e                       2e2mu                        2l2l                          4l
0     0.000420679     0.0891121   0.000132336     0.0757282    7.0896e-05     0.0828645   9.47415e-05      0.106577   0.000122705     0.0998616   0.000217447       0.10268   0.000203232     0.0780737
1     0.000437979     0.0720603   0.000159677     0.0692115   6.12365e-05     0.0600869   0.000112184     0.0956039   0.000104882     0.0664522   0.000217066     0.0788834   0.000220914     0.0664158
2      0.00038745     0.0489553   0.000121031     0.0415433   6.48666e-05     0.0458208   9.65582e-05     0.0596942   0.000104994     0.0533567   0.000201552     0.0562159   0.000185898     0.0429421
3     0.000200947     0.0462083   6.45378e-05      0.042813   3.86715e-05     0.0465098   4.41641e-05     0.0466457   5.35735e-05     0.0503975   9.77376e-05       0.04863   0.000103209     0.0441272