Bin                 0                 1                 2                 3
0        0.389875   0     0.0756687   0    0.00897466   0     0.0142591   0
1       0.0748304   0      0.319155   0     0.0280078   0   -0.00607283   0
2       0.0030526   0     0.0341596   0      0.327587   0     0.0871887   0
3     2.50366e-05   0   0.000244765   0      0.016324   0      0.216718   0