Bin                 0                 1                 2                 3
0         0.63765   0     0.0681728   0     0.0037115   0   2.08203e-05   0
1       0.0355654   0      0.573513   0     0.0441169   0    0.00118119   0
2      0.00188828   0      0.042446   0      0.568037   0     0.0378723   0
3      0.00118932   0    0.00159485   0     0.0424037   0       0.58326   0