Bin                 0                 1                 2                 3
0        0.315947   0     0.0441849   0    0.00244997   0   0.000519644   0
1       0.0218527   0      0.296214   0     0.0258495   0    0.00123914   0
2     0.000926446   0     0.0261955   0      0.291021   0     0.0238765   0
3      0.00147502   0    0.00213067   0     0.0277022   0      0.303434   0