Bin                 0                 1                 2                 3
0        0.343901   0        0.0412   0   -0.00461378   0             0   0
1         0.06463   0      0.321099   0     0.0397203   0     0.0003491   0
2      0.00562175   0    0.00462541   0      0.301653   0     0.0333891   0
3    -0.000587016   0   0.000512753   0     0.0250359   0      0.240959   0