Bin                 0                 1                 2                 3
0        0.435948   0     0.0443799   0   0.000182208   0   4.50083e-05   0
1       0.0302619   0      0.404447   0     0.0318009   0   2.48507e-05   0
2      0.00052848   0      0.024192   0      0.393151   0     0.0252324   0
3     0.000168011   0     0.0010946   0     0.0303893   0      0.400137   0