Bin                 0                 1                 2                 3
0        0.409246   0     0.0614352   0   0.000667132   0   5.20509e-05   0
1       0.0241551   0      0.369739   0     0.0378689   0    0.00013194   0
2      0.00167935   0     0.0257955   0       0.38523   0     0.0327298   0
3     0.000218207   0             0   0     0.0326638   0      0.418448   0