Bin                 0                 1                 2                 3
0        0.306628   0     0.0532418   0     0.0041142   0    0.00286959   0
1       0.0419613   0      0.267127   0     0.0429599   0    0.00209644   0
2     0.000918368   0     0.0286205   0      0.317791   0     0.0372812   0
3     0.000136674   0   0.000180389   0      0.014695   0       0.39803   0