Bin                 0                 1                 2                 3
0        0.483347   0     0.0468686   0    0.00660744   0    0.00141662   0
1         0.10963   0      0.435746   0     0.0518638   0    0.00219634   0
2      0.00918114   0     0.0783364   0      0.483243   0     0.0515208   0
3      0.00238866   0    0.00101742   0     0.0283791   0      0.528411   0