Bin                 0                 1                 2                 3
0        0.166028   0     0.0144419   0   0.000989822   0   0.000231272   0
1         0.13644   0      0.219131   0     0.0178608   0    0.00193245   0
2      0.00687577   0     0.0626039   0      0.235894   0     0.0299536   0
3      0.00399193   0    0.00110897   0       0.02204   0      0.263501   0