Bin                        incl                         4mu                          4e                       2mu2e                       2e2mu                        2l2l                          4l
0        0.507477   0.000964028      0.500695    0.00192789      0.503378    0.00192343      0.516116    0.00192856      0.511183    0.00193058      0.513639    0.00136443      0.502037    0.00136165
1         0.49349    0.00103705      0.511591    0.00204631       0.50778    0.00204707      0.463595    0.00209417      0.488973    0.00210895      0.475888    0.00148644      0.509677    0.00144724
2        0.499674    0.00105254      0.506953     0.0020927      0.508209     0.0020949      0.489666    0.00211746      0.492469    0.00211487      0.491065    0.00149636       0.50758    0.00148054
3        0.514025    0.00098376      0.521843    0.00196912       0.50535    0.00198046      0.515385    0.00195972      0.513813    0.00195724      0.514597    0.00138486      0.513498    0.00139657
4        0.516128   0.000984376      0.525628    0.00196934       0.51867    0.00196811      0.507087    0.00197006      0.512333    0.00196499      0.509703    0.00139127      0.522119    0.00139213
5        0.502294    0.00105328      0.510627    0.00209117      0.510503    0.00210019       0.49393    0.00211977      0.492693    0.00211457      0.493309    0.00149707      0.510565    0.00148186
6        0.508171    0.00103598      0.529159    0.00204628      0.510365    0.00204776      0.498285     0.0020948      0.492935    0.00210072      0.495604    0.00148335      0.519579    0.00144774
7        0.517707   0.000964293      0.546826    0.00191014      0.504535    0.00192764      0.510133    0.00193443      0.509636    0.00193759      0.509885    0.00136896      0.524916    0.00135817