Bin                 0                 1                 2                 3                 4                 5                 6                 7
0        0.400201   0    0.00617367   0   0.000382587   0   0.000306589   0   0.000653321   0   0.000316587   0   3.87684e-05   0    0.00233511   0
1      0.00569881   0      0.390081   0    0.00634773   0   0.000650212   0   0.000361935   0    0.00103157   0    0.00062178   0    0.00058641   0
2     0.000346226   0    0.00903785   0      0.392525   0    0.00451688   0    0.00116304   0    0.00193799   0   0.000725957   0   0.000821252   0
3     0.000646054   0   6.60288e-05   0    0.00755586   0      0.389518   0     0.0023943   0     0.0011729   0   0.000630721   0    0.00027219   0
4     0.000192502   0   0.000324135   0   0.000815853   0    0.00394914   0      0.394294   0    0.00508808   0   0.000545416   0   0.000233352   0
5     0.000267351   0   0.000269929   0    0.00144134   0   0.000715746   0    0.00568353   0      0.372929   0    0.00770229   0   0.000138737   0
6     0.000158937   0    0.00142932   0   0.000827539   0   0.000953652   0   0.000107793   0    0.00651751   0      0.399004   0    0.00605998   0
7      0.00116805   0   0.000494007   0   1.84652e-06   0   0.000793684   0   0.000190582   0   0.000825065   0    0.00708969   0       0.40866   0