Bin                        incl                         4mu                          4e                       2mu2e                       2e2mu                        2l2l                          4l
0     0.000124701     0.0507919   3.42367e-05     0.0421849   2.91982e-05     0.0600907   3.28378e-05     0.0594653   2.84285e-05     0.0469557   6.12662e-05      0.052923   6.34348e-05     0.0488905
1     7.10606e-05     0.0367673    1.8345e-05     0.0286441    1.5366e-05     0.0395028   1.59368e-05     0.0378969   2.14128e-05     0.0443558   3.73496e-05     0.0413488    3.3711e-05     0.0327472
2     8.81929e-05     0.0367264   2.65303e-05     0.0323572   2.20706e-05     0.0465765   1.83234e-05     0.0350926   2.12686e-05     0.0363299   3.95921e-05     0.0357466   4.86008e-05     0.0375651
3      9.3243e-05     0.0385855   2.59397e-05     0.0307779   2.34032e-05     0.0477589   1.84708e-05     0.0372437   2.54293e-05     0.0432649   4.39001e-05     0.0405094   4.93429e-05     0.0370211
4     7.04914e-05     0.0356399   1.89711e-05     0.0291822   1.31915e-05     0.0323672   1.59856e-05     0.0379789   2.23433e-05     0.0447466   3.83289e-05     0.0416511   3.21625e-05     0.0304095
5     5.59607e-05     0.0411978   1.14236e-05     0.0245563   1.38535e-05      0.047119   1.62195e-05     0.0552953   1.44641e-05     0.0472987   3.06836e-05     0.0512137   2.52771e-05     0.0332939
6      1.7468e-05      0.111141   1.12366e-06     0.0179555   1.39933e-06     0.0429535   8.19553e-06      0.244451   6.74945e-06      0.236945    1.4945e-05      0.241003   2.52299e-06     0.0265137