Bin                        incl                         4mu                          4e                       2mu2e                       2e2mu                        2l2l                          4l
0        0.137459      0.137459     0.0534685     0.0534685     0.0222936     0.0222936     0.0269601     0.0269601     0.0347364     0.0347364     0.0616965     0.0616965     0.0757621     0.0757621
1        0.181136      0.181136     0.0679951     0.0679951     0.0316886     0.0316886     0.0343843     0.0343843     0.0470677     0.0470677      0.081452      0.081452     0.0996838     0.0996838
2        0.180331      0.180331     0.0679911     0.0679911     0.0305534     0.0305534     0.0343668     0.0343668     0.0474193     0.0474193     0.0817861     0.0817861     0.0985444     0.0985444
3        0.137366      0.137366     0.0533473     0.0533473     0.0225615     0.0225615     0.0266664     0.0266664     0.0347904     0.0347904     0.0614568     0.0614568     0.0759088     0.0759088
4        0.139506      0.139506     0.0545064     0.0545064     0.0226892     0.0226892     0.0274454     0.0274454     0.0348644     0.0348644     0.0623099     0.0623099     0.0771956     0.0771956
5        0.180038      0.180038     0.0680298     0.0680298     0.0311126     0.0311126     0.0337629     0.0337629     0.0471328     0.0471328     0.0808957     0.0808957     0.0991423     0.0991423
6        0.181679      0.181679     0.0681558     0.0681558     0.0312925     0.0312925     0.0342768     0.0342768     0.0479541     0.0479541     0.0822309     0.0822309     0.0994483     0.0994483
7        0.136369      0.136369     0.0528452     0.0528452     0.0221764     0.0221764     0.0270075     0.0270075     0.0343404     0.0343404     0.0613479     0.0613479     0.0750216     0.0750216