Bin                 0                 1                 2                 3
0        0.390206   0     0.0483062   0    0.00214466   0   0.000129488   0
1       0.0189236   0      0.349265   0     0.0244747   0    0.00072852   0
2      0.00176192   0     0.0249823   0      0.337363   0     0.0225431   0
3     0.000814788   0    0.00160405   0     0.0338698   0       0.31857   0