Bin                 0                 1                 2                 3
0        0.400556   0     0.0527034   0     0.0056449   0   0.000676117   0
1       0.0388174   0      0.342975   0      0.081093   0     0.0104522   0
2      0.00290941   0     0.0396127   0      0.306276   0     0.0834956   0
3     0.000252675   0    0.00351153   0     0.0420472   0      0.328048   0