Bin                 0                 1                 2
0        0.335134   0     0.0686015   0    0.00684956   0
1        0.046337   0      0.248919   0     0.0728284   0
2      0.00774752   0     0.0449579   0      0.259178   0