Bin                        incl                         4mu                          4e                       2mu2e                       2e2mu                        2l2l                          4l
0        0.712637      0.712637      0.273219      0.273219      0.118772      0.118772      0.134512      0.134512      0.186134      0.186134      0.320646      0.320646      0.391991      0.391991
1        0.367501      0.367501      0.139729      0.139729     0.0626364     0.0626364     0.0715748     0.0715748     0.0935607     0.0935607      0.165136      0.165136      0.202365      0.202365
2        0.132399      0.132399     0.0500773     0.0500773     0.0225485     0.0225485     0.0268058     0.0268058     0.0329674     0.0329674     0.0597732     0.0597732     0.0726259     0.0726259
3       0.0354727     0.0354727     0.0133212     0.0133212    0.00604943    0.00604943    0.00713258    0.00713258    0.00896954    0.00896954     0.0161021     0.0161021     0.0193706     0.0193706
4       0.0131174     0.0131174    0.00492915    0.00492915    0.00230236    0.00230236    0.00254677    0.00254677    0.00333914    0.00333914    0.00588591    0.00588591    0.00723151    0.00723151