Bin                 0                 1                 2                 3                 4                 5                 6                 7
0        0.384287   0     0.0187289   0    0.00167155   0   0.000979955   0    0.00050274   0   0.000225394   0   0.000188562   0   5.64824e-05   0
1       0.0234372   0      0.372738   0     0.0323925   0    0.00263637   0   0.000995414   0   0.000720722   0   0.000467554   0   7.91454e-05   0
2      0.00221862   0     0.0329452   0      0.379622   0     0.0354258   0    0.00260385   0    0.00114081   0   0.000588501   0   0.000647793   0
3      0.00105008   0    0.00149295   0     0.0372879   0      0.377817   0     0.0362813   0    0.00313004   0   0.000936118   0    0.00073717   0
4     0.000773171   0   0.000986821   0    0.00228147   0     0.0394541   0      0.378877   0     0.0359604   0    0.00204678   0    0.00129273   0
5     0.000537495   0   0.000565136   0   0.000987706   0    0.00260109   0     0.0353955   0      0.376373   0     0.0346274   0     0.0014327   0
6      0.00018051   0   0.000265867   0   0.000764386   0   0.000844142   0     0.0020448   0     0.0300076   0      0.375368   0     0.0247724   0
7     7.16662e-05   0   0.000193565   0   0.000201818   0   0.000424585   0   0.000612924   0    0.00182053   0     0.0200656   0      0.384824   0