Bin                        incl                         4mu                          4e                       2mu2e                       2e2mu                        2l2l                          4l
0      0.00263534     0.0148095   0.000835926     0.0125717   0.000444205     0.0140095   0.000643478     0.0180544   0.000711726     0.0161363     0.0013552     0.0169935    0.00128013     0.0130359
1      0.00302667      0.013458   0.000851726     0.0104159   0.000560309     0.0136473   0.000786014     0.0179483   0.000828626     0.0142187    0.00161464     0.0158189    0.00141203      0.011496
2       0.0029841     0.0132956   0.000862198     0.0106949      0.000519      0.012497   0.000741795     0.0168811   0.000861108      0.014757     0.0016029     0.0156695     0.0013812     0.0113076
3      0.00270075     0.0152148   0.000800396     0.0120826   0.000457655     0.0145428   0.000707068     0.0198119    0.00073563     0.0166786     0.0014427       0.01808    0.00125805      0.012875
4      0.00275075     0.0154398   0.000820633     0.0123824   0.000450399     0.0141635   0.000717724      0.020096   0.000761992     0.0171733    0.00147972     0.0184767    0.00127103     0.0129599
5      0.00297262     0.0131423   0.000915385     0.0112624   0.000543089      0.013108   0.000715822     0.0160742   0.000798324     0.0135435    0.00151415     0.0146326    0.00145847     0.0118855
6      0.00298441     0.0131987   0.000879419      0.010814   0.000545269     0.0131437   0.000739601     0.0166991   0.000820124     0.0138963    0.00155972     0.0150979    0.00142469      0.011601
7      0.00264626     0.0149415   0.000829634     0.0125013   0.000450368     0.0145054   0.000662848     0.0183033   0.000703413     0.0161773    0.00136626     0.0171434       0.00128       0.01314