Bin                        incl                         4mu                          4e                       2mu2e                       2e2mu                        2l2l                          4l
0     6.94665e-05     0.0638169   1.81924e-05     0.0518361   1.70325e-05     0.0682246   1.74209e-05     0.0754107   1.68207e-05     0.0654754   3.42416e-05     0.0701795   3.52249e-05     0.0586482
1     8.97494e-05     0.0543244   1.39242e-05     0.0251502    1.7588e-05      0.050996   2.86257e-05     0.0779031   2.96115e-05      0.076691   5.82372e-05      0.077282   3.15122e-05     0.0350707
2     6.77016e-05      0.036044    2.0109e-05     0.0313716   1.57283e-05     0.0389803   1.31879e-05     0.0338891   1.86764e-05     0.0420009   3.18643e-05      0.038215   3.58373e-05     0.0343109
3     0.000149864     0.0348129   4.53289e-05     0.0308234   3.52616e-05     0.0414305   3.16745e-05     0.0347581   3.75995e-05     0.0350787    6.9274e-05     0.0349314   8.05905e-05     0.0347118
4     0.000181168     0.0454539    4.8965e-05     0.0365716   4.65904e-05     0.0590023   4.11277e-05      0.046207   4.44849e-05     0.0459955   8.56127e-05     0.0460969   9.55554e-05     0.0448929