Bin                 0                 1                 2                 3                 4
0        0.346749   0    0.00877206   0    0.00801793   0     0.0045437   0    0.00382251   0
1      0.00600865   0      0.426706   0     0.0119853   0             0   0             0   0
2      0.00595544   0     0.0105091   0      0.330442   0     0.0203108   0   3.24889e-06   0
3       0.0103977   0   9.91499e-06   0     0.0625915   0      0.299323   0     0.0154757   0
4      0.00865475   0             0   0   0.000156854   0     0.0261531   0      0.278082   0