Bin                        incl                         4mu                          4e                       2mu2e                       2e2mu                        2l2l                          4l
0        0.425181   0.000490796      0.604938    0.00081619      0.278188    0.00108171      0.343017    0.00104902      0.470515   0.000944282      0.406786   0.000705951      0.441613   0.000681836
1        0.481826   0.000693457      0.678746    0.00109327      0.320056     0.0015619      0.399832    0.00149143      0.523913    0.00133627      0.461689    0.00100196      0.499734   0.000959391
2        0.525562   0.000990762      0.739557    0.00147434      0.352641    0.00227556      0.447687    0.00213425      0.558233    0.00191714      0.502884     0.0014352      0.545862    0.00136696