Bin                 0                 1                 2
0        0.402712   0     0.0969784   0     0.0128069   0
1       0.0599854   0       0.30741   0     0.0923687   0
2      0.00988595   0      0.051844   0      0.325194   0