Bin                        incl                         4mu                          4e                       2mu2e                       2e2mu                        2l2l                          4l
0        0.502632   0.000298816      0.505206   0.000595095      0.506413   0.000595549      0.499958   0.000599433      0.498291   0.000600437      0.499125   0.000424218      0.505808   0.000420956
1        0.557392    0.00110943      0.560807    0.00221589      0.562452    0.00220416      0.553285    0.00222439      0.552188    0.00223084      0.552737    0.00157516      0.561632    0.00156271
2        0.549343    0.00117639      0.554396    0.00234344      0.556297    0.00233051      0.542691    0.00237299      0.542762    0.00236527      0.542727    0.00167522       0.55535    0.00165248
3        0.532955    0.00103969      0.536237    0.00206942      0.540429    0.00206473      0.527203    0.00209145      0.526867    0.00209256      0.527035    0.00147927      0.538328    0.00146165