Bin                 0                 1                 2                 3
0        0.442225   0     0.0716311   0     0.0652706   0     0.0700076   0
1      0.00564396   0      0.351682   0     0.0153046   0      0.010904   0
2      0.00484013   0     0.0159516   0      0.344817   0     0.0146708   0
3      0.00610586   0     0.0100142   0     0.0141784   0      0.349167   0