Bin                 0                 1                 2                 3
0        0.617947   0     0.0966875   0      0.087471   0     0.0945478   0
1      0.00801178   0      0.474647   0     0.0198973   0     0.0154516   0
2      0.00707232   0     0.0227441   0      0.470146   0     0.0200929   0
3      0.00876835   0     0.0137775   0     0.0189796   0      0.475308   0