Bin                        incl                         4mu                          4e                       2mu2e                       2e2mu                        2l2l                          4l
0         0.46104    0.00269284      0.462841    0.00538908      0.464559    0.00534999      0.461246    0.00538341      0.454952    0.00541835      0.458104    0.00381899      0.463705    0.00379676
1        0.509647    0.00256269      0.515132    0.00507903      0.512869    0.00513513      0.503503    0.00516041       0.50622     0.0051256      0.504866    0.00363661       0.51401    0.00361109
2        0.508073     0.0025734      0.507045    0.00514752      0.512078    0.00515466      0.507764    0.00513044      0.505172     0.0051484       0.50647    0.00363411      0.509545    0.00364241
3        0.466524    0.00266474       0.47147    0.00530883      0.469033    0.00528813      0.465998    0.00534145       0.45878    0.00538104      0.462394    0.00379097      0.470244    0.00374658
4        0.460272    0.00269189      0.466014    0.00536331      0.462851    0.00537764      0.452709    0.00540667      0.458753    0.00538413      0.455724    0.00381516      0.464432     0.0037975
5        0.509512    0.00257078      0.512667    0.00508933      0.518668    0.00507863      0.498579    0.00522491      0.506655    0.00518197      0.502614    0.00367942      0.515655    0.00359498
6        0.506449    0.00257258      0.514131    0.00511267       0.51006    0.00511881      0.501437    0.00518412      0.499073    0.00516526      0.500248    0.00365905      0.512089     0.0036174
7        0.461347    0.00269032      0.470485    0.00532736      0.462047    0.00535826       0.45739    0.00542818       0.45441    0.00541145      0.455893    0.00383239      0.466257    0.00377801