Bin                        incl                         4mu                          4e                       2mu2e                       2e2mu                        2l2l                          4l
0     0.000105678     0.0410643   3.52967e-05     0.0368829    2.1476e-05     0.0468181   2.09316e-05     0.0394349   2.79741e-05     0.0446162   4.89057e-05     0.0422408   5.67727e-05     0.0401021
1     0.000138038     0.0482807   4.08214e-05     0.0391462   2.91793e-05     0.0558415   3.29981e-05     0.0566183   3.50389e-05      0.049287    6.8037e-05     0.0525897   7.00007e-05     0.0447194
2     0.000120036     0.0415823   4.69353e-05     0.0452342   2.04816e-05     0.0390275   2.19786e-05     0.0377278   3.06404e-05     0.0413086    5.2619e-05     0.0397334   6.74169e-05     0.0431494
3     0.000114031     0.0453111   4.06385e-05     0.0422344   1.93247e-05     0.0430627   2.38541e-05     0.0470507    3.0214e-05     0.0504683    5.4068e-05     0.0489012   5.99632e-05     0.0424979
4     0.000106478     0.0411541   3.79062e-05     0.0386138   1.44832e-05     0.0308387   2.57552e-05     0.0515007   2.83339e-05     0.0445571   5.40891e-05     0.0476138   5.23894e-05     0.0360978
5     0.000128951     0.0450393   4.26522e-05     0.0408885   2.02524e-05     0.0383831   2.75102e-05     0.0519981   3.85359e-05     0.0504903   6.60461e-05     0.0511076   6.29046e-05     0.0400469
6     0.000124426      0.043826   4.41442e-05     0.0411673   2.21216e-05     0.0455099   2.22448e-05     0.0400881   3.59154e-05      0.049484   5.81602e-05      0.045413   6.62657e-05     0.0425218
7     0.000112396     0.0440228   3.96461e-05     0.0411376   1.78819e-05     0.0389999   2.70272e-05     0.0543951    2.7841e-05     0.0439123   5.48682e-05      0.048518    5.7528e-05     0.0404485