Bin                 0                 1                 2
0         0.34393   0     0.0093332   0             0   0
1      0.00387034   0      0.466155   0     0.0299031   0
2               0   0   0.000903926   0       0.53006   0