Bin                        incl                         4mu                          4e                       2mu2e                       2e2mu                        2l2l                          4l
0        0.796296      0.796296      0.297765      0.297765      0.138903      0.138903      0.155394      0.155394      0.204234      0.204234      0.359628      0.359628      0.436668      0.436668
1        0.336706      0.336706      0.126517      0.126517     0.0582979     0.0582979     0.0668767     0.0668767     0.0850152     0.0850152      0.151892      0.151892      0.184814      0.184814
2        0.172213      0.172213       0.06267       0.06267     0.0310953     0.0310953     0.0352639     0.0352639     0.0431841     0.0431841      0.078448      0.078448     0.0937653     0.0937653
3       0.0649973     0.0649973     0.0222739     0.0222739     0.0126582     0.0126582     0.0138167     0.0138167     0.0162485     0.0162485     0.0300652     0.0300652     0.0349321     0.0349321