Bin                 0                 1                 2                 3
0        0.310477   0     0.0553095   0      0.020732   0     0.0143348   0
1       0.0279756   0      0.287972   0     0.0319948   0     0.0105761   0
2       0.0111781   0     0.0218351   0      0.278027   0     0.0409236   0
3      0.00233982   0    0.00209298   0    0.00824368   0      0.308669   0