Bin                 0                 1                 2                 3
0        0.396531   0      0.071358   0     0.0624638   0     0.0474258   0
1        0.013232   0      0.324161   0     0.0111603   0    0.00539963   0
2       0.0234018   0      0.046064   0      0.349422   0      0.012106   0
3       0.0373272   0     0.0313433   0     0.0343692   0      0.435763   0