Bin                 0                 1                 2                 3
0        0.291057   0     0.0160675   0    0.00588407   0    0.00394848   0
1       0.0619184   0      0.256071   0     0.0348933   0    0.00852814   0
2       0.0575228   0     0.0814901   0      0.283155   0     0.0497194   0
3       0.0159412   0     0.0075677   0     0.0116378   0      0.285202   0