Bin                        incl                         4mu                          4e                       2mu2e                       2e2mu                        2l2l                          4l
0       0.0136122     0.0119858    0.00393427    0.00921126    0.00238068     0.0120716    0.00346757     0.0159518    0.00382968     0.0130269    0.00729724     0.0142703    0.00631494     0.0101148
1     0.000851627      0.011478   0.000289888     0.0104856   0.000148583     0.0114011   0.000218106     0.0146265   0.000195049     0.0104828   0.000413156     0.0123263   0.000438471     0.0107789
2      0.00103706     0.0119401    0.00030244    0.00936367   0.000183116     0.0118835   0.000285729     0.0164231    0.00026577     0.0122204   0.000551499     0.0140882   0.000485557     0.0101776
3     0.000286869     0.0106402   8.87063e-05    0.00895689   4.73083e-05    0.00968353   7.54296e-05      0.013889   7.54247e-05     0.0111893   0.000150854     0.0123938   0.000136015    0.00919693