Bin                        incl                         4mu                          4e                       2mu2e                       2e2mu                        2l2l                          4l
0        0.100752      0.100752      0.031729      0.031729     0.0162804     0.0162804     0.0252094     0.0252094     0.0275334     0.0275334     0.0527428     0.0527428     0.0480093     0.0480093
1        0.115911      0.115911     0.0447969     0.0447969      0.023599      0.023599     0.0215644     0.0215644     0.0259503     0.0259503     0.0475148     0.0475148     0.0683959     0.0683959
2        0.251376      0.251376     0.0937402     0.0937402     0.0489391     0.0489391     0.0440674     0.0440674     0.0646288     0.0646288      0.108696      0.108696      0.142679      0.142679
3        0.852736      0.852736      0.331291      0.331291      0.136914      0.136914      0.160985      0.160985      0.223545      0.223545       0.38453       0.38453      0.468206      0.468206