Bin                        incl                         4mu                          4e                       2mu2e                       2e2mu                        2l2l                          4l
0        0.836266   0.000309958      0.836591   0.000618859      0.836913   0.000619145      0.835438   0.000621124      0.836022   0.000620721       0.83573   0.000439059      0.836752   0.000437701
1       0.0855147   0.000732524     0.0856053    0.00146393     0.0858866    0.00146583     0.0852828    0.00146439     0.0852371    0.00146608       0.08526    0.00103608     0.0857459    0.00103583
2       0.0554971   0.000744449     0.0552545    0.00148803     0.0550463    0.00149035       0.05595    0.00148768     0.0558081    0.00148948     0.0558791    0.00105258     0.0551504    0.00105301
3       0.0227226   0.000757255     0.0225496    0.00151356     0.0221539    0.00151607     0.0233295    0.00151317     0.0229325    0.00151519     0.0231312    0.00107068     0.0223519    0.00107114