Bin                           0                           1                           2                           3                           4                           5                           6                           7
0                      0.585812   0                   0.0366163   0                  0.00166578   0                 0.000838732   0                  0.00053188   0                 0.000665595   0                 0.000616977   0                 0.000493658   0
1                     0.0404091   0                    0.563059   0                    0.041242   0                  0.00173209   0                 0.000661479   0                 0.000699966   0                 0.000815142   0                 1.37754e-05   0
2                    0.00250018   0                   0.0404169   0                    0.547118   0                   0.0385939   0                  0.00217169   0                 0.000368497   0                 0.000799631   0                 0.000180583   0
3                   0.000247008   0                  0.00114297   0                   0.0380614   0                    0.567752   0                   0.0369131   0                  0.00121568   0                 0.000274214   0                  0.00054503   0
4                   0.000678647   0                 0.000796491   0                  0.00113002   0                   0.0336961   0                    0.549745   0                   0.0327713   0                 0.000991881   0                  0.00165253   0
5                   0.000820445   0                 0.000210271   0                 0.000897542   0                   0.0011647   0                   0.0319025   0                    0.562374   0                   0.0285075   0                 0.000614491   0
6                   0.000731797   0                 0.000438471   0                 0.000310087   0                -7.62903e-05   0                 0.000155579   0                   0.0295642   0                    0.576644   0                   0.0204414   0
7                   0.000450807   0                 0.000491328   0                 0.000273885   0                 0.000673749   0                 0.000252266   0                 0.000370661   0                    0.020039   0                    0.594111   0