Bin                 0                 1                 2                 3                 4                 5                 6                 7
0        0.592962   0     0.0388602   0    0.00101038   0    0.00037128   0    0.00028954   0   0.000352931   0   0.000300936   0   0.000240712   0
1       0.0384845   0      0.554467   0     0.0379941   0   0.000823385   0    0.00040176   0   0.000288465   0   0.000372142   0   0.000301225   0
2     0.000899961   0      0.035748   0      0.556988   0     0.0370361   0   0.000969224   0   0.000422469   0   0.000375043   0   0.000273262   0
3     0.000382518   0   0.000928583   0     0.0347141   0      0.558203   0     0.0331706   0   0.000668202   0   0.000419566   0   0.000257661   0
4     0.000439158   0   0.000320963   0   0.000851464   0     0.0339141   0      0.560726   0     0.0317882   0   0.000732781   0   0.000356978   0
5     0.000381402   0   0.000301854   0   0.000413308   0   0.000721917   0     0.0309617   0      0.561055   0     0.0275304   0   0.000594693   0
6      0.00044757   0   0.000259589   0   0.000403268   0   0.000451136   0   0.000590267   0     0.0261499   0      0.565724   0     0.0215165   0
7     0.000323855   0   0.000296522   0   0.000272162   0   0.000314339   0   0.000388665   0   0.000570534   0      0.020907   0      0.590544   0