Bin                        incl                         4mu                          4e                       2mu2e                       2e2mu                        2l2l                          4l
0         0.53081   0.000639921      0.534356    0.00127198       0.53586    0.00127447      0.527354    0.00128476      0.524788    0.00128823      0.526071    0.00090969      0.535105   0.000900309
1        0.539831     0.0021108      0.546307    0.00418865      0.543945    0.00421001      0.531338    0.00427301      0.536643    0.00421518      0.534011    0.00300087      0.545129    0.00296936
2        0.500632    0.00177529      0.501126    0.00353998      0.506878    0.00352427      0.498398    0.00356133      0.495395    0.00357724      0.496899    0.00252386      0.503998    0.00249761
3        0.520019   0.000663779      0.525253    0.00132061      0.523901    0.00132078        0.5153    0.00133506      0.514687    0.00133385      0.514993   0.000943601      0.524577   0.000933874