Bin                 0                 1                 2                 3
0        0.518796   0     0.0624112   0     0.0771437   0     0.0635268   0
1         0.03149   0      0.499234   0     0.0395475   0     0.0258451   0
2       0.0330158   0     0.0260479   0      0.439215   0       0.04209   0
3        0.016091   0    0.00946303   0     0.0165479   0      0.428456   0