Bin                        incl                         4mu                          4e                       2mu2e                       2e2mu                        2l2l                          4l
0        0.249132      0.249132     0.0954028     0.0954028     0.0407723     0.0407723     0.0456481     0.0456481     0.0673087     0.0673087      0.112957      0.112957      0.136175      0.136175
1        0.202641      0.202641     0.0772779     0.0772779      0.033144      0.033144     0.0372086     0.0372086     0.0550102     0.0550102     0.0922188     0.0922188      0.110422      0.110422
2        0.257013      0.257013      0.096521      0.096521     0.0436034     0.0436034      0.048744      0.048744     0.0681447     0.0681447      0.116889      0.116889      0.140124      0.140124
3          0.2604        0.2604     0.0971445     0.0971445     0.0449297     0.0449297     0.0503407     0.0503407     0.0679848     0.0679848      0.118325      0.118325      0.142074      0.142074
4        0.210882      0.210882      0.076833      0.076833     0.0397439     0.0397439      0.043286      0.043286     0.0510192     0.0510192     0.0943052     0.0943052      0.116577      0.116577
5        0.141968      0.141968     0.0519377     0.0519377     0.0276632     0.0276632     0.0301044     0.0301044     0.0322627     0.0322627     0.0623671     0.0623671      0.079601      0.079601
6       0.0174448     0.0174448    0.00646042    0.00646042    0.00343877    0.00343877    0.00383338    0.00383338    0.00371219    0.00371219    0.00754557    0.00754557    0.00989919    0.00989919