Bin                 0                 1                 2                 3                 4
0        0.296514   0     0.0252632   0     0.0040492   0   0.000246602   0             0   0
1       0.0519916   0      0.254289   0     0.0607894   0     0.0112602   0    0.00333272   0
2       0.0108363   0     0.0605946   0      0.242318   0     0.0789054   0     0.0105327   0
3     0.000749051   0    0.00552703   0     0.0430213   0      0.227925   0     0.0713496   0
4     4.89771e-06   0   0.000335066   0    0.00506178   0     0.0443088   0      0.268805   0