Bin                        incl                         4mu                          4e                       2mu2e                       2e2mu                        2l2l                          4l
0               0             0             0             0             0             0             0             0             0             0             0             0             0             0
1               0             0             0             0             0             0             0             0             0             0             0             0             0             0
2               0            -0             0            -0             0            -0             0            -0             0            -0             0            -0             0            -0