Bin                 0                 1                 2
0        0.269574   0    0.00630203   0             0   0
1      0.00264625   0      0.365135   0     0.0223547   0
2               0   0   0.000570266   0      0.303374   0