Bin                 0                 1                 2
0        0.321975   0      0.010559   0             0   0
1      0.00254218   0      0.429508   0      0.031351   0
2               0   0   0.000687453   0       0.43984   0