Bin                 0                 1                 2
0        0.398565   0     0.0119755   0             0   0
1      0.00321194   0      0.484333   0     0.0363802   0
2               0   0   0.000657842   0      0.533224   0