Bin                 0                 1                 2
0        0.382664   0      0.011162   0             0   0
1      0.00304993   0      0.460846   0     0.0296514   0
2               0   0   0.000576335   0      0.443849   0