Bin                 0                 1                 2                 3                 4                 5                 6                 7
0        0.410827   0     0.0447019   0    0.00265529   0   0.000939731   0   0.000191473   0   0.000161214   0   8.51847e-05   0    5.8051e-05   0
1        0.043202   0      0.370592   0     0.0411382   0    0.00214076   0   0.000621066   0    0.00024331   0   9.73695e-05   0   6.24037e-05   0
2      0.00300313   0     0.0412134   0      0.375338   0     0.0383276   0    0.00211241   0   0.000412119   0   0.000233786   0   6.31459e-05   0
3     0.000572335   0    0.00200073   0     0.0398661   0      0.375238   0     0.0379776   0    0.00165521   0   0.000337191   0   0.000108503   0
4     0.000270581   0   0.000604993   0    0.00201711   0     0.0372682   0      0.376521   0      0.035816   0    0.00114647   0   0.000231946   0
5      6.6053e-05   0   0.000169066   0    0.00037169   0    0.00172508   0     0.0338642   0      0.378104   0     0.0308593   0    0.00101192   0
6     7.41271e-05   0   6.58753e-05   0   0.000158574   0   0.000298216   0     0.0013561   0     0.0301748   0      0.393161   0     0.0248294   0
7      8.9268e-05   0   2.92487e-05   0   3.53462e-05   0   0.000209992   0   0.000222741   0   0.000969512   0     0.0232961   0      0.415085   0