Bin                        incl                         4mu                          4e                       2mu2e                       2e2mu                        2l2l                          4l
0        0.410899   0.000405924      0.592052   0.000677616      0.263306    0.00089185      0.334295    0.00086222      0.449917   0.000786854      0.392052   0.000583898      0.427722   0.000563844
1        0.490685    0.00114633      0.709416    0.00174147      0.316735     0.0026045       0.41315    0.00245548      0.520142    0.00223243      0.466516    0.00166028      0.512305    0.00158168
2        0.437132     0.0023351      0.596963    0.00397457      0.304128     0.0051059      0.383758    0.00487826      0.461057    0.00456842      0.422469    0.00334237      0.450322    0.00325805
3        0.437165    0.00583661      0.572666     0.0102367      0.323351     0.0126345      0.386299     0.0121482      0.463423     0.0113554       0.42499    0.00831518      0.448223    0.00817804