Bin                 0                 1                 2                 3
0        0.388667   0     0.0918916   0     0.0111108   0     0.0179435   0
1       0.0195402   0      0.255764   0     0.0863935   0   -0.00244452   0
2     0.000165302   0     0.0130247   0      0.266539   0     0.0585846   0
3      2.4371e-05   0   0.000162576   0    0.00389356   0      0.253533   0