Bin                 0                 1                 2                 3
0        0.399694   0     0.0799977   0    0.00935352   0     0.0158444   0
1       0.0756843   0      0.336108   0     0.0302308   0   -0.00674803   0
2       0.0031376   0     0.0342276   0      0.342122   0     0.0968826   0
3     2.57337e-05   0   0.000258499   0      0.015447   0      0.251178   0