Bin                 0                 1                 2                 3
0        0.290753   0     0.0468093   0    0.00369779   0    0.00218065   0
1       0.0418331   0      0.256774   0     0.0366041   0    0.00255877   0
2      0.00112182   0     0.0301233   0       0.30746   0     0.0366222   0
3     0.000132651   0   0.000234727   0      0.016216   0      0.376622   0