Bin                        incl                         4mu                          4e                       2mu2e                       2e2mu                        2l2l                          4l
0      0.00478828    0.00478828    0.00172587    0.00172587   0.000895794   0.000895794   0.000966978   0.000966978    0.00119963    0.00119963    0.00216661    0.00216661    0.00262167    0.00262167
1      0.00431435    0.00431435    0.00157848    0.00157848   0.000795932   0.000795932   0.000855573   0.000855573    0.00108436    0.00108436    0.00193993    0.00193993    0.00237441    0.00237441
2      0.00406597    0.00406597    0.00145306    0.00145306   0.000766979   0.000766979   0.000810729   0.000810729    0.00103521    0.00103521    0.00184594    0.00184594    0.00222004    0.00222004
3      0.00465212    0.00465212    0.00165516    0.00165516   0.000825155   0.000825155   0.000949689   0.000949689    0.00122212    0.00122212     0.0021718     0.0021718    0.00248031    0.00248031
4       0.0046145     0.0046145    0.00167558    0.00167558    0.00082079    0.00082079    0.00094654    0.00094654    0.00117159    0.00117159    0.00211813    0.00211813    0.00249637    0.00249637
5      0.00412275    0.00412275     0.0015149     0.0015149   0.000754681   0.000754681   0.000816843   0.000816843    0.00103633    0.00103633    0.00185317    0.00185317    0.00226958    0.00226958
6      0.00423464    0.00423464     0.0015449     0.0015449   0.000776332   0.000776332   0.000850289   0.000850289    0.00106312    0.00106312    0.00191341    0.00191341    0.00232123    0.00232123
7      0.00487874    0.00487874    0.00180295    0.00180295   0.000875935   0.000875935   0.000975801   0.000975801    0.00122405    0.00122405    0.00219985    0.00219985    0.00267889    0.00267889