Bin                        incl                         4mu                          4e                       2mu2e                       2e2mu                        2l2l                          4l
0        0.463079    0.00080326       0.47335    0.00159953      0.463088    0.00160139      0.451693    0.00160901      0.463479    0.00161536      0.457496    0.00114005      0.468175    0.00113175
1        0.485407   0.000846738      0.506168    0.00168311      0.481824    0.00168775      0.477567    0.00170183      0.475204     0.0016994      0.476382    0.00120252      0.493735    0.00119212
2        0.496745    0.00106403      0.502413    0.00211595      0.499521    0.00212205      0.491082      0.002142       0.49311    0.00213205      0.492099     0.0015111      0.500967    0.00149836
3        0.942768     0.0355516      0.617573      0.164094      0.739144      0.135168       1.37114       1.37114       1.52677       1.52677       1.45351       1.45351      0.678525      0.106244