Bin                        incl                         4mu                          4e                       2mu2e                       2e2mu                        2l2l                          4l
0     0.000954521    0.00805938   0.000259279    0.00615204    0.00017051    0.00769984    0.00022408    0.00946177   0.000300653    0.00986922   0.000524733    0.00969101   0.000429788    0.00668518
1      0.00279927     0.0162677   0.000267898    0.00429892   0.000113329    0.00341877    0.00119643     0.0323447    0.00122161     0.0308344    0.00241804     0.0315637   0.000381227     0.0039933
2     0.000691907    0.00355712   0.000224108    0.00308267   0.000122956    0.00333477   0.000167497    0.00429661   0.000177346    0.00385874   0.000344843     0.0040597   0.000347065    0.00316751
3       0.0019266    0.00418682   0.000762334     0.0044522   0.000321555    0.00406024   0.000322457    0.00357227    0.00052025    0.00435469   0.000842707    0.00401795    0.00108389    0.00432824
4      0.00457822     0.0113867    0.00159045     0.0104089   0.000887446     0.0134439    0.00115229     0.0151641   0.000948026    0.00883759    0.00210032     0.0114608     0.0024779     0.0113245