Bin                 0                 1                 2                 3                 4
0        0.386238   0     0.0119175   0     0.0115023   0     0.0103631   0    0.00902628   0
1       0.0068959   0      0.442648   0     0.0185753   0   0.000134814   0   2.81889e-05   0
2       0.0060958   0     0.0112308   0      0.336496   0     0.0210053   0   0.000156813   0
3      0.00925039   0   0.000238609   0     0.0691662   0      0.315953   0     0.0147937   0
4       0.0081913   0   0.000161046   0    0.00162639   0     0.0324504   0      0.307538   0