Bin                 0                 1                 2                 3                 4                 5
0         0.15705   0    0.00368816   0   2.75487e-05   0    3.0861e-06   0             0   0             0   0
1       0.0103804   0      0.192222   0     0.0154257   0    3.2693e-05   0    1.7252e-05   0             0   0
2     6.15237e-05   0    0.00550092   0      0.211099   0     0.0116312   0   8.16295e-05   0             0   0
3     1.15594e-05   0   4.32698e-05   0     0.0066886   0       0.24145   0    0.00971905   0             0   0
4               0   0   1.76106e-05   0   9.80124e-06   0     0.0025955   0      0.290171   0    0.00889936   0
5               0   0             0   0             0   0             0   0   0.000183625   0      0.351123   0