Bin                 0                 1                 2                 3                 4                 5                 6                 7
0        0.562677   0     0.0102332   0    0.00105592   0   0.000514524   0   0.000458106   0   0.000427804   0   0.000447911   0    0.00849134   0
1       0.0110817   0      0.556962   0     0.0109634   0   0.000815567   0    0.00040966   0   0.000540348   0     0.0012619   0   0.000377845   0
2     0.000341917   0     0.0104642   0      0.562909   0    0.00915493   0    0.00032651   0   0.000921401   0   0.000567157   0    0.00078336   0
3      0.00101689   0    0.00057223   0    0.00814638   0      0.561953   0    0.00756062   0   0.000427815   0    0.00113182   0   0.000735327   0
4     0.000509654   0    0.00063514   0   0.000445179   0    0.00607448   0      0.568722   0    0.00646666   0   0.000752758   0   0.000545323   0
5     0.000609164   0   0.000853985   0   0.000691226   0   0.000442074   0     0.0104663   0      0.556845   0     0.0112942   0   0.000225189   0
6     0.000884972   0   0.000976564   0   0.000694066   0   0.000186977   0   0.000671172   0     0.0112733   0      0.565855   0    0.00889697   0
7      0.00705526   0   0.000959536   0   0.000572577   0   0.000295684   0   0.000809137   0    0.00013608   0    0.00893668   0      0.553873   0