Bin                 0                 1                 2                 3                 4                 5                 6                 7
0        0.379665   0    0.00779685   0   0.000135414   0   6.57371e-05   0    3.9501e-05   0   7.22768e-05   0   0.000125376   0    0.00625712   0
1      0.00985624   0       0.41169   0    0.00915173   0   0.000302241   0   7.99357e-05   0   3.44057e-05   0   5.68195e-05   0   0.000188465   0
2     0.000223562   0    0.00915945   0       0.41089   0     0.0093091   0     0.0002077   0   6.61344e-05   0   4.87937e-05   0   6.72468e-05   0
3     0.000106704   0   0.000204373   0    0.00753484   0      0.378998   0    0.00619373   0   0.000148285   0    3.0112e-05   0   4.53593e-05   0
4     8.64107e-05   0    0.00012163   0   0.000155307   0    0.00656595   0      0.381924   0    0.00699668   0   0.000235231   0   0.000133347   0
5     3.87039e-05   0   4.48954e-05   0   3.84496e-05   0   0.000172577   0    0.00886737   0      0.409833   0    0.00933936   0   0.000283345   0
6     0.000160486   0   5.21937e-05   0   3.32141e-05   0   6.20136e-05   0   0.000318926   0    0.00955713   0      0.412783   0    0.00935502   0
7      0.00623847   0   0.000177592   0   7.51676e-05   0   4.73031e-05   0   0.000142922   0   0.000184072   0    0.00748328   0      0.379693   0