Bin                 0                 1                 2                 3                 4                 5                 6                 7
0        0.498377   0    0.00857811   0   0.000280463   0   0.000112896   0    7.5091e-05   0   4.51236e-05   0   4.24264e-05   0    0.00532804   0
1      0.00901854   0      0.524977   0     0.0107425   0   0.000263372   0   3.46586e-05   0   6.41518e-05   0   9.95247e-05   0   0.000145531   0
2     0.000347771   0     0.0108409   0      0.529093   0    0.00973916   0    0.00012411   0   5.31405e-05   0   9.11254e-05   0   6.34875e-05   0
3      0.00010876   0   0.000286431   0    0.00840707   0      0.504018   0    0.00531162   0   0.000126669   0   2.62129e-05   0   0.000167821   0
4     5.77188e-05   0   0.000100701   0    9.5156e-05   0    0.00515986   0      0.498325   0    0.00817849   0   0.000216955   0   0.000161935   0
5     6.29531e-05   0   5.42308e-05   0   2.89363e-05   0   0.000113266   0    0.00935145   0      0.526352   0     0.0103004   0   0.000396639   0
6      8.2478e-05   0   3.47956e-05   0    5.5941e-05   0    9.7494e-05   0   0.000226961   0     0.0111133   0      0.526647   0    0.00950669   0
7      0.00554967   0   8.87231e-05   0    4.4105e-05   0    8.3238e-05   0   0.000185493   0   0.000377291   0    0.00834516   0      0.498945   0