Bin                        incl                         4mu                          4e                       2mu2e                       2e2mu                        2l2l                          4l
0         1.07839       1.07839      0.416307      0.416307      0.178912      0.178912       0.20404       0.20404       0.27913       0.27913       0.48317       0.48317      0.595219      0.595219
1       0.0726716     0.0726716     0.0278369     0.0278369     0.0122335     0.0122335      0.014478      0.014478     0.0181232     0.0181232     0.0326012     0.0326012     0.0400704     0.0400704
2       0.0850984     0.0850984     0.0323522     0.0323522     0.0146767     0.0146767     0.0166598     0.0166598     0.0214096     0.0214096     0.0380695     0.0380695     0.0470289     0.0470289
3       0.0267079     0.0267079     0.0100153     0.0100153    0.00473893    0.00473893    0.00526516    0.00526516     0.0066885     0.0066885     0.0119537     0.0119537     0.0147542     0.0147542