Bin                        incl                         4mu                          4e                       2mu2e                       2e2mu                        2l2l                          4l
0       0.0528504   0.000951048     0.0426414    0.00191078     0.0475456    0.00190649     0.0588947    0.00189358     0.0638168    0.00189399     0.0613652    0.00133911     0.0450764    0.00134963
1       0.0635533   0.000945659      0.069923    0.00188336     0.0669661    0.00188695     0.0562354    0.00189626     0.0601192    0.00189772     0.0581847    0.00134137     0.0684548      0.001333
2        0.125055   0.000914078      0.136521    0.00181468      0.132263    0.00181973      0.119202    0.00183191      0.110456    0.00184621      0.114812    0.00130042      0.134407    0.00128495
3        0.745956   0.000492547      0.749421   0.000977567      0.750929    0.00097493      0.740061   0.000995179      0.742612   0.000993095      0.741341    0.00070296       0.75017   0.000690321