Bin                        incl                         4mu                          4e                       2mu2e                       2e2mu                        2l2l                          4l
0       0.0211887    0.00130734     0.0203519    0.00261892     0.0211662    0.00261489     0.0222392    0.00260895     0.0210728    0.00261585     0.0216562    0.00184724     0.0207601    0.00185043
1        0.153701    0.00121562      0.154966    0.00243234       0.15028    0.00243633      0.155582    0.00242453      0.154186    0.00243151      0.154884    0.00171686      0.152617    0.00172134
2        0.334763    0.00107777      0.335176    0.00215745      0.339794    0.00214752      0.329028    0.00216123      0.334551    0.00215673      0.331788    0.00152663      0.337491    0.00152203
3        0.334558    0.00107794      0.331923    0.00216272      0.333752    0.00215733      0.337307    0.00214785      0.335555     0.0021551      0.336431    0.00152132       0.33284    0.00152736
4        0.155789    0.00121412      0.157583    0.00242857      0.155007    0.00242954      0.155844    0.00242415      0.154636    0.00243086       0.15524     0.0017165      0.156292    0.00171761