Bin                        incl                         4mu                          4e                       2mu2e                       2e2mu                        2l2l                          4l
0       0.0341588     0.0341588     0.0120658     0.0120658    0.00640855    0.00640855    0.00707768    0.00707768    0.00860669    0.00860669     0.0156844     0.0156844     0.0184744     0.0184744
1      0.00807558    0.00807558    0.00279472    0.00279472    0.00148458    0.00148458     0.0017591     0.0017591    0.00203718    0.00203718    0.00379628    0.00379628     0.0042793     0.0042793
2      0.00646897    0.00646897    0.00240787    0.00240787    0.00113344    0.00113344    0.00131283    0.00131283    0.00161483    0.00161483    0.00292766    0.00292766    0.00354131    0.00354131
3       0.0065074     0.0065074    0.00242374    0.00242374    0.00118282    0.00118282    0.00130271    0.00130271    0.00159814    0.00159814    0.00290085    0.00290085    0.00360656    0.00360656
4      0.00828074    0.00828074    0.00292785    0.00292785    0.00159925    0.00159925    0.00172737    0.00172737    0.00202627    0.00202627    0.00375364    0.00375364    0.00452711    0.00452711