Bin                        incl                         4mu                          4e                       2mu2e                       2e2mu                        2l2l                          4l
0        0.471718    0.00169607      0.477304    0.00337838      0.474639    0.00338845      0.465572     0.0034006      0.468556    0.00339891      0.467058      0.002404      0.475972    0.00239244
1        0.553454    0.00319336      0.560258    0.00629254      0.561189    0.00637908      0.543248    0.00645051      0.547674    0.00642802      0.545454    0.00455329      0.560716    0.00447978
2        0.502837    0.00327099      0.505407    0.00657764      0.515212    0.00646399      0.499176    0.00653252      0.490226      0.006589      0.494708    0.00463917      0.510345    0.00461063
3        0.500961    0.00327872      0.514317    0.00641514      0.497453    0.00657495      0.492226    0.00664367      0.498495     0.0066054      0.495353    0.00468431       0.50595    0.00459231
4        0.553808    0.00317682      0.566244    0.00629673      0.559145    0.00626521      0.552516    0.00642331      0.535734    0.00643469      0.544002    0.00454674      0.562649    0.00444142