Bin                 0                 1                 2                 3                 4
0        0.402933   0     0.0575005   0     0.0585241   0     0.0549627   0     0.0487505   0
1       0.0130751   0      0.365848   0     0.0153985   0     0.0119121   0     0.0171788   0
2       0.0156366   0     0.0137562   0      0.284172   0      0.019454   0     0.0131755   0
3       0.0131595   0     0.0112976   0     0.0192944   0       0.28906   0     0.0165767   0
4       0.0139326   0     0.0152304   0     0.0134221   0     0.0184773   0      0.376895   0