Bin                        incl                         4mu                          4e                       2mu2e                       2e2mu                        2l2l                          4l
0        0.396754    0.00388607      0.601514     0.0066904      0.254132    0.00851559      0.274224    0.00842754      0.461983    0.00696838      0.373032    0.00542888      0.420231    0.00553147
1        0.433666    0.00292661      0.670632    0.00443455      0.280906    0.00674994      0.294437    0.00636433      0.459403    0.00565763      0.376643    0.00426657      0.487092    0.00398994
2        0.430212    0.00268984      0.620276    0.00443927      0.298883    0.00574255      0.342999    0.00573374      0.458162    0.00534337      0.399789    0.00392889      0.456249    0.00368471
3        0.433614    0.00255439      0.622381    0.00413214      0.265783    0.00578388      0.366522    0.00539473      0.462598     0.0049679       0.41515    0.00366808      0.449839    0.00355194
4         0.45156    0.00246517      0.604113    0.00416787      0.323185    0.00548773      0.392128    0.00519556       0.47074    0.00476078      0.432622    0.00351959      0.468627      0.003444
5         0.42653    0.00262425      0.620358    0.00439109       0.28674    0.00566972      0.352306     0.0054838      0.452898    0.00513246      0.402296     0.0037623      0.448334    0.00365174
6        0.417022    0.00299928      0.644113    0.00457299      0.240193    0.00684104      0.329635    0.00635097      0.423515    0.00610256      0.375475    0.00441557      0.452649    0.00407711
7        0.378369    0.00376813      0.540238    0.00656161      0.214718    0.00871781      0.291763    0.00776909      0.451057    0.00688387      0.371862     0.0051948      0.384788    0.00543837