Bin                 0                 1                 2                 3                 4                 5                 6                 7
0        0.583482   0      0.015009   0    0.00061319   0   0.000164421   0   0.000116879   0   2.37664e-05   0   5.95994e-05   0   6.71091e-05   0
1        0.024461   0      0.571241   0     0.0260438   0   0.000638471   0   0.000201729   0   0.000100616   0   9.78085e-06   0   6.21883e-05   0
2      0.00103898   0     0.0303015   0      0.572227   0     0.0320734   0   0.000596439   0   0.000131321   0   1.44134e-05   0   2.07018e-05   0
3     0.000327081   0   0.000830785   0     0.0347805   0      0.568996   0     0.0333646   0   0.000747909   0   0.000123307   0   7.31215e-05   0
4     0.000178116   0   0.000204388   0   0.000567643   0     0.0339886   0      0.567812   0     0.0326915   0   0.000571399   0   0.000343263   0
5     7.02114e-05   0   4.10353e-05   0   0.000217407   0   0.000616055   0     0.0297548   0      0.568429   0      0.030768   0   0.000908304   0
6     2.36929e-05   0   6.50518e-05   0   8.89767e-05   0   0.000134052   0   0.000652481   0     0.0260628   0      0.571676   0     0.0232982   0
7     8.61239e-06   0   1.22565e-05   0   2.94377e-05   0   4.23912e-05   0   0.000192526   0   0.000421449   0     0.0164309   0      0.588737   0