Bin                 0                 1                 2                 3                 4                 5                 6
0        0.566797   0     0.0403676   0    0.00317282   0    0.00121889   0   0.000955428   0   0.000744906   0    0.00135488   0
1      0.00951606   0      0.522224   0     0.0494058   0     0.0050001   0    0.00250884   0    0.00117305   0   0.000584948   0
2     0.000251074   0     0.0208548   0      0.524331   0     0.0632112   0    0.00732236   0    0.00180965   0             0   0
3     0.000198445   0   0.000366999   0     0.0201908   0      0.528518   0      0.064435   0    0.00331326   0   0.000946329   0
4     0.000411703   0   0.000392685   0   0.000164319   0       0.02192   0      0.545082   0     0.0428342   0    0.00520485   0
5     0.000421682   0   0.000442208   0   0.000332815   0   0.000428588   0     0.0102974   0      0.605143   0      0.136207   0
6     3.85749e-06   0             0   0   2.37253e-05   0   9.77681e-05   0   0.000179747   0    0.00661432   0      0.547094   0