Bin                        incl                         4mu                          4e                       2mu2e                       2e2mu                        2l2l                          4l
0     9.15088e-05     0.0090407   2.52561e-05    0.00676648   1.41909e-05    0.00778003   2.54183e-05     0.0127066   2.66434e-05     0.0103876   5.20618e-05     0.0114037    3.9447e-05    0.00709919
1     0.000411758    0.00887891   0.000110722    0.00667796   7.27625e-05    0.00843139   0.000114481     0.0121924   0.000113792    0.00966377   0.000228274     0.0107856   0.000183484     0.0072782
2      0.00055764    0.00788818   0.000151453    0.00600022   9.17134e-05    0.00690545   0.000159608      0.011019   0.000154866    0.00875651   0.000314474    0.00977519   0.000243166    0.00631232