Bin                 0                 1                 2
0        0.260138   0     0.0715956   0    0.00907695   0
1       0.0210596   0      0.216366   0      0.065631   0
2    -1.03948e-05   0     0.0155249   0      0.205994   0