Bin                 0                 1                 2
0        0.382387   0     0.0506746   0    0.00431451   0
1        0.036689   0      0.330415   0     0.0617539   0
2      0.00293111   0     0.0406584   0      0.353329   0