Bin                        incl                         4mu                          4e                       2mu2e                       2e2mu                        2l2l                          4l
0     0.000711462     0.0674566   0.000248025     0.0640462   0.000131819     0.0706626    0.00014465      0.071108   0.000186967     0.0673842   0.000331618     0.0689594   0.000379844     0.0661972
1     0.000878553     0.0543151   0.000303421     0.0509406   0.000170957     0.0576687    0.00018385     0.0585191   0.000220326     0.0535735   0.000404175     0.0557154   0.000474378     0.0531764
2     0.000707871     0.0460332   0.000236288     0.0407068   0.000129878      0.047766    0.00015005     0.0492233   0.000191654     0.0503644   0.000341705     0.0498569   0.000366166     0.0429587
3     0.000413269     0.0409893    0.00013916     0.0366326   6.65265e-05     0.0376565   9.64567e-05      0.047161   0.000111126     0.0449606   0.000207582      0.045957   0.000205687     0.0369576