Bin                 0                 1                 2                 3
0        0.358313   0     0.0359164   0    0.00587914   0   0.000457917   0
1       0.0804161   0      0.300472   0     0.0698781   0    0.00919039   0
2      0.00962219   0     0.0729107   0      0.296217   0     0.0708771   0
3     0.000879822   0    0.00994318   0     0.0566135   0      0.333792   0