Bin                        incl                         4mu                          4e                       2mu2e                       2e2mu                        2l2l                          4l
0        0.541304   0.000700913      0.546034    0.00139657      0.545252    0.00139516      0.536592    0.00140789      0.536488     0.0014076       0.53654   0.000995426      0.545642   0.000987023
1         0.55425    0.00237257      0.562425     0.0047008      0.554981    0.00474631      0.553092    0.00474079      0.545599    0.00479265      0.549355    0.00337055      0.558707    0.00334006
2        0.526683    0.00116332       0.52941    0.00232366      0.534769    0.00230275      0.521492     0.0023382      0.519951    0.00234264      0.520721    0.00165493      0.532099    0.00163566
3        0.549578    0.00084481      0.554799     0.0016805      0.553957    0.00168038      0.544174    0.00169671      0.544417    0.00170122      0.544295    0.00120135      0.554378    0.00118825