Bin                        incl                         4mu                          4e                       2mu2e                       2e2mu                        2l2l                          4l
0         0.46095    0.00240967      0.618705     0.0040626      0.323842    0.00530329      0.402732    0.00507222      0.493449    0.00469105      0.448239    0.00345585      0.472268    0.00335997
1        0.419937    0.00306396       0.57914    0.00529954      0.282232    0.00667774      0.367414    0.00637227      0.451277    0.00594352      0.409599    0.00435778      0.429336    0.00430399
2        0.424402    0.00412996      0.568641    0.00715234      0.298842    0.00896241      0.376169    0.00859277      0.448712    0.00813521      0.412457    0.00591977      0.435005    0.00576198
3        0.480994    0.00894595      0.632509      0.015058      0.373476     0.0197651       0.41076       0.01851       0.49792     0.0178023      0.452879     0.0128748      0.507127     0.0124117