Bin                 0                 1                 2                 3
0        0.363356   0     0.0145401   0    0.00734384   0    0.00424348   0
1       0.0623664   0      0.258876   0     0.0349267   0    0.00771541   0
2       0.0676598   0     0.0849712   0      0.284446   0      0.047384   0
3       0.0152871   0    0.00763785   0     0.0107202   0      0.288046   0