Bin                 0                 1                 2                 3
0        0.422424   0     0.0866948   0     0.0490862   0     0.0413479   0
1       0.0085766   0      0.313782   0     0.0245442   0    0.00655425   0
2      0.00646118   0     0.0314363   0       0.33227   0     0.0233803   0
3        0.003313   0    0.00481847   0     0.0138884   0      0.407881   0