Bin                        incl                         4mu                          4e                       2mu2e                       2e2mu                        2l2l                          4l
0       0.0664879    0.00136595     0.0688639    0.00266182      0.068785    0.00266781     0.0639515    0.00280952     0.0646274    0.00280263     0.0642729    0.00198423     0.0688161    0.00188437
1        0.070897    0.00136272     0.0882151    0.00263402     0.0896543    0.00263775     0.0542724    0.00282401     0.0528423    0.00282023     0.0535923    0.00199553     0.0890865    0.00186374
2       0.0794816    0.00135641     0.0936175     0.0026262     0.0934249    0.00263228     0.0650034    0.00280794     0.0674021    0.00279847     0.0661441    0.00198225     0.0935009    0.00185922
3        0.125529    0.00132205      0.130567    0.00257212      0.133016    0.00257416      0.118989    0.00272568      0.119698    0.00271887      0.119326    0.00192498       0.13205    0.00181926
4        0.608043   0.000885102      0.583032    0.00178125      0.581265    0.00178895      0.634943    0.00175454      0.630553    0.00176137      0.632855     0.0012429      0.581962    0.00126257
5       0.0354751    0.00138845      0.032683    0.00271304     0.0313403    0.00272092     0.0383951    0.00284762     0.0394668    0.00284007     0.0389048    0.00201095       0.03187    0.00192138