Bin                        incl                         4mu                          4e                       2mu2e                       2e2mu                        2l2l                          4l
0        0.476044   0.000546448      0.482746    0.00109186      0.477805    0.00109459       0.46721    0.00109173      0.475822    0.00109219      0.471478   0.000772158      0.480268   0.000773033
1        0.535568    0.00060364      0.537133    0.00120578      0.535947    0.00120717      0.535944    0.00120762      0.533065    0.00120771      0.534501   0.000853952       0.53654   0.000853107
2        0.573971   0.000536204      0.571471    0.00107541      0.570927    0.00107254      0.579517    0.00106965      0.574603    0.00107072      0.577048   0.000756748      0.571198   0.000759413
3        0.607206   0.000523305      0.612701    0.00104279       0.60307    0.00105021      0.607457    0.00104384      0.605521    0.00104865      0.606491   0.000739801      0.607857   0.000740029
4        0.620248   0.000594533       0.63115    0.00116777      0.630714    0.00116892      0.609082    0.00121038      0.607557    0.00121273       0.60832   0.000856697      0.630932   0.000826142
5        0.638776   0.000741982      0.645952    0.00144888      0.649743    0.00144504       0.62828    0.00152612       0.62821    0.00152648      0.628245    0.00107926      0.647844    0.00102316
6        0.671333    0.00198466      0.666867    0.00388855      0.669347    0.00386503      0.678225    0.00406844      0.672497    0.00408551      0.675348    0.00288295      0.668111    0.00274128