Bin                        incl                         4mu                          4e                       2mu2e                       2e2mu                        2l2l                          4l
0        0.487102   0.000278488      0.499058   0.000553959      0.487376   0.000555186      0.478993   0.000559287      0.481986   0.000559253      0.480485   0.000395465      0.493159   0.000392167
1        0.535833    0.00104438      0.539038    0.00208414      0.541333     0.0020746      0.530814    0.00209405      0.531279    0.00210217      0.531046    0.00148358      0.540189    0.00147033
2        0.522674    0.00111079       0.52599    0.00221111      0.528473    0.00221174      0.518749    0.00223013      0.516587    0.00223313      0.517667      0.001578      0.527229    0.00156372
3        0.514287   0.000973955      0.520923    0.00193716      0.518013    0.00193716      0.507304    0.00196488      0.509865    0.00195272      0.508589    0.00138507      0.519463    0.00136979