Bin                 0                 1                 2                 3
0        0.382001   0     0.0706161   0     0.0649139   0     0.0685081   0
1      0.00633607   0      0.316999   0      0.016309   0     0.0119358   0
2      0.00554099   0     0.0164453   0      0.309265   0     0.0144686   0
3      0.00757608   0     0.0113385   0     0.0143656   0      0.307967   0