Bin                           0                           1                           2                           3                           4                           5                           6
0                      0.385989   0                  0.00578349   0                           0   0                           0   0                           0   0                           0   0                           0   0
1                    0.00443649   0                    0.382914   0                  0.00572502   0                           0   0                           0   0                           0   0                           0   0
2                             0   0                  0.00424141   0                     0.37943   0                  0.00522001   0                           0   0                           0   0                           0   0
3                             0   0                           0   0                  0.00399003   0                    0.367907   0                  0.00483168   0                           0   0                           0   0
4                             0   0                           0   0                           0   0                  0.00430085   0                    0.347445   0                  0.00310125   0                           0   0
5                             0   0                           0   0                           0   0                           0   0                  0.00175078   0                    0.303641   0                   0.0037516   0
6                             0   0                           0   0                           0   0                           0   0                           0   0                   0.0011146   0                    0.213024   0