Bin                        incl                         4mu                          4e                       2mu2e                       2e2mu                        2l2l                          4l
0        0.551657    0.00084157      0.547908    0.00168813      0.550921    0.00168091      0.554835    0.00167976      0.553449    0.00168194      0.554142    0.00118854      0.549416    0.00119113
1        0.541923   0.000739473      0.545067     0.0014753       0.54511    0.00147775       0.53808    0.00148228      0.538849    0.00147953      0.538465    0.00104716      0.545088    0.00104406
2        0.539154   0.000687063      0.544462    0.00136572      0.545283    0.00136422      0.533071    0.00138303      0.532622    0.00138411      0.532847   0.000978331      0.544873   0.000965181
3        0.537284   0.000665132       0.54438    0.00131935      0.545854    0.00131519      0.529456    0.00134233      0.527771    0.00134564      0.528614    0.00095034      0.545118   0.000931448
4        0.537395   0.000664884      0.545734    0.00131592      0.545236    0.00131579      0.527946    0.00134604      0.528905    0.00134302      0.528426   0.000950727      0.545485   0.000930449
5        0.538451   0.000687946       0.54522    0.00136579      0.545966    0.00136604      0.531826    0.00138242       0.52938    0.00138988      0.530606    0.00098015      0.545593   0.000965847
6        0.543356   0.000738953      0.546535    0.00147492      0.545089    0.00147743      0.540403    0.00148069      0.540933    0.00147757      0.540668     0.0010459      0.545812    0.00104381
7        0.551707   0.000840473      0.549878    0.00168436      0.549535    0.00168657      0.554935    0.00167556      0.552882    0.00167493      0.553906    0.00118458      0.549707     0.0011918