Bin                 0                 1                 2                 3                 4                 5                 6                 7
0        0.391162   0     0.0166973   0   0.000454022   0   0.000113596   0   4.84926e-05   0   2.86702e-05   0   1.13846e-05   0   1.26603e-05   0
1       0.0190315   0      0.370391   0     0.0251484   0   0.000581187   0   0.000189238   0   3.85873e-05   0   2.69281e-05   0   1.61001e-05   0
2     0.000722897   0     0.0265247   0      0.361397   0     0.0298608   0   0.000680968   0   0.000249124   0    5.7946e-05   0   2.19725e-05   0
3     0.000188857   0   0.000618166   0     0.0295831   0       0.35567   0      0.031441   0   0.000747369   0   0.000131259   0   7.29554e-05   0
4     0.000110959   0   0.000164226   0   0.000676048   0     0.0306265   0      0.354544   0     0.0301025   0   0.000758879   0    0.00021372   0
5     2.37506e-05   0   8.72584e-05   0   0.000143024   0   0.000699199   0      0.029369   0      0.361765   0     0.0261412   0   0.000711792   0
6     2.35331e-05   0     2.683e-05   0   5.48287e-05   0   0.000134484   0   0.000635657   0     0.0246158   0      0.371272   0     0.0192694   0
7     4.08605e-05   0   1.82692e-05   0   2.67163e-05   0   4.89647e-05   0   0.000195027   0   0.000554255   0     0.0164799   0      0.392538   0