Bin                 0                 1                 2                 3                 4                 5                 6                 7
0        0.290812   0     0.0145967   0    0.00161591   0     0.0011032   0   0.000602998   0   0.000464395   0   0.000406444   0   0.000372652   0
1       0.0181758   0       0.27603   0     0.0218007   0    0.00197473   0    0.00103804   0   0.000823757   0   0.000520764   0   0.000455952   0
2      0.00173868   0     0.0224732   0      0.266038   0     0.0259206   0    0.00201259   0    0.00133454   0    0.00105882   0   0.000470351   0
3      0.00113023   0    0.00198399   0     0.0264311   0      0.263089   0     0.0256517   0    0.00202659   0    0.00144871   0    0.00070225   0
4     0.000845337   0    0.00120845   0    0.00228013   0     0.0250638   0      0.264004   0     0.0251238   0     0.0019148   0   0.000900384   0
5     0.000577801   0   0.000957385   0    0.00117845   0     0.0022268   0     0.0239208   0      0.267963   0     0.0215651   0    0.00140452   0
6     0.000512556   0   0.000789312   0   0.000638358   0    0.00100781   0    0.00177324   0     0.0219555   0       0.28053   0     0.0167724   0
7     0.000386251   0   0.000469421   0   0.000490285   0   0.000806576   0   0.000858671   0    0.00176025   0        0.0148   0      0.295228   0