Bin                 0                 1                 2                 3                 4                 5                 6                 7
0         0.26294   0     0.0172994   0    0.00136979   0    0.00101628   0    0.00059139   0   0.000568906   0   0.000459387   0   0.000417581   0
1       0.0174225   0      0.247988   0     0.0219505   0    0.00177876   0    0.00059509   0   0.000497576   0   0.000717776   0   0.000140906   0
2      0.00204396   0     0.0263613   0      0.247102   0     0.0265045   0    0.00144714   0   0.000484696   0   0.000779158   0    0.00051076   0
3     0.000567111   0    0.00192936   0     0.0272364   0      0.231477   0     0.0277018   0    0.00144609   0   0.000889498   0   0.000231293   0
4     0.000621279   0    0.00115169   0    0.00214081   0     0.0287556   0      0.236816   0     0.0260279   0    0.00256699   0    0.00178345   0
5     0.000704483   0   0.000698196   0   0.000625605   0    0.00211361   0     0.0268346   0      0.237856   0     0.0230749   0    0.00231683   0
6     0.000300353   0   0.000559237   0    0.00052776   0   0.000784065   0    0.00195061   0     0.0233602   0      0.241822   0     0.0193476   0
7     0.000284083   0   0.000277633   0   0.000459509   0   0.000366661   0   0.000804503   0   0.000844683   0     0.0174287   0       0.25937   0