Bin                        incl                         4mu                          4e                       2mu2e                       2e2mu                        2l2l                          4l
0     0.000973859    0.00817297    0.00030459     0.0067908   0.000128669    0.00639568   0.000275836     0.0119581   0.000264765    0.00850844     0.0005406    0.00997699   0.000433259    0.00666845
1      0.00127536    0.00825848   0.000373183    0.00635091   0.000187694    0.00719255   0.000315369     0.0106035   0.000399116     0.0100199   0.000714485     0.0102694   0.000560877    0.00660974
2       0.0014373    0.00802685   0.000398551    0.00583006   0.000242562    0.00786432   0.000393301     0.0115376   0.000402885    0.00880273   0.000796186    0.00997017   0.000641113    0.00646253
3      0.00162391    0.00853217   0.000433567    0.00595121   0.000262016    0.00803316   0.000488272     0.0133739   0.000440059    0.00910178   0.000928331     0.0109398   0.000695583    0.00659506
4      0.00156137    0.00821959   0.000392216    0.00535733   0.000219984    0.00677939   0.000478333     0.0130717    0.00047084    0.00986992   0.000949173     0.0112598     0.0006122    0.00579405
5      0.00142376    0.00796628    0.00043013    0.00631717    0.00022213    0.00729226   0.000383466     0.0111116   0.000388032    0.00849785   0.000771498    0.00962292   0.000652261    0.00661857
6      0.00111573    0.00722499   0.000317049    0.00541904   0.000146819    0.00561235   0.000304754     0.0102847   0.000347104    0.00864995   0.000651859    0.00934436   0.000463868    0.00547877
7        0.001021    0.00854857   0.000305361    0.00679862   0.000154135    0.00775221   0.000288264     0.0123253   0.000273237    0.00874387   0.000561501     0.0102769   0.000459497    0.00709122