Bin                 0                 1                 2                 3                 4                 5                 6                 7
0        0.570716   0     0.0199925   0   0.000916813   0   0.000244208   0   0.000107844   0   7.56463e-05   0   2.05357e-05   0   7.85821e-06   0
1       0.0237526   0      0.544801   0     0.0296681   0   0.000763853   0   0.000286257   0   8.93946e-05   0   1.44436e-05   0   6.89252e-05   0
2      0.00108114   0      0.033227   0      0.531967   0     0.0367845   0   0.000765575   0   0.000368564   0   9.02091e-05   0   5.19342e-05   0
3     0.000256925   0   0.000871888   0     0.0362513   0      0.526083   0     0.0376923   0   0.000982976   0   0.000201673   0   0.000127913   0
4      0.00022962   0   0.000197118   0   0.000599909   0     0.0372829   0      0.526263   0     0.0370252   0   0.000904768   0   0.000361102   0
5     4.12379e-05   0   0.000199104   0    0.00017023   0   0.000721559   0     0.0348631   0      0.531573   0     0.0325332   0    0.00101202   0
6     3.57649e-05   0   3.10137e-05   0   7.16805e-05   0   0.000205272   0   0.000931209   0     0.0289939   0        0.5437   0     0.0232132   0
7     6.41998e-05   0   6.53133e-05   0   2.53664e-05   0   0.000103414   0   0.000416211   0   0.000991046   0     0.0198505   0      0.571436   0