Bin                 0                 1                 2                 3
0        0.336993   0     0.0137707   0    0.00642376   0     0.0039309   0
1        0.107214   0      0.322186   0     0.0402731   0    0.00958416   0
2       0.0723658   0      0.102469   0      0.353046   0      0.052451   0
3       0.0508709   0    0.00930758   0     0.0145631   0      0.349498   0