Bin                 0                 1                 2                 3                 4
0        0.405379   0     0.0643973   0     0.0494362   0     0.0492359   0     0.0654691   0
1      0.00467106   0       0.35863   0      0.010185   0     0.0077011   0     0.0149669   0
2      0.00420239   0     0.0125452   0      0.309453   0     0.0125841   0    0.00798808   0
3      0.00413339   0    0.00760615   0      0.013335   0      0.307436   0     0.0114581   0
4      0.00455133   0     0.0153284   0    0.00867415   0     0.0111155   0      0.357586   0