Bin                        incl                         4mu                          4e                       2mu2e                       2e2mu                        2l2l                          4l
0      0.00322638    0.00322638      0.001171      0.001171   0.000572374   0.000572374    0.00067466    0.00067466   0.000808338   0.000808338      0.001483      0.001483    0.00174338    0.00174338
1      0.00318886    0.00318886    0.00117656    0.00117656   0.000571955   0.000571955   0.000631127   0.000631127   0.000809214   0.000809214    0.00144034    0.00144034    0.00174852    0.00174852
2      0.00322786    0.00322786    0.00120768    0.00120768   0.000583139   0.000583139   0.000641529   0.000641529   0.000795509   0.000795509    0.00143704    0.00143704    0.00179082    0.00179082
3      0.00313903    0.00313903    0.00114024    0.00114024   0.000544344   0.000544344   0.000651572   0.000651572   0.000802879   0.000802879    0.00145445    0.00145445    0.00168458    0.00168458
4      0.00310167    0.00310167    0.00109897    0.00109897   0.000562556   0.000562556   0.000645442   0.000645442   0.000794696   0.000794696    0.00144014    0.00144014    0.00166153    0.00166153
5      0.00301141    0.00301141    0.00112786    0.00112786   0.000539918   0.000539918   0.000606818   0.000606818   0.000736815   0.000736815    0.00134363    0.00134363    0.00166778    0.00166778
6      0.00293248    0.00293248    0.00105746    0.00105746   0.000525339   0.000525339   0.000596007   0.000596007   0.000753671   0.000753671    0.00134968    0.00134968     0.0015828     0.0015828
7      0.00289618    0.00289618    0.00104401    0.00104401   0.000497767   0.000497767   0.000580987   0.000580987   0.000773415   0.000773415     0.0013544     0.0013544    0.00154178    0.00154178