Bin                        incl                         4mu                          4e                       2mu2e                       2e2mu                        2l2l                          4l
0        0.425181   0.000490796      0.604938    0.00081619      0.278188    0.00108171      0.343017    0.00104902      0.470515   0.000944282      0.406786   0.000705951      0.441613   0.000681836
1        0.481826   0.000693457      0.678746    0.00109327      0.320056     0.0015619      0.399832    0.00149143      0.523913    0.00133627      0.461689    0.00100196      0.499734   0.000959391
2        0.510856    0.00115888      0.718711    0.00176643      0.342754    0.00264195      0.432568     0.0024869      0.546062    0.00224077      0.489068    0.00167516      0.530401    0.00160209
3        0.570532    0.00189886      0.802901    0.00257751      0.382814    0.00447251      0.494701    0.00413836      0.595172     0.0036865      0.545328    0.00276972      0.592944    0.00260293