Bin                        incl                         4mu                          4e                       2mu2e                       2e2mu                        2l2l                          4l
0      0.00011611     0.0121272    3.1696e-05    0.00883587   2.02761e-05     0.0121255   3.20334e-05     0.0174104   3.21045e-05     0.0129712   6.41379e-05     0.0148641   5.19721e-05     0.0098818
1     0.000502392     0.0114955   0.000144701    0.00906871   8.70876e-05     0.0110621   0.000126562     0.0145734   0.000144042     0.0128719   0.000270604     0.0136154   0.000231788    0.00972729
2     0.000587472     0.0107853   0.000173362     0.0088143   0.000104557     0.0104492   0.000148298     0.0135458   0.000161255     0.0116452   0.000309553     0.0124843   0.000277919    0.00936559
3     0.000164257     0.0123322   5.01231e-05     0.0102194   2.86504e-05     0.0118864   4.27818e-05     0.0157484   4.27013e-05     0.0129885   8.54832e-05     0.0142372   7.87736e-05     0.0107687