Bin                           0                           1                           2                           3                           4                           5                           6
0                        0.3938   0                   0.0145528   0                 4.44616e-05   0                 0.000184162   0                           0   0                           0   0                           0   0
1                    0.00812706   0                    0.382824   0                   0.0254881   0                 0.000865352   0                 0.000164561   0                           0   0                           0   0
2                             0   0                   0.0144601   0                    0.375433   0                   0.0342489   0                 0.000670903   0                           0   0                           0   0
3                             0   0                           0   0                   0.0174684   0                    0.380763   0                   0.0380652   0                           0   0                           0   0
4                             0   0                           0   0                           0   0                   0.0192938   0                     0.40469   0                    0.023208   0                           0   0
5                             0   0                           0   0                           0   0                           0   0                  0.00547491   0                    0.423107   0                   0.0515354   0
6                             0   0                           0   0                           0   0                           0   0                           0   0                    0.005061   0                    0.351645   0