Bin                        incl                         4mu                          4e                       2mu2e                       2e2mu                        2l2l                          4l
0        0.397043    0.00129345      0.596673     0.0021243      0.237536    0.00287633      0.301778    0.00276822      0.447363    0.00247621       0.37439    0.00185831      0.417536    0.00179752
1        0.396229    0.00143403      0.589742     0.0023759      0.237758    0.00318709      0.301246    0.00307246      0.451662    0.00272549      0.376574    0.00205398      0.414055    0.00199864
2         0.40467    0.00127239      0.600326    0.00210187       0.24718    0.00282785      0.318603    0.00270718      0.449538    0.00243757      0.384148     0.0018219      0.423371    0.00177363
3         0.40063     0.0012643       0.58388    0.00211608      0.253926    0.00279081      0.316078    0.00268563      0.444156    0.00243285      0.379998    0.00181287      0.419328    0.00176027
4        0.423674    0.00141859      0.593906    0.00236882       0.28632    0.00307839      0.369792    0.00299034      0.440274    0.00283219      0.404962     0.0020602      0.439779    0.00195459
5        0.453924    0.00174145      0.622873    0.00285333      0.311837    0.00379677      0.419614    0.00365488       0.45505    0.00354362      0.437374    0.00254584      0.467771    0.00238709
6        0.423552    0.00489668      0.589189    0.00808274      0.284804     0.0106051       0.40968     0.0101151      0.400278      0.010235      0.404983    0.00719639      0.438843    0.00668389