Bin                 0                 1                 2                 3                 4                 5                 6
0        0.272487   0     0.0395212   0    0.00264518   0   0.000672346   0   0.000209537   0   2.00362e-05   0             0   0
1       0.0160349   0      0.221968   0     0.0517913   0    0.00472429   0    0.00102331   0   0.000156587   0             0   0
2     0.000180248   0     0.0336629   0      0.224552   0     0.0715466   0    0.00641453   0    0.00043364   0             0   0
3     7.95654e-06   0   0.000576135   0     0.0396125   0      0.235233   0     0.0710762   0    0.00149683   0             0   0
4     4.13535e-05   0   4.61882e-05   0   0.000766516   0     0.0421384   0      0.303464   0     0.0447502   0   0.000894754   0
5     1.94168e-05   0   7.94613e-06   0             0   0   0.000121909   0     0.0158929   0      0.388082   0      0.113981   0
6               0   0             0   0             0   0             0   0             0   0    0.00984783   0      0.294642   0