Bin                 0                 1                 2                 3                 4
0        0.302368   0    0.00976689   0    0.00542186   0    0.00592974   0    0.00854402   0
1       0.0238701   0      0.261833   0     0.0196822   0      0.019965   0     0.0216837   0
2       0.0380018   0      0.031311   0      0.235176   0     0.0257165   0     0.0297191   0
3       0.0350302   0     0.0290528   0     0.0270234   0       0.23221   0     0.0303383   0
4       0.0444597   0     0.0215801   0      0.019546   0     0.0185399   0      0.259698   0