Bin                        incl                         4mu                          4e                       2mu2e                       2e2mu                        2l2l                          4l
0         1.16069       1.16069       0.43542       0.43542      0.201528      0.201528      0.222998      0.222998      0.300742      0.300742       0.52374       0.52374      0.636948      0.636948
1       0.0759075     0.0759075     0.0282893     0.0282893     0.0133216     0.0133216      0.015295      0.015295     0.0190017     0.0190017     0.0342967     0.0342967     0.0416109     0.0416109
2       0.0891028     0.0891028     0.0330498     0.0330498     0.0158178     0.0158178     0.0179218     0.0179218     0.0223134     0.0223134     0.0402353     0.0402353     0.0488676     0.0488676
3       0.0274744     0.0274744      0.010071      0.010071     0.0049775     0.0049775    0.00555278    0.00555278    0.00687316    0.00687316     0.0124259     0.0124259     0.0150485     0.0150485