Bin                        incl                         4mu                          4e                       2mu2e                       2e2mu                        2l2l                          4l
0        0.425918    0.00325875      0.427281    0.00650873      0.433315    0.00646456      0.423361    0.00657237      0.418863    0.00652442      0.421088    0.00463036      0.430296    0.00458676
1        0.444871    0.00272658      0.448731    0.00543829      0.446257    0.00542799      0.440055    0.00549137      0.443884    0.00545401      0.441975    0.00386974      0.447491    0.00384182
2        0.483942    0.00234134      0.488236    0.00465833      0.485804    0.00466653      0.480898    0.00469288      0.480174    0.00471282      0.480537    0.00332539      0.487022    0.00329683