Bin                 0                 1                 2
0        0.295241   0     0.0252313   0    0.00207571   0
1        0.107498   0      0.337096   0     0.0476368   0
2       0.0169609   0     0.0845939   0      0.411512   0