Bin                 0                 1                 2
0         0.41349   0     0.0589926   0     0.0049291   0
1       0.0478579   0      0.356467   0     0.0727415   0
2      0.00590774   0      0.055043   0      0.382626   0