Bin                 0                 1                 2                 3                 4                 5                 6                 7
0        0.397482   0     0.0172723   0    0.00107015   0   0.000810326   0   0.000321585   0   0.000257768   0   0.000159821   0    4.5294e-05   0
1       0.0230489   0      0.387765   0     0.0304625   0    0.00174472   0   0.000893955   0   0.000608726   0   0.000439349   0   7.21343e-06   0
2      0.00173645   0     0.0318158   0      0.397578   0     0.0337502   0    0.00231717   0    0.00101089   0   0.000564662   0   0.000562862   0
3     0.000968197   0    0.00153664   0     0.0361468   0      0.395884   0     0.0347585   0    0.00228017   0   0.000710178   0   0.000590332   0
4     0.000587025   0   0.000787789   0    0.00170059   0     0.0379702   0      0.396497   0     0.0349758   0    0.00182013   0    0.00120974   0
5     0.000398078   0   0.000543233   0   0.000733474   0    0.00197961   0     0.0337123   0      0.394063   0     0.0341865   0    0.00118482   0
6      9.9512e-05   0   0.000172432   0   0.000551943   0   0.000712247   0    0.00167396   0     0.0281838   0      0.392218   0      0.023692   0
7      4.9962e-05   0   8.68301e-05   0    0.00022226   0    0.00032333   0   0.000466007   0   0.000921667   0     0.0180372   0      0.399801   0