Bin                 0                 1                 2                 3
0        0.415048   0     0.0657322   0    0.00416077   0    0.00148938   0
1       0.0546333   0      0.347483   0     0.0496771   0    0.00151555   0
2       0.0015714   0     0.0391814   0      0.395702   0     0.0427216   0
3     0.000164248   0   0.000235156   0     0.0200126   0      0.450289   0