Bin                 0                 1                 2                 3
0        0.345057   0     0.0339803   0    0.00510114   0    0.00198169   0
1       0.0687831   0      0.274484   0     0.0367868   0    0.00294257   0
2      0.00547807   0     0.0492924   0      0.330367   0     0.0397917   0
3      0.00113739   0   0.000242961   0     0.0209516   0      0.395046   0