Bin                        incl                         4mu                          4e                       2mu2e                       2e2mu                        2l2l                          4l
0     7.74247e-05    0.00853575   1.82872e-05    0.00530486    1.2334e-05     0.0079396   2.30698e-05      0.013289   2.37337e-05     0.0101691   4.68036e-05     0.0114999   3.06211e-05    0.00612334
1     0.000241633    0.00842297   7.12283e-05    0.00647251    3.6083e-05    0.00746589   6.50588e-05     0.0117253   6.92633e-05    0.00948676   0.000134322     0.0104534   0.000107311    0.00677565
2     0.000367398    0.00753012   0.000101011    0.00556754   5.77631e-05    0.00675516   0.000100432     0.0104453   0.000108191    0.00866814   0.000208623    0.00944145   0.000158774    0.00594797
3     0.000249842    0.00920355   7.47823e-05    0.00780767   4.31142e-05    0.00834174   6.79062e-05     0.0120308   6.40397e-05    0.00947978   0.000131946      0.010641   0.000117897    0.00799485