Bin                 0                 1                 2                 3                 4                 5
0        0.175005   0    0.00334449   0             0   0   0.000301765   0             0   0             0   0
1      0.00645934   0      0.209154   0     0.0131634   0             0   0             0   0             0   0
2               0   0    0.00430595   0      0.218343   0     0.0103208   0             0   0             0   0
3               0   0    0.00041848   0    0.00931174   0      0.251519   0    0.00791688   0             0   0
4     0.000278157   0   0.000174298   0   8.77696e-05   0     0.0038634   0      0.281753   0    0.00690605   0
5               0   0             0   0             0   0             0   0    0.00030084   0      0.253358   0