Bin                 0                 1                 2                 3                 4                 5
0        0.200709   0    0.00587047   0             0   0             0   0             0   0             0   0
1      0.00906613   0      0.252062   0     0.0170106   0    0.00049612   0             0   0             0   0
2               0   0    0.00607996   0      0.282026   0     0.0241977   0             0   0             0   0
3               0   0             0   0   -0.00765348   0      0.264053   0     0.0264062   0             0   0
4               0   0             0   0             0   0   0.000809695   0      0.362628   0             0   0
5               0   0             0   0             0   0             0   0             0   0      0.363809   0