Bin                        incl                         4mu                          4e                       2mu2e                       2e2mu                        2l2l                          4l
0        0.410422    0.00538073      0.400504     0.0108164      0.415203     0.0108032      0.407909     0.0108076      0.418633     0.0106001      0.413324    0.00756803      0.407756    0.00764425
1        0.450132    0.00453785      0.457141    0.00903895      0.445124    0.00903747       0.45255    0.00908599      0.445607    0.00913883      0.449078    0.00644349      0.451078    0.00639135
2        0.474694    0.00409728       0.47987    0.00820061      0.479029    0.00812296      0.471502     0.0082351      0.467485    0.00821792      0.469482    0.00581705      0.479446    0.00577111
3        0.479596     0.0039534      0.489398    0.00782974      0.483407    0.00786248      0.472104    0.00800883      0.472052    0.00793107      0.472078    0.00563541      0.486404    0.00554806
4        0.475964     0.0039482      0.479171     0.0079167      0.479463    0.00777616      0.471853    0.00794753        0.4726    0.00795083      0.472226    0.00562092      0.479319    0.00554769
5        0.470776    0.00414155      0.476996    0.00820738      0.477119    0.00821776      0.465633    0.00833527      0.461954    0.00837959      0.463797    0.00590956      0.477057    0.00580714
6         0.44771    0.00454783       0.45039    0.00898475       0.45668    0.00911954      0.434237     0.0092114      0.448517    0.00906788      0.441396    0.00646264      0.453463     0.0064003
7        0.405191    0.00544781       0.40292     0.0108973      0.398409     0.0109401      0.417709     0.0107439      0.402533     0.0109876      0.410196    0.00768239       0.40067    0.00772065