Bin                        incl                         4mu                          4e                       2mu2e                       2e2mu                        2l2l                          4l
0        0.373571    0.00361981       0.50923    0.00617629      0.289675    0.00773802      0.321215    0.00812511      0.421089    0.00736505      0.369385    0.00546757      0.377663    0.00483084
1        0.374599    0.00363966       0.54404    0.00611374      0.291794    0.00781905      0.318909      0.008103      0.400805    0.00744842      0.358472    0.00548627      0.391108    0.00486394
2        0.368021    0.00363435      0.522006    0.00627742      0.287556    0.00777462      0.315524    0.00803833      0.403316    0.00737609       0.35781    0.00543923      0.378579    0.00489321
3        0.361637    0.00369314      0.544776    0.00612964      0.254994      0.007964      0.312472    0.00812035      0.404528    0.00762844      0.355585    0.00556219      0.367657    0.00494234
4        0.358209    0.00371818      0.515047    0.00629008      0.264251    0.00797135      0.304941    0.00824879      0.406693    0.00762527      0.353043    0.00560717      0.363306     0.0049697
5        0.359412    0.00378239      0.528616    0.00635871      0.264427    0.00814583      0.307752    0.00838809      0.397096    0.00773863      0.350525    0.00569184      0.368359    0.00506542
6        0.353572     0.0038617      0.527322    0.00638866      0.252651    0.00841795        0.2917    0.00857818      0.401483    0.00788034      0.343664    0.00581477       0.36355    0.00516829
7        0.355726    0.00395775      0.521871     0.0067258      0.254106    0.00846945      0.310931    0.00884256      0.399552    0.00801306      0.354163    0.00594474      0.357277    0.00531087