Bin                        incl                         4mu                          4e                       2mu2e                       2e2mu                        2l2l                          4l
0        0.553534   0.000714509      0.558062    0.00142225       0.55874    0.00142072      0.548162    0.00143671      0.548198    0.00143655       0.54818    0.00101585      0.558401    0.00100514
1        0.553055   0.000715322       0.55565     0.0014281      0.558408     0.0014208      0.548866    0.00143693      0.548491    0.00143668      0.548678    0.00101598      0.557032    0.00100723
2        0.550129   0.000717926      0.553335    0.00143187      0.554658    0.00142798      0.546689    0.00144034      0.545058    0.00144309      0.545873    0.00101945      0.553997    0.00101111
3        0.546783   0.000719981      0.550235    0.00143208      0.552232    0.00143387      0.541341    0.00144922      0.542436    0.00144475      0.541889    0.00102317       0.55123    0.00101327
4        0.542886   0.000723663      0.547706     0.0014393      0.547138    0.00144094      0.538796    0.00145251      0.536987    0.00145666      0.537892    0.00102855      0.547422    0.00101832
5         0.53658   0.000729298      0.542308    0.00144868      0.539371    0.00145259      0.530469    0.00146795      0.533284     0.0014655      0.531875    0.00103713      0.540839    0.00102576
6        0.529147   0.000734082      0.533736    0.00146007      0.535313    0.00145791      0.524639    0.00147512      0.521791    0.00148007      0.523215    0.00104482      0.534524    0.00103167
7        0.520809   0.000741126      0.525954    0.00147387      0.524616    0.00147572      0.517119    0.00148933      0.514636    0.00149024      0.515875    0.00105344      0.525285    0.00104284