Bin                 0                 1                 2                 3                 4                 5                 6                 7
0        0.367505   0      0.044933   0    0.00292791   0   0.000825357   0   0.000226547   0   0.000152392   0    0.00011964   0   2.93977e-05   0
1          0.0433   0      0.324518   0     0.0412159   0    0.00257434   0   0.000556382   0   0.000197799   0   9.48823e-05   0   6.97906e-05   0
2      0.00321133   0     0.0410187   0      0.326625   0     0.0400996   0    0.00203621   0   0.000413635   0   0.000177147   0   8.07913e-05   0
3     0.000752214   0    0.00238625   0      0.039658   0      0.328104   0     0.0376151   0    0.00172687   0   0.000378847   0   0.000128916   0
4      0.00030085   0    0.00058639   0    0.00233704   0     0.0373165   0      0.328535   0     0.0339126   0    0.00143039   0   0.000269993   0
5     0.000121882   0   0.000237728   0   0.000384027   0    0.00175401   0     0.0337748   0      0.330589   0     0.0312829   0    0.00118159   0
6     9.56291e-05   0   8.48452e-05   0   0.000160147   0    0.00037659   0     0.0015869   0     0.0292906   0      0.337777   0     0.0242951   0
7     5.96286e-05   0   4.03167e-05   0   6.29753e-05   0   0.000108822   0   0.000257847   0    0.00109651   0     0.0242812   0      0.361493   0