Bin                 0                 1                 2                 3                 4                 5                 6                 7
0         0.37616   0      0.037241   0    0.00203601   0   0.000571083   0  -4.80605e-05   0   0.000824338   0   5.43956e-05   0   0.000570685   0
1       0.0329859   0      0.349752   0     0.0329225   0   0.000263842   0   0.000492936   0  -0.000140334   0  -0.000435903   0   6.84256e-05   0
2    -0.000203506   0     0.0394496   0      0.323664   0     0.0277542   0    0.00203351   0   0.000137861   0  -0.000164154   0    0.00162667   0
3     0.000876459   0    0.00130658   0     0.0312339   0      0.325692   0     0.0319711   0    0.00035688   0   0.000235934   0  -0.000163621   0
4    -0.000231474   0   0.000708335   0    0.00236299   0     0.0262443   0      0.327918   0     0.0236648   0    0.00100381   0    0.00142897   0
5      0.00128433   0   1.68961e-05   0  -3.61387e-05   0   0.000795539   0     0.0238949   0      0.347944   0      0.024136   0   0.000496614   0
6     0.000115969   0   0.000251243   0   0.000862978   0   0.000899622   0    0.00147825   0     0.0264461   0      0.347873   0     0.0240661   0
7     0.000748385   0      0.000147   0     7.746e-05   0  -3.87072e-05   0   0.000666592   0   0.000831572   0     0.0173434   0      0.376506   0