Bin                 0                 1                 2                 3                 4                 5                 6                 7
0        0.240961   0     0.0310109   0    0.00220384   0   0.000791877   0   0.000407764   0   0.000432353   0   0.000408132   0   0.000477478   0
1       0.0303259   0      0.209775   0     0.0289354   0    0.00167588   0   0.000777587   0   0.000300139   0   0.000152938   0     0.0002868   0
2      0.00227208   0      0.027302   0      0.211984   0     0.0281364   0    0.00138875   0   0.000697499   0   0.000360683   0   0.000384563   0
3     0.000612281   0    0.00173376   0     0.0271746   0        0.2112   0     0.0270708   0    0.00165506   0      0.000567   0   0.000322276   0
4     0.000425086   0   0.000642493   0    0.00146858   0     0.0254242   0      0.211148   0     0.0252878   0    0.00122141   0   0.000433455   0
5      0.00042639   0   0.000358951   0   0.000318363   0    0.00129021   0     0.0238153   0       0.21288   0      0.022672   0   0.000784512   0
6     0.000218108   0   0.000342268   0   0.000302659   0   0.000423834   0    0.00122202   0     0.0204904   0      0.217298   0     0.0180898   0
7      0.00026305   0   0.000214398   0   0.000297626   0   0.000289865   0   0.000447578   0   0.000867521   0     0.0166875   0      0.241952   0