Bin                 0                 1                 2                 3                 4                 5                 6                 7
0        0.512431   0     0.0489902   0    0.00319633   0    0.00161856   0    0.00185136   0    0.00151696   0     0.0014482   0    0.00124379   0
1       0.0498271   0      0.482035   0     0.0465195   0    0.00390079   0    0.00250932   0   0.000821975   0    0.00172469   0    0.00117623   0
2      0.00377525   0     0.0458539   0       0.49328   0     0.0420777   0     0.0030893   0    0.00127383   0     0.0015952   0   0.000650215   0
3       0.0024037   0    0.00327845   0     0.0382356   0       0.48632   0     0.0414073   0     0.0030443   0    0.00237249   0    0.00130472   0
4      0.00213328   0    0.00138543   0    0.00354851   0     0.0433608   0      0.499048   0      0.037894   0    0.00230476   0    0.00190879   0
5      0.00116301   0    0.00165717   0    0.00131916   0    0.00361926   0     0.0354606   0      0.499392   0     0.0352997   0      0.002138   0
6     0.000438862   0    0.00109434   0    0.00147529   0    0.00123852   0    0.00268636   0       0.03113   0      0.509472   0     0.0246887   0
7      0.00152238   0    0.00073193   0   0.000872359   0    0.00122019   0   0.000722912   0    0.00183891   0     0.0275645   0      0.535396   0