Bin                        incl                         4mu                          4e                       2mu2e                       2e2mu                        2l2l                          4l
0       0.0115463     0.0115463    0.00420136    0.00420136    0.00207861    0.00207861     0.0022636     0.0022636     0.0030027     0.0030027     0.0052663     0.0052663    0.00627997    0.00627997
1       0.0157699     0.0157699    0.00605867    0.00605867    0.00268328    0.00268328    0.00306435    0.00306435    0.00396364    0.00396364    0.00702799    0.00702799    0.00874196    0.00874196
2       0.0185247     0.0185247    0.00686164    0.00686164    0.00327976    0.00327976    0.00372719    0.00372719    0.00465608    0.00465608    0.00838327    0.00838327     0.0101414     0.0101414
3      0.00937385    0.00937385    0.00323325    0.00323325    0.00180583    0.00180583    0.00200119    0.00200119    0.00233358    0.00233358    0.00433477    0.00433477    0.00503908    0.00503908