Bin                        incl                         4mu                          4e                       2mu2e                       2e2mu                        2l2l                          4l
0         0.00943       0.00943    0.00357341    0.00357341    0.00159102    0.00159102     0.0017815     0.0017815    0.00248408    0.00248408    0.00426558    0.00426558    0.00516443    0.00516443
1       0.0430484     0.0430484      0.015758      0.015758     0.0076243     0.0076243    0.00851089    0.00851089     0.0111552     0.0111552     0.0196661     0.0196661     0.0233823     0.0233823
2       0.0537411     0.0537411     0.0195046     0.0195046    0.00970645    0.00970645     0.0107706     0.0107706     0.0137595     0.0137595     0.0245301     0.0245301      0.029211      0.029211
3       0.0112336     0.0112336    0.00417768    0.00417768    0.00200495    0.00200495    0.00227289    0.00227289    0.00277805    0.00277805    0.00505093    0.00505093    0.00618263    0.00618263
4      0.00253236    0.00253236   0.000949361   0.000949361   0.000455019   0.000455019   0.000506192   0.000506192   0.000621786   0.000621786    0.00112798    0.00112798    0.00140438    0.00140438