Bin                 0                 1                 2                 3                 4
0        0.370148   0     0.0354418   0    0.00495284   0    0.00010193   0             0   0
1         0.07681   0      0.319767   0     0.0738526   0     0.0104925   0    0.00114811   0
2      0.00856904   0     0.0706782   0      0.311859   0     0.0900574   0     0.0110123   0
3     0.000596214   0    0.00639365   0     0.0456172   0      0.261562   0     0.0697894   0
4               0   0   0.000305879   0    0.00460309   0     0.0459959   0      0.303386   0