Bin                        incl                         4mu                          4e                       2mu2e                       2e2mu                        2l2l                          4l
0     4.26013e-05    0.00517906   1.72254e-05    0.00533056   2.53062e-08   1.70522e-05   -1.6451e-06   -0.00103137   2.69957e-05      0.014096   2.53506e-05    0.00722198   1.72507e-05     0.0036583
1     7.44192e-05     0.0190403   2.36707e-05     0.0152278   2.14152e-05     0.0323753   2.27567e-05     0.0290236   6.57649e-06    0.00723868   2.93332e-05     0.0173303   4.50859e-05     0.0203465
2     2.76301e-05     0.0125654   1.13875e-05     0.0135862   3.11817e-06    0.00868868   4.28721e-06    0.00892482   8.83724e-06     0.0169461   1.31245e-05     0.0131001   1.45056e-05     0.0121179