Bin                        incl                         4mu                          4e                       2mu2e                       2e2mu                        2l2l                          4l
0        0.473265   0.000427006      0.656272   0.000696623      0.321655   0.000944167      0.395664   0.000908487      0.515234   0.000824273      0.455384    0.00061422      0.489218   0.000593357
1         0.49059    0.00157764      0.660327    0.00261086      0.349209    0.00347055      0.436333    0.00329025      0.514468     0.0030966      0.475319    0.00226194      0.504286    0.00219873
2         0.48778    0.00168007      0.668924    0.00273162      0.341279    0.00369675      0.425501    0.00354617      0.512277    0.00329796      0.468999    0.00242365      0.504438    0.00232864
3        0.543509    0.00139008      0.735087    0.00213913      0.381195    0.00314448       0.47432     0.0029684      0.580385    0.00268467      0.527333    0.00200391      0.557861    0.00192797