Bin                 0                 1                 2                 3                 4                 5                 6                 7
0        0.264923   0     0.0155102   0   0.000521941   0    2.9952e-05   0   6.72199e-05   0   1.05003e-05   0             0   0             0   0
1       0.0158618   0      0.244936   0     0.0225636   0   0.000727405   0   0.000181348   0             0   0   0.000130307   0   7.66649e-05   0
2       0.0015048   0     0.0226852   0      0.244051   0     0.0268869   0    0.00116024   0   0.000351878   0   6.36721e-06   0             0   0
3     0.000358438   0    0.00092954   0     0.0268954   0      0.228768   0     0.0288305   0     0.0013069   0   0.000244407   0   3.85073e-05   0
4     0.000130688   0   0.000392802   0    0.00161936   0     0.0275385   0      0.233234   0     0.0255458   0    0.00137262   0   0.000166025   0
5               0   0   3.05634e-05   0   0.000285564   0      0.001058   0     0.0250505   0      0.241953   0      0.024549   0    0.00172774   0
6               0   0   2.47024e-05   0   0.000158691   0   0.000268128   0   0.000602405   0     0.0218069   0      0.248366   0     0.0194485   0
7               0   0             0   0             0   0   0.000128105   0    0.00011572   0   0.000570541   0     0.0135944   0      0.261845   0