Bin                        incl                         4mu                          4e                       2mu2e                       2e2mu                        2l2l                          4l
0       0.0029682     0.0029682      0.001067      0.001067   0.000537166   0.000537166   0.000623386   0.000623386   0.000740647   0.000740647    0.00136403    0.00136403    0.00160416    0.00160416
1      0.00295312    0.00295312    0.00109032    0.00109032   0.000531651   0.000531651   0.000600241   0.000600241   0.000730903   0.000730903    0.00133114    0.00133114    0.00162197    0.00162197
2      0.00297913    0.00297913    0.00110559    0.00110559   0.000532498   0.000532498   0.000594986   0.000594986    0.00074606    0.00074606    0.00134105    0.00134105    0.00163808    0.00163808
3      0.00291964    0.00291964     0.0010669     0.0010669   0.000521263   0.000521263   0.000592085   0.000592085   0.000739395   0.000739395    0.00133148    0.00133148    0.00158816    0.00158816
4      0.00289345    0.00289345    0.00106232    0.00106232    0.00051449    0.00051449   0.000589649   0.000589649   0.000726988   0.000726988    0.00131664    0.00131664    0.00157681    0.00157681
5      0.00284419    0.00284419     0.0010599     0.0010599   0.000507292   0.000507292   0.000568972   0.000568972   0.000708024   0.000708024      0.001277      0.001277    0.00156719    0.00156719
6      0.00280606    0.00280606    0.00102698    0.00102698   0.000510581   0.000510581   0.000551045   0.000551045    0.00071745    0.00071745    0.00126849    0.00126849    0.00153756    0.00153756
7      0.00269211    0.00269211   0.000987264   0.000987264   0.000471737   0.000471737   0.000527348   0.000527348   0.000705761   0.000705761    0.00123311    0.00123311      0.001459      0.001459