Bin                 0                 1                 2                 3                 4
0        0.410155   0     0.0420259   0     0.0056051   0   0.000496949   0             0   0
1       0.0816201   0      0.363303   0     0.0775661   0     0.0161228   0    0.00226476   0
2      0.00862064   0     0.0739459   0      0.344178   0      0.107447   0     0.0153839   0
3     0.000213549   0    0.00505079   0     0.0441556   0      0.287113   0     0.0887671   0
4               0   0    0.00035779   0    0.00574958   0     0.0484461   0      0.323503   0