Bin                        incl                         4mu                          4e                       2mu2e                       2e2mu                        2l2l                          4l
0        0.330273    0.00180005      0.483364    0.00311317      0.241696    0.00384803      0.278181    0.00396624      0.375569    0.00367372      0.324448    0.00269746      0.336175     0.0024209
1        0.386977    0.00242341      0.555394    0.00401727      0.293652    0.00522141      0.333493    0.00541834      0.423145    0.00496594      0.376569    0.00366502      0.397311    0.00322952
2        0.434223    0.00391225      0.593902     0.0063691      0.318672    0.00867865       0.39334     0.0087468       0.48547    0.00783828      0.438175    0.00585196      0.430314    0.00527141
3        0.465132    0.00555949      0.711076    0.00800478      0.368662     0.0119473      0.396592     0.0128575      0.461227     0.0117539      0.428233    0.00867677      0.500832    0.00717221