Bin                 0                 1                 2                 3                 4
0        0.194997   0     0.0174597   0    0.00163935   0   0.000194131   0   3.56429e-05   0
1       0.0736865   0      0.232695   0     0.0400981   0    0.00854236   0    0.00143662   0
2       0.0113553   0     0.0547017   0      0.255229   0     0.0775406   0     0.0157596   0
3      0.00132813   0    0.00506049   0     0.0262572   0      0.207936   0     0.0838793   0
4     9.52463e-05   0   0.000540576   0    0.00300981   0     0.0295153   0      0.229937   0