Bin                        incl                         4mu                          4e                       2mu2e                       2e2mu                        2l2l                          4l
0         1.15727       1.15727      0.445702      0.445702      0.192612      0.192612      0.219467      0.219467      0.299485      0.299485      0.518952      0.518952      0.638315      0.638315
1       0.0722322     0.0722322     0.0263166     0.0263166     0.0129476     0.0129476     0.0147159     0.0147159     0.0182521     0.0182521      0.032968      0.032968     0.0392643     0.0392643
2       0.0718559     0.0718559     0.0275737     0.0275737     0.0119846     0.0119846     0.0141918     0.0141918     0.0181058     0.0181058     0.0322976     0.0322976     0.0395583     0.0395583
3       0.0718533     0.0718533     0.0278245     0.0278245     0.0122573     0.0122573     0.0138712     0.0138712     0.0179003     0.0179003     0.0317715     0.0317715     0.0400818     0.0400818
4       0.0723441     0.0723441     0.0263939     0.0263939     0.0130687     0.0130687     0.0146964     0.0146964     0.0181852     0.0181852     0.0328816     0.0328816     0.0394625     0.0394625