Bin                 0                 1                 2                 3
0         0.42141   0         0.092   0     0.0510904   0     0.0452336   0
1        0.011013   0      0.300014   0     0.0255867   0    0.00669293   0
2      0.00881619   0     0.0338736   0      0.322158   0      0.023723   0
3      0.00453387   0    0.00551468   0     0.0151368   0      0.394992   0