Bin                        incl                         4mu                          4e                       2mu2e                       2e2mu                        2l2l                          4l
0         0.35757    0.00190747      0.362889    0.00380151      0.361423    0.00380781      0.351202    0.00383777      0.353872    0.00381115      0.352544    0.00270425      0.362157    0.00269029
1        0.434944    0.00163735      0.438077    0.00326875      0.439317    0.00324946      0.430529    0.00328902      0.431049    0.00329196      0.430789    0.00232673      0.438699    0.00230451
2        0.471994    0.00162855      0.476731    0.00324543      0.475069    0.00324604      0.468369    0.00326389      0.467034     0.0032722      0.467702    0.00231086        0.4759    0.00229508
3        0.541787    0.00245732      0.539175    0.00493269      0.545775     0.0048811      0.543894    0.00488199       0.53809    0.00496077      0.541019    0.00347969      0.542482    0.00346966