Bin                 0                 1                 2                 3
0         0.35968   0     0.0353212   0    0.00579652   0    0.00166966   0
1       0.0730275   0      0.299068   0     0.0384892   0    0.00264823   0
2       0.0071465   0     0.0513472   0      0.347532   0     0.0378809   0
3      0.00190219   0   0.000460147   0     0.0204741   0      0.412527   0