Bin                 0                 1                 2                 3
0        0.310107   0     0.0420636   0    0.00265807   0   0.000115497   0
1       0.0369279   0      0.272661   0     0.0276146   0   0.000399136   0
2      0.00141099   0     0.0258046   0      0.280962   0     0.0245581   0
3     0.000310114   0    0.00411129   0     0.0276867   0      0.283174   0