Bin                        incl                         4mu                          4e                       2mu2e                       2e2mu                        2l2l                          4l
0        0.467444    0.00445096      0.637695    0.00738554      0.325324    0.00986916      0.404364    0.00941661      0.496796    0.00863573      0.450985    0.00638739      0.482318    0.00620156
1        0.471937    0.00475118       0.63726    0.00790573      0.330902     0.0105502      0.410591    0.00999731      0.503527    0.00924267      0.457022    0.00681204      0.485397    0.00662585
2        0.464496    0.00485612      0.612978    0.00829786      0.326063     0.0106383      0.411973     0.0101798      0.506732    0.00940298       0.45926    0.00693427      0.469133    0.00679997
3        0.459819    0.00461078      0.612224    0.00788166      0.312785     0.0102846      0.413906    0.00953015       0.49786    0.00887904      0.455883    0.00651637      0.463427    0.00651596
4        0.469653    0.00456059      0.627894    0.00774792       0.33469     0.0100786       0.41247    0.00956184       0.50107    0.00877281      0.457254    0.00648608      0.481089     0.0064062
5        0.474325    0.00482237       0.62728    0.00822563      0.343834     0.0104771      0.426472     0.0100021      0.502651    0.00949722      0.464069     0.0069056      0.483474    0.00673461
6        0.476575    0.00470432      0.635471    0.00781338       0.34391     0.0102962      0.412404      0.010052      0.507393    0.00922558      0.460095    0.00682354      0.490894    0.00649629
7        0.476402     0.0044361      0.631105    0.00744821      0.339772    0.00982537      0.414292    0.00942429      0.513204    0.00854582      0.464335    0.00635769      0.487204    0.00619001