Bin                 0                 1                 2                 3                 4                 5                 6                 7
0        0.486271   0    0.00821136   0   0.000279013   0   0.000282944   0   0.000395841   0   0.000101235   0   0.000281115   0    0.00222853   0
1      0.00700854   0      0.478363   0    0.00894504   0    0.00029062   0   0.000451668   0   0.000866219   0    0.00111787   0   0.000370283   0
2     0.000291067   0    0.00927648   0      0.477861   0    0.00686922   0    0.00100603   0    0.00170879   0   0.000770031   0   0.000154508   0
3     0.000229783   0   0.000262862   0    0.00718402   0      0.484579   0    0.00363083   0    0.00148628   0   0.000792013   0   0.000425508   0
4     0.000375344   0   0.000622696   0    0.00141842   0    0.00395699   0      0.482126   0    0.00750751   0   0.000274478   0   0.000172057   0
5     0.000120094   0   0.000652979   0    0.00169949   0    0.00104365   0    0.00742208   0      0.474918   0    0.00909003   0   0.000188095   0
6     0.000278856   0   0.000854075   0    0.00084834   0   0.000517048   0   0.000213648   0    0.00928013   0      0.477607   0    0.00714638   0
7      0.00223261   0    0.00020431   0   0.000105917   0   0.000444706   0    0.00023277   0   0.000298469   0    0.00802416   0      0.486923   0