Bin                 0                 1                 2                 3
0        0.337761   0     0.0775529   0    0.00783236   0    0.00424888   0
1       0.0164335   0      0.270775   0     0.0700382   0    0.00992784   0
2      0.00018103   0     0.0196758   0      0.327479   0     0.0533903   0
3     1.79925e-05   0   6.59804e-05   0    0.00855156   0      0.364332   0